<?xml version="1.0" encoding="utf-8"?>
<!-- Generator: Adobe Illustrator 24.2.0, SVG Export Plug-In . SVG Version: 6.00 Build 0)  -->
<svg version="1.1" id="Layer_1" xmlns="http://www.w3.org/2000/svg" xmlns:xlink="http://www.w3.org/1999/xlink" x="0px" y="0px"
	 viewBox="0 0 100 100" style="enable-background:new 0 0 100 100;" xml:space="preserve">
<style type="text/css">
	.st0{fill:#AC7FFF;}
	.st1{fill:#FBA438;}
	.st2{fill:#341472;}
	.st3{fill:#FCA121;}
	.st4{fill:#380D75;}
	.st5{fill:#38F2AF;}
</style>
<g>
	<g>
		<circle class="st0" cx="26.04" cy="23.7" r="6.98"/>
	</g>
	<g>
		<path class="st0" d="M26.04,50.31c5.84,0,11.2-2.06,15.39-5.48c-3.76-4.28-9.25-6.99-15.39-6.99s-11.64,2.71-15.39,6.99
			C14.84,48.25,20.2,50.31,26.04,50.31z"/>
	</g>
	<g>
		<circle class="st1" cx="73.98" cy="70.81" r="6.98"/>
	</g>
	<g>
		<path class="st1" d="M73.98,97.41c5.84,0,11.2-2.06,15.39-5.48c-3.76-4.28-9.25-6.99-15.39-6.99s-11.64,2.71-15.39,6.99
			C62.79,95.35,68.14,97.41,73.98,97.41z"/>
	</g>
	<g>
		<path class="st2" d="M64.81,21.44h13.64v13.64c0,1.38,1.12,2.5,2.5,2.5s2.5-1.12,2.5-2.5V18.94c0-1.38-1.12-2.5-2.5-2.5H64.81
			c-1.38,0-2.5,1.12-2.5,2.5S63.43,21.44,64.81,21.44z"/>
		<path class="st2" d="M36.07,78.6H21.29V64.93c0-1.38-1.12-2.5-2.5-2.5s-2.5,1.12-2.5,2.5V81.1c0,1.38,1.12,2.5,2.5,2.5h17.27
			c1.38,0,2.5-1.12,2.5-2.5S37.45,78.6,36.07,78.6z"/>
		<path class="st2" d="M26.02,35.34c-6.37,0-12.5,2.33-17.27,6.56c-0.53,0.47-0.84,1.15-0.84,1.87s0.31,1.39,0.84,1.87
			c4.76,4.23,10.9,6.56,17.27,6.56c6.37,0,12.5-2.33,17.27-6.56c0.53-0.47,0.84-1.15,0.84-1.87s-0.31-1.39-0.84-1.87
			C38.52,37.67,32.39,35.34,26.02,35.34z M26.02,47.2c-4.11,0-8.1-1.2-11.51-3.43c3.4-2.23,7.39-3.43,11.51-3.43s8.1,1.2,11.51,3.43
			C34.12,46,30.13,47.2,26.02,47.2z"/>
		<path class="st2" d="M36.02,23.7c0-5.52-4.49-10.01-10.01-10.01S16.01,18.18,16.01,23.7s4.49,10.01,10.01,10.01
			S36.02,29.22,36.02,23.7z M21.01,23.7c0-2.76,2.25-5.01,5.01-5.01s5.01,2.25,5.01,5.01s-2.25,5.01-5.01,5.01
			S21.01,26.46,21.01,23.7z"/>
		<path class="st2" d="M52.03,26.19c0-14.34-11.67-26.01-26.01-26.01C11.67,0.18,0,11.85,0,26.19c0,4.71,1.27,9.32,3.68,13.35
			c0.71,1.18,2.24,1.57,3.43,0.86c1.18-0.71,1.57-2.25,0.86-3.43C6.03,33.72,5,29.99,5,26.19C5,14.6,14.43,5.18,26.02,5.18
			c11.59,0,21.01,9.43,21.01,21.01c0,3.8-1.03,7.53-2.97,10.78c-0.71,1.18-0.32,2.72,0.86,3.43c0.4,0.24,0.85,0.36,1.28,0.36
			c0.85,0,1.68-0.43,2.15-1.22C50.76,35.51,52.03,30.9,52.03,26.19z"/>
		<path class="st2" d="M73.98,82.97c-6.37,0-12.5,2.33-17.27,6.56c-0.53,0.47-0.84,1.15-0.84,1.87s0.31,1.39,0.84,1.87
			c4.76,4.23,10.9,6.56,17.27,6.56c6.37,0,12.5-2.33,17.27-6.56c0.53-0.47,0.84-1.15,0.84-1.87s-0.31-1.39-0.84-1.87
			C86.49,85.3,80.35,82.97,73.98,82.97z M73.98,94.83c-4.11,0-8.1-1.2-11.51-3.43c3.4-2.23,7.39-3.43,11.51-3.43s8.1,1.2,11.51,3.43
			C82.09,93.63,78.1,94.83,73.98,94.83z"/>
		<path class="st2" d="M83.99,71.33c0-5.52-4.49-10.01-10.01-10.01s-10.01,4.49-10.01,10.01s4.49,10.01,10.01,10.01
			S83.99,76.85,83.99,71.33z M68.98,71.33c0-2.76,2.25-5.01,5.01-5.01s5.01,2.25,5.01,5.01s-2.25,5.01-5.01,5.01
			S68.98,74.09,68.98,71.33z"/>
		<path class="st2" d="M73.98,47.81c-14.34,0-26.01,11.67-26.01,26.01c0,4.71,1.27,9.32,3.68,13.35c0.71,1.18,2.24,1.57,3.43,0.86
			c1.18-0.71,1.57-2.25,0.86-3.43c-1.95-3.25-2.97-6.97-2.97-10.78c0-11.59,9.43-21.01,21.01-21.01C85.57,52.81,95,62.23,95,73.82
			c0,3.8-1.03,7.53-2.97,10.78c-0.71,1.18-0.32,2.72,0.86,3.43c0.4,0.24,0.85,0.36,1.28,0.36c0.85,0,1.68-0.43,2.15-1.22
			c2.41-4.02,3.68-8.64,3.68-13.35C100,59.48,88.33,47.81,73.98,47.81z"/>
	</g>
</g>
</svg>
