<svg width="40" height="40" viewBox="0 0 40 40" fill="none" xmlns="http://www.w3.org/2000/svg">
<path d="M6.41861 27.907L5.02326 30.8837C6.13954 32.5581 7.44186 33.8604 9.02326 35.0697L12 33.6744C13.4884 32.9302 15.3488 33.7674 15.907 35.2558L17.0233 38.4186C18.9767 38.6976 20.9302 38.6976 22.7907 38.4186L23.907 35.2558C24.4651 33.6744 26.3256 32.9302 27.814 33.6744L30.7907 35.0697C32.3721 33.9535 33.7674 32.5581 34.8837 30.9767L33.5814 27.907C32.8372 26.4186 33.6744 24.5581 35.1628 24L38.3256 22.8837C38.6047 20.9302 38.6047 19.0697 38.3256 17.1163L35.1628 16C33.5814 15.4418 32.8372 13.5814 33.5814 12.093L34.9767 9.11625C33.8605 7.44183 32.5581 6.13951 30.9767 4.9302L27.907 6.41858C26.4186 7.16276 24.5581 6.32555 24 4.83718L22.8837 1.67439C20.9302 1.39532 18.9767 1.39532 17.1163 1.67439L16 4.83718C15.4419 6.41858 13.5814 7.16276 12.093 6.41858L9.02326 4.9302C7.44186 6.13951 6.13954 7.44183 4.93023 9.02323L6.41861 12.093C7.16279 13.5814 6.32558 15.4418 4.83721 16L1.67442 17.1163C1.39535 19.0697 1.39535 21.0232 1.67442 22.8837L4.83721 24C6.32558 24.5581 7.06977 26.4186 6.41861 27.907ZM14.3256 20C14.3256 16.8372 16.8372 14.3256 20 14.3256C23.1628 14.3256 25.6744 16.8372 25.6744 20C25.6744 23.1628 23.1628 25.6744 20 25.6744C16.8372 25.6744 14.3256 23.1628 14.3256 20Z" stroke="black" stroke-width="2.5" stroke-miterlimit="10" stroke-linecap="round" stroke-linejoin="round"/>
</svg>
