<?xml version="1.0" encoding="utf-8"?>
<!-- Generator: Adobe Illustrator 23.0.1, SVG Export Plug-In . SVG Version: 6.00 Build 0)  -->
<svg version="1.1" xmlns="http://www.w3.org/2000/svg" xmlns:xlink="http://www.w3.org/1999/xlink" x="0px" y="0px"
	 viewBox="0 0 2186 559" style="enable-background:new 0 0 2186 559;" xml:space="preserve">
<style type="text/css">
	.st0{fill:#FC6D26;}
	.st1{fill:#E24329;}
	.st2{fill:#FCA326;}
	.st3{fill:#FFFFFF;}
	.st4{fill:#8D1405;}
	.st5{fill:#E04329;}
	.st6{fill:#9CA2AC;}
	.st7{display:none;}
	.st8{display:inline;}
	.st9{display:inline;opacity:0.1;fill:#E828E3;}
	.st10{font-family:'SourceSansPro-Semibold';}
	.st11{font-size:24px;}
</style>
<g id="logo_art">
	<g>
		<path class="st4" d="M291.2,435c-3.8,0-7.4-1.2-10.4-3.4L135.9,326.3c-9.5-6.9-13.9-18.7-11.3-30.1v-0.9l0.9-2.2l16.6-50.9
			c0.1-0.3,0.2-0.6,0.3-0.9l32.8-101.2c3.3-9.9,12.1-16.2,22.3-16.2c10.5,0.1,19.1,6.5,22.3,16.2l29.2,89.6h42.3l42.2,0l29.1-89.6
			c3.2-9.8,11.9-16.1,22.2-16.2c10.3,0,19.1,6.3,22.4,16l33,101.6c0.2,0.6,0.5,1.4,0.6,2.2l17,52.1v0.4c2.6,11.4-1.7,23.2-11.3,30.1
			L301.1,432l-0.4,0.2C298,434,294.7,435,291.2,435z"/>
		<path class="st5" d="M443.5,297.7l-11.2-34.4c-0.6-1.8-2.6-2.8-4.4-2.2c-1.8,0.6-2.8,2.6-2.2,4.4l11.2,34.4
			c1.1,3.3-0.1,6.8-2.9,8.8l-123.8,90l104.7-134.4c1.2-1.5,0.9-3.7-0.6-4.9c-1.5-1.2-3.7-0.9-4.9,0.6L300.3,400l48.5-149.2h59
			c1.9,0,3.5-1.6,3.5-3.5s-1.6-3.5-3.5-3.5h-56.7l31.7-97.5c0.4-1.3,1.6-1.5,2.1-1.5c0.4,0,1.7,0.1,2.1,1.5l33.1,102.1
			c0.5,1.5,1.9,2.4,3.3,2.4c0.4,0,0.7-0.1,1.1-0.2c1.8-0.6,2.8-2.6,2.2-4.4l-33.1-102.2c-1.3-3.8-4.8-6.3-8.8-6.3
			c-4,0-7.4,2.5-8.7,6.3l-32.4,99.7l-33.7,0c0,0,0,0,0,0c-1.9,0-3.5,1.6-3.5,3.5c0,1.9,1.6,3.5,3.5,3.5l31.4,0l-50.3,154.7
			l-50.3-154.7h46.9l0,13.2c-11.2,1.7-19.8,11.4-19.8,23c0,7.5,3.6,14.3,9.7,18.6l-1.7,22.6c-0.1,1,0.3,1.9,0.9,2.6s1.6,1.1,2.6,1.1
			H303c1,0,1.9-0.4,2.6-1.1c0.7-0.7,1-1.7,0.9-2.6l-1.7-22.3c6.1-4.3,9.7-11.4,9.7-18.9c0-3.7-0.9-7.3-2.5-10.6
			c-0.9-1.7-3-2.4-4.7-1.5c-1.7,0.9-2.4,3-1.5,4.7c1.2,2.3,1.8,4.8,1.8,7.4c0,5.8-3.1,11.2-8.1,14.1c-1.2,0.7-1.8,2-1.7,3.3
			l1.6,20.6h-15.9l1.6-20.9c0.1-1.3-0.6-2.6-1.7-3.3c-5.2-3-8.1-8-8.1-13.8c0-9,7.3-16.3,16.3-16.3c1.9,0,3.5-1.6,3.5-3.5l0-20
			c0-0.9-0.4-1.8-1-2.5c-0.7-0.7-1.5-1-2.5-1h-52.6l-32.4-99.6c-1.2-3.8-4.7-6.3-8.7-6.3c0,0,0,0-0.1,0c-4,0-7.5,2.5-8.8,6.3
			l-33.1,102.1c-0.6,1.8,0.4,3.8,2.2,4.4c0.4,0.1,0.7,0.2,1.1,0.2c1.5,0,2.8-0.9,3.3-2.4l33.1-102.1c0.5-1.4,1.7-1.6,2.2-1.5
			c0.5,0,1.6,0.2,2.1,1.5l31.7,97.5h-56.7c-1.9,0-3.5,1.6-3.5,3.5s1.6,3.5,3.5,3.5h59L281.7,399L173.4,260c-1.2-1.5-3.4-1.8-4.9-0.6
			s-1.8,3.4-0.6,4.9l105.4,135.3l-125-90.8c-2.8-2-3.9-5.6-2.9-8.8l11.2-34.4c0.6-1.8-0.4-3.8-2.2-4.4c-1.8-0.6-3.8,0.4-4.4,2.2
			l-11.2,34.4c-2,6.2,0.2,12.9,5.4,16.7L289,419.7c0.6,0.5,1.3,0.7,2.1,0.7c0,0,0,0,0,0c0,0,0,0,0,0c0.2,0,0.5,0,0.7-0.1
			c1-0.1,1.9-0.5,2.5-1.3l0.2-0.3l143.5-104.3C443.3,310.6,445.5,303.9,443.5,297.7z"/>
		<g>
			<g>
				<path id="path14_1_" class="st6" d="M832.8,198.4h-21.7l0.1,161.5H899v-20h-66.1L832.8,198.4L832.8,198.4z"/>
				<g id="g24_1_" transform="translate(977.327440, 143.284396)">
					<path id="path26_1_" class="st6" d="M5.2,188.2c-5.5,5.7-14.5,11.3-26.8,11.3c-16.5,0-23.2-8.1-23.2-18.8
						c0-16,11.1-23.6,34.8-23.6c4.5,0,11.6,0.5,15.3,1.2L5.2,188.2L5.2,188.2z M-17.3,90.4c-17.5,0-33.6,6.2-46.1,16.6l7.7,13.3
						c8.8-5.2,19.7-10.3,35.3-10.3c17.8,0,25.6,9.1,25.6,24.4v7.8c-3.5-0.7-10.6-1.2-15-1.2c-38,0-57.2,13.3-57.2,41.1
						c0,24.9,15.3,37.5,38.5,37.5c15.6,0,30.6-7.2,35.8-18.8l4,15.8h15.3V134C26.3,107.9,15,90.4-17.3,90.4L-17.3,90.4z"/>
				</g>
				<g id="g28_1_" transform="translate(1099.766904, 143.128930)">
					<path id="path30_1_" class="st6" d="M-26.1,200.5c-8.1,0-15.3-1-20.7-3.5v-66.9v-7.7c7.4-6.2,16.5-10.6,28.1-10.6
						c21,0,29,14.8,29,38.7C10.3,184.5-2.7,200.5-26.1,200.5 M-17,90.6c-19.4,0-29.8,13.2-29.8,13.2V82.9l-0.1-27.6h-9.7h-11.4
						l0.1,157.5c10.6,4.5,25.1,6.9,40.9,6.9c40.4,0,59.9-25.8,59.9-70.4C32.8,113.9,14.8,90.6-17,90.6"/>
				</g>
				<g id="g32_1_" transform="translate(584.042117, 143.630796)">
					<path id="path34_1_" class="st6" d="M12.9,72.3c19.2,0,31.6,6.4,39.6,12.8l9.3-16.2c-12.6-11.1-29.7-17.1-48-17.1
						c-46.1,0-78.4,28.1-78.4,84.9c0,59.4,34.9,82.6,74.7,82.6c20,0,37-4.7,48.1-9.3l-0.5-63.5v-7.5v-12.5H-1.3v20h37.8l0.5,48.2
						c-5,2.5-13.5,4.5-25.1,4.5c-32,0-53.5-20.2-53.5-62.6C-41.7,93.2-19.6,72.3,12.9,72.3"/>
				</g>
				<g id="g36_1_" transform="translate(793.569045, 142.577463)">
					<path id="path38_1_" class="st6" d="M-44,55.8h-21.2l0.1,27.1V94v6.5v11.3v64.6v0.2c0,26.1,11.3,43.6,43.6,43.6
						c4.5,0,8.8-0.4,13-1.2v-19c-3.1,0.5-6.4,0.7-9.8,0.7c-17.8,0-25.6-9.1-25.6-24.4v-64.6h35.5V94h-35.5L-44,55.8L-44,55.8z"/>
				</g>
				<path id="path40_37_" class="st6" d="M674.5,359.9h21.2V236.6h-21.2V359.9L674.5,359.9z"/>
				<path id="path42_1_" class="st6" d="M674.5,219.7h21.2v-21.2h-21.2V219.7L674.5,219.7z"/>
			</g>
		</g>
		<g>
			<path class="st6" d="M1243.8,362.9c-10.6,0-21.2-1.9-31.7-5.8c-10.5-3.9-19.9-9.7-28.2-17.5l20.9-25.1c5.8,5,12.2,9,19.3,12.2
				c7,3.1,13.9,4.7,20.7,4.7c7.6,0,13.3-1.4,17-4.2c3.7-2.8,5.6-6.6,5.6-11.4c0-2.5-0.5-4.6-1.6-6.5c-1.1-1.8-2.7-3.4-4.7-4.8
				c-2.1-1.4-4.6-2.7-7.5-4c-2.9-1.2-6.1-2.6-9.6-4.1l-21.1-8.9c-4.1-1.7-8.2-3.8-12-6.5c-3.9-2.6-7.4-5.8-10.4-9.3
				c-3.1-3.6-5.5-7.7-7.3-12.4c-1.8-4.7-2.7-10.1-2.7-16c0-6.6,1.4-12.9,4.2-18.8c2.8-5.9,6.8-11,11.9-15.4
				c5.1-4.4,11.2-7.8,18.3-10.3c7-2.5,14.8-3.7,23.2-3.7c9.4,0,18.8,1.8,27.9,5.5c9.2,3.6,17.3,8.9,24.2,15.9l-18.6,23.1
				c-5.3-4.1-10.6-7.3-15.9-9.6c-5.3-2.2-11.2-3.4-17.6-3.4c-6.3,0-11.3,1.3-15,3.9c-3.7,2.6-5.6,6.2-5.6,10.8
				c0,2.5,0.6,4.6,1.9,6.3s3,3.3,5.2,4.7c2.2,1.4,4.8,2.7,7.8,4c3,1.2,6.2,2.6,9.7,4.1l20.9,8.4c9.9,4,17.8,9.4,23.5,16.4
				c5.7,7,8.6,16.1,8.6,27.6c0,6.8-1.4,13.2-4.1,19.3c-2.7,6-6.7,11.3-11.9,15.9c-5.2,4.6-11.6,8.2-19.3,10.9
				C1262,361.5,1253.4,362.9,1243.8,362.9z"/>
			<path class="st6" d="M1381.9,362.9c-8.8,0-17-1.5-24.6-4.3c-7.6-2.9-14.2-7.1-19.9-12.7c-5.6-5.5-10-12.3-13.2-20.2
				c-3.1-7.9-4.7-17.1-4.7-27.3c0-9.9,1.7-18.9,5-27c3.3-8,7.7-14.8,13-20.4c5.4-5.5,11.6-9.8,18.5-12.8c7-3,14.2-4.5,21.6-4.5
				c8.8,0,16.4,1.5,23,4.5c6.5,3,12,7.1,16.4,12.4c4.4,5.3,7.7,11.6,9.8,18.8c2.2,7.2,3.2,15,3.2,23.5c0,3.3-0.2,6.5-0.5,9.4
				c-0.3,3-0.7,5.2-1,6.7h-73.8c1.7,8.9,5.3,15.5,11.1,19.7s12.7,6.3,21,6.3c8.8,0,17.6-2.7,26.6-8.2l12.2,22.1
				c-6.3,4.3-13.3,7.7-21,10.2C1396.9,361.6,1389.3,362.9,1381.9,362.9z M1354.5,284.9h44.5c0-7-1.6-12.6-4.7-16.9
				c-3.1-4.3-8.4-6.5-15.9-6.5c-5.8,0-10.9,1.9-15.3,5.7C1358.7,271.1,1355.9,276.9,1354.5,284.9z"/>
			<path class="st6" d="M1504.8,362.9c-8.6,0-16.6-1.5-24-4.3c-7.4-2.9-13.8-7.1-19.3-12.5c-5.5-5.5-9.8-12.2-12.9-20.2
				c-3.1-8-4.7-17.2-4.7-27.4c0-10.3,1.7-19.4,5.2-27.4c3.5-8,8.2-14.8,14-20.2c5.9-5.5,12.7-9.6,20.5-12.5
				c7.8-2.9,15.9-4.3,24.3-4.3c7.6,0,14.4,1.2,20.2,3.7c5.9,2.5,11.1,5.6,15.8,9.4l-17.1,23.6c-5.8-4.8-11.3-7.2-16.6-7.2
				c-8.9,0-16,3.1-21.1,9.4c-5.1,6.3-7.7,14.8-7.7,25.6c0,10.8,2.6,19.3,7.8,25.6c5.2,6.3,11.8,9.4,19.7,9.4c4,0,7.8-0.9,11.6-2.6
				c3.7-1.7,7.2-3.9,10.6-6.3l14.4,23.8c-6.1,5.3-12.8,9.1-19.9,11.3C1518.6,361.8,1511.6,362.9,1504.8,362.9z"/>
			<path class="st6" d="M1597.8,362.9c-13.4,0-23.1-4.4-29.2-13.2c-6-8.8-9.1-20.9-9.1-36.5v-76.5h36.5v71.8
				c0,8.9,1.2,15.1,3.7,18.4c2.5,3.3,6.4,5,11.7,5c4.6,0,8.5-1.1,11.7-3.2c3.1-2.2,6.5-5.6,10.2-10.4v-81.5h36.5v123.2H1640
				l-2.7-17.1h-0.7c-5.3,6.3-11,11.2-17,14.8C1613.5,361.1,1606.2,362.9,1597.8,362.9z"/>
			<path class="st6" d="M1697.1,359.9V236.7h29.8l2.5,21.6h1c4.5-8.4,9.9-14.7,16.1-18.6c6.3-4,12.6-6,18.9-6c3.5,0,6.3,0.2,8.6,0.6
				c2.2,0.4,4.3,1,6.1,1.9l-6,31.5c-2.3-0.7-4.5-1.2-6.5-1.5c-2-0.3-4.3-0.5-7-0.5c-4.6,0-9.5,1.7-14.5,5
				c-5.1,3.3-9.2,9.2-12.5,17.6v71.5H1697.1z"/>
			<path class="st6" d="M1811.1,218.6c-6.1,0-11.2-1.8-15.2-5.3c-4-3.6-6-8.2-6-13.8c0-5.6,2-10.2,6-13.7c4-3.5,9-5.2,15.2-5.2
				c6.3,0,11.4,1.7,15.3,5.2c3.9,3.5,5.8,8,5.8,13.7c0,5.6-1.9,10.2-5.8,13.8C1822.5,216.8,1817.4,218.6,1811.1,218.6z M1793,359.9
				V236.7h36.5v123.2H1793z"/>
			<path class="st6" d="M1904.4,362.9c-7.6,0-14.1-1.2-19.5-3.5c-5.4-2.3-9.8-5.5-13.2-9.7c-3.4-4.1-5.9-9.1-7.5-15
				c-1.6-5.9-2.4-12.4-2.4-19.5v-49.9H1845v-27.1l18.9-1.5l4.2-32.8h30.3v32.8h29.6v28.6h-29.6v49.4c0,7,1.4,12,4.3,15
				c2.9,3.1,6.7,4.6,11.6,4.6c2,0,4-0.2,6.1-0.7c2.1-0.5,3.9-1.1,5.6-1.7l5.7,26.6c-3.3,1-7.2,2-11.7,3S1910.3,362.9,1904.4,362.9z"
				/>
			<path class="st6" d="M1965.3,408.1c-3.8,0-7-0.2-9.7-0.6c-2.7-0.4-5.2-1-7.7-1.9l6.5-27.8c1.2,0.3,2.5,0.7,4,1
				c1.5,0.3,2.9,0.5,4.2,0.5c6.1,0,10.8-1.5,14.2-4.5c3.3-3,5.8-6.9,7.5-11.7l1.7-6.5l-47.4-120h36.8l17.6,52.9
				c1.8,5.6,3.5,11.3,5,17.1c1.5,5.8,3.1,11.8,4.7,17.9h1c1.3-5.8,2.7-11.6,4.1-17.5c1.4-5.9,2.9-11.7,4.3-17.5l14.9-52.9h35
				l-42.7,124.4c-3,7.8-6.1,14.6-9.3,20.5c-3.2,5.9-7,10.8-11.2,14.7c-4.2,3.9-9,6.8-14.4,8.8
				C1978.9,407.1,1972.6,408.1,1965.3,408.1z"/>
		</g>
	</g>
</g>
<g id="spacing_guides" xmlns:sketch="http://www.bohemiancoding.com/sketch/ns" class="st7">
	<path id="path40_30_" sketch:type="MSShapeGroup" class="st9" d="M-1,0v124h2186V0H-1L-1,0z"/>
	<path id="path40_29_" sketch:type="MSShapeGroup" class="st9" d="M-1,435v124h2186V435H-1L-1,435z"/>
	<path id="path40_28_" sketch:type="MSShapeGroup" class="st9" d="M261.7,434.6h62v-310h-62V434.6L261.7,434.6z"/>
	<path id="path40_27_" sketch:type="MSShapeGroup" class="st9" d="M458.7,560h62V-1h-62V560L458.7,560z"/>
	<text transform="matrix(1 0 0 1 254.5596 195)" class="st8 st10 st11">H: 2.5 x</text>
	<text transform="matrix(1 0 0 1 464.8647 282.832)" class="st8 st10 st11">1/2 x</text>
	<text transform="matrix(1 0 0 1 1081.0723 500.4978)" class="st8 st10 st11">1x</text>
	<text transform="matrix(1 0 0 1 1081.0723 65.4988)" class="st8 st10 st11">1x</text>
	<path id="path40_26_" sketch:type="MSShapeGroup" class="st9" d="M0,560h124V-1H0V560L0,560z"/>
	<text transform="matrix(1 0 0 1 51.0713 282.832)" class="st8 st10 st11">1x</text>
	<path id="path40_3_" sketch:type="MSShapeGroup" class="st9" d="M2062,560h124V-1h-124V560L2062,560z"/>
	<text transform="matrix(1 0 0 1 2111.072 282.832)" class="st8 st10 st11">1x</text>
</g>
</svg>
