<?xml version="1.0" encoding="UTF-8"?>
<svg width="1800px" height="309px" viewBox="0 0 1800 309" version="1.1" xmlns="http://www.w3.org/2000/svg" xmlns:xlink="http://www.w3.org/1999/xlink">
    <title>Fill 1</title>
    <g id="Page-1" stroke="none" stroke-width="1" fill="none" fill-rule="evenodd">
        <g id="DevSecOps-UI" transform="translate(0.000000, -17100.000000)" fill="#380D75">
            <polygon id="Fill-1" points="-7 17100 -7 17145.01 1.01082741 17149.511 17.4710312 17157.5199 34.8112565 17164.8722 52.9350226 17171.5432 71.7370777 17177.5907 91.0595443 17183.0208 110.76501 17187.8955 130.762842 17192.2293 150.87762 17196.1521 171.021635 17199.6621 191.019467 17202.883 210.783406 17205.8747 230.19943 17208.7467 249.203218 17211.534 267.70706 17214.3626 285.661254 17217.2738 302.995631 17220.3708 319.689728 17223.7156 335.740619 17227.3908 351.148306 17231.4396 365.88355 17235.9179 380.004826 17240.8958 393.541371 17246.3631 406.580893 17252.3527 419.152629 17258.8544 431.373526 17265.8165 443.334218 17273.206 455.145803 17280.9486 466.898915 17288.9781 478.710499 17297.1976 490.606871 17305.5182 502.713745 17313.8802 515.107138 17322.1389 527.798745 17330.2531 540.806107 17338.1195 554.196468 17345.6969 567.966905 17352.9439 582.117417 17359.7801 596.589532 17366.2178 611.41541 17372.2487 626.557044 17377.8667 641.967654 17383.047 657.667706 17387.7751 673.598727 17392.113 689.737329 17395.9905 706.054273 17399.4199 722.570026 17402.3311 739.264123 17404.7468 756.075166 17406.6463 772.976842 17407.9697 789.963305 17408.7729 807.00824 17409 824.050252 17408.6903 841.065951 17407.8417 858.055338 17406.4811 874.951167 17404.6249 891.76221 17402.3104 908.456306 17399.5438 924.974983 17396.4075 941.347477 17392.8129 957.544551 17388.9933 973.53697 17384.8432 989.353968 17380.3835 1004.93707 17375.6554 1020.31845 17370.6775 1035.46008 17365.5178 1050.42922 17360.1703 1065.16446 17354.6762 1079.66874 17349.0623 1093.99175 17343.3411 1108.14518 17337.5827 1122.08812 17331.781 1135.88779 17325.9379 1149.54128 17320.1135 1163.04859 17314.2931 1176.41264 17308.4934 1189.68313 17302.7103 1202.86883 17296.9725 1215.93759 17291.2513 1228.94788 17285.5941 1241.90261 17279.9575 1254.79303 17274.3643 1267.66005 17268.8289 1280.52416 17263.3575 1293.38533 17257.9893 1306.33715 17252.7244 1319.40883 17247.6246 1332.65008 17242.688 1346.10184 17237.9619 1359.86935 17233.5022 1373.96432 17229.3109 1388.49198 17225.4293 1403.54883 17221.8553 1419.19333 17218.6551 1435.44596 17215.8079 1452.46166 17213.3096 1470.17903 17211.1231 1488.65656 17209.1989 1507.86793 17207.4872 1527.74589 17205.8747 1548.21151 17204.2663 1569.20338 17202.5733 1590.57534 17200.713 1612.27181 17198.5885 1634.07939 17196.1109 1655.91913 17193.1604 1677.61268 17189.7103 1699.01387 17185.645 1719.9502 17180.9355 1740.26963 17175.5074 1759.79676 17169.3134 1778.30645 17162.312 1795.64082 17154.4456 1800 17152.0712 1800 17100"></polygon>
        </g>
    </g>
</svg>