<?xml version="1.0" encoding="UTF-8"?>
<svg width="85px" height="85px" viewBox="0 0 85 85" version="1.1" xmlns="http://www.w3.org/2000/svg" xmlns:xlink="http://www.w3.org/1999/xlink">
    <title>Group 9 Copy</title>
    <g id="Page-1" stroke="none" stroke-width="1" fill="none" fill-rule="evenodd" stroke-linecap="round" stroke-linejoin="round">
        <g id="DevSecOps-UI" transform="translate(-198.000000, -1931.000000)" stroke-width="5">
            <g id="Group-9-Copy" transform="translate(200.000000, 1933.000000)">
                <path d="M80.5004,40.5004 C80.5004,62.5914 62.5914,80.5004 40.5004,80.5004 C18.4084,80.5004 0.5004,62.5914 0.5004,40.5004 C0.5004,18.4084 18.4084,0.5004 40.5004,0.5004 C62.5914,0.5004 80.5004,18.4084 80.5004,40.5004 Z" id="Stroke-1" stroke="#49F2BA" stroke-dasharray="15.238,22.857,30.476,15.793,7.619,13.16"></path>
                <path d="M65.8227,40.5688 C65.8227,54.3758 54.6297,65.5688 40.8227,65.5688 C27.0147,65.5688 15.8227,54.3758 15.8227,40.5688 C15.8227,26.7608 27.0147,15.5688 40.8227,15.5688 C54.6297,15.5688 65.8227,26.7608 65.8227,40.5688 Z" id="Stroke-3" stroke="#6E49CB"></path>
                <polyline id="Stroke-5" stroke="#6E49CB" points="46.4467 29.8012 40.8227 40.5692 47.9087 45.4562"></polyline>
                <path d="M41.7289,40.5688 C41.7289,41.0688 41.3229,41.4748 40.8229,41.4748 C40.3219,41.4748 39.9159,41.0688 39.9159,40.5688 C39.9159,40.0678 40.3219,39.6618 40.8229,39.6618 C41.3229,39.6618 41.7289,40.0678 41.7289,40.5688 Z" id="Stroke-7" stroke="#6E49CB"></path>
            </g>
        </g>
    </g>
</svg>