<?xml version="1.0" encoding="UTF-8"?>
<svg width="336px" height="332px" viewBox="0 0 336 332" version="1.1" xmlns="http://www.w3.org/2000/svg" xmlns:xlink="http://www.w3.org/1999/xlink">
    <title>Group 11</title>
    <g id="Page-1" stroke="none" stroke-width="1" fill="none" fill-rule="evenodd" stroke-linecap="round" stroke-linejoin="round">
        <g id="DevSecOps-UI-–-Navigation" transform="translate(-1477.000000, 116.000000)" stroke-width="4">
            <g id="Group-11" transform="translate(1468.000000, 0.000000)">
                <g transform="translate(11.000000, -114.000000)">
                    <path d="M197.6475,164.4282 L197.6415,165.0082 L197.6265,165.5872 L197.6015,166.1672 L197.5665,166.7452 L197.5205,167.3232 L197.4645,167.9002 L197.3995,168.4762 L197.3245,169.0512 L197.2385,169.6252 L197.1425,170.1972 L197.0375,170.7662 L196.9205,171.3352 L196.7955,171.9012 L196.6605,172.4652 L196.5155,173.0262 L196.3605,173.5842 L196.1955,174.1402 L196.0215,174.6932 L195.8365,175.2432 L195.6435,175.7892 L195.4405,176.3332 L195.2285,176.8722 L195.0055,177.4072 L194.7755,177.9392 L194.5355,178.4672 L194.2855,178.9902 L194.0265,179.5092 L193.7585,180.0232 L193.4825,180.5332 L193.1965,181.0372 L192.9025,181.5372 L192.5995,182.0322 L192.2885,182.5202 L191.9675,183.0042 L191.6395,183.4822 L191.3025,183.9532 L190.9585,184.4202 L190.6055,184.8802 L190.2445,185.3332 L189.8755,185.7812 L189.4995,186.2212 L189.1145,186.6562 L188.7225,187.0832 L188.3245,187.5042 L187.9175,187.9172 L187.5035,188.3232 L187.0835,188.7232 L186.6565,189.1152 L186.2215,189.4992 L185.7815,189.8752 L185.3335,190.2442 L184.8795,190.6052 L184.4195,190.9582 L183.9545,191.3022 L183.4815,191.6392 L183.0035,191.9682 L182.5205,192.2882 L182.0315,192.5992 L181.5375,192.9022 L181.0385,193.1972 L180.5335,193.4822 L180.0235,193.7592 L179.5085,194.0262 L178.9905,194.2852 L178.4665,194.5342 L177.9395,194.7752 L177.4085,195.0062 L176.8725,195.2282 L176.3335,195.4412 L175.7905,195.6442 L175.2435,195.8372 L174.6935,196.0212 L174.1405,196.1962 L173.5855,196.3602 L173.0255,196.5152 L172.4645,196.6602 L171.9005,196.7962 L171.3355,196.9212 L170.7665,197.0362 L170.1965,197.1422 L169.6255,197.2382 L169.0515,197.3232 L168.4765,197.3992 L167.9005,197.4652 L167.3235,197.5202 L166.7455,197.5662 L166.1675,197.6012 L165.5875,197.6272 L165.0075,197.6422 L164.4275,197.6472 L163.8485,197.6422 L163.2685,197.6272 L162.6895,197.6012 L162.1115,197.5662 L161.5335,197.5202 L160.9565,197.4652 L160.3795,197.3992 L159.8045,197.3232 L159.2315,197.2382 L158.6605,197.1422 L158.0895,197.0362 L157.5215,196.9212 L156.9555,196.7962 L156.3915,196.6602 L155.8305,196.5152 L155.2715,196.3602 L154.7155,196.1962 L154.1635,196.0212 L153.6135,195.8372 L153.0665,195.6442 L152.5235,195.4412 L151.9845,195.2282 L151.4485,195.0062 L150.9175,194.7752 L150.3895,194.5342 L149.8665,194.2852 L149.3465,194.0262 L148.8335,193.7592 L148.3235,193.4822 L147.8185,193.1972 L147.3195,192.9022 L146.8255,192.5992 L146.3355,192.2882 L145.8525,191.9682 L145.3755,191.6392 L144.9025,191.3022 L144.4365,190.9582 L143.9765,190.6052 L143.5225,190.2442 L143.0755,189.8752 L142.6345,189.4992 L142.2005,189.1152 L141.7725,188.7232 L141.3525,188.3232 L140.9385,187.9172 L140.5325,187.5042 L140.1335,187.0832 L139.7415,186.6562 L139.3575,186.2212 L138.9815,185.7812 L138.6125,185.3332 L138.2515,184.8802 L137.8985,184.4202 L137.5535,183.9532 L137.2165,183.4822 L136.8885,183.0042 L136.5685,182.5202 L136.2565,182.0322 L135.9545,181.5372 L135.6605,181.0372 L135.3745,180.5332 L135.0975,180.0232 L134.8305,179.5092 L134.5715,178.9902 L134.3215,178.4672 L134.0815,177.9392 L133.8495,177.4072 L133.6275,176.8722 L133.4165,176.3332 L133.2125,175.7892 L133.0185,175.2432 L132.8345,174.6932 L132.6615,174.1402 L132.4965,173.5842 L132.3405,173.0262 L132.1965,172.4652 L132.0605,171.9012 L131.9355,171.3352 L131.8195,170.7662 L131.7135,170.1972 L131.6185,169.6252 L131.5325,169.0512 L131.4575,168.4762 L131.3915,167.9002 L131.3355,167.3232 L131.2905,166.7452 L131.2545,166.1672 L131.2295,165.5872 L131.2135,165.0082 L131.2095,164.4282 L131.2135,163.8482 L131.2295,163.2692 L131.2545,162.6892 L131.2905,162.1112 L131.3355,161.5332 L131.3915,160.9562 L131.4575,160.3802 L131.5325,159.8052 L131.6185,159.2312 L131.7135,158.6592 L131.8195,158.0902 L131.9355,157.5212 L132.0605,156.9552 L132.1965,156.3912 L132.3405,155.8302 L132.4965,155.2722 L132.6615,154.7162 L132.8345,154.1632 L133.0185,153.6132 L133.2125,153.0672 L133.4165,152.5232 L133.6275,151.9842 L133.8495,151.4492 L134.0815,150.9172 L134.3215,150.3892 L134.5715,149.8662 L134.8305,149.3472 L135.0975,148.8332 L135.3745,148.3232 L135.6605,147.8192 L135.9545,147.3192 L136.2565,146.8242 L136.5685,146.3362 L136.8885,145.8522 L137.2165,145.3742 L137.5535,144.9032 L137.8985,144.4362 L138.2515,143.9762 L138.6125,143.5232 L138.9815,143.0752 L139.3575,142.6352 L139.7415,142.2002 L140.1335,141.7732 L140.5325,141.3522 L140.9385,140.9392 L141.3525,140.5322 L141.7725,140.1332 L142.2005,139.7412 L142.6345,139.3572 L143.0755,138.9812 L143.5225,138.6122 L143.9765,138.2512 L144.4365,137.8982 L144.9025,137.5532 L145.3755,137.2172 L145.8525,136.8882 L146.3355,136.5682 L146.8255,136.2572 L147.3195,135.9542 L147.8185,135.6592 L148.3235,135.3742 L148.8335,135.0972 L149.3465,134.8302 L149.8665,134.5712 L150.3895,134.3222 L150.9175,134.0812 L151.4485,133.8502 L151.9845,133.6282 L152.5235,133.4152 L153.0665,133.2122 L153.6135,133.0192 L154.1635,132.8352 L154.7155,132.6602 L155.2715,132.4962 L155.8305,132.3412 L156.3915,132.1962 L156.9555,132.0602 L157.5215,131.9352 L158.0895,131.8202 L158.6605,131.7142 L159.2315,131.6182 L159.8045,131.5322 L160.3795,131.4572 L160.9565,131.3912 L161.5335,131.3362 L162.1115,131.2902 L162.6895,131.2552 L163.2685,131.2292 L163.8485,131.2142 L164.4275,131.2092 L165.0075,131.2142 L165.5875,131.2292 L166.1675,131.2552 L166.7455,131.2902 L167.3235,131.3362 L167.9005,131.3912 L168.4765,131.4572 L169.0515,131.5322 L169.6255,131.6182 L170.1965,131.7142 L170.7665,131.8202 L171.3355,131.9352 L171.9005,132.0602 L172.4645,132.1962 L173.0255,132.3412 L173.5855,132.4962 L174.1405,132.6602 L174.6935,132.8352 L175.2435,133.0192 L175.7905,133.2132 L176.3335,133.4152 L176.8725,133.6282 L177.4085,133.8502 L177.9395,134.0812 L178.4665,134.3222 L178.9905,134.5712 L179.5085,134.8302 L180.0235,135.0972 L180.5335,135.3742 L181.0385,135.6592 L181.5375,135.9542 L182.0315,136.2572 L182.5205,136.5682 L183.0035,136.8882 L183.4815,137.2172 L183.9545,137.5532 L184.4195,137.8982 L184.8795,138.2512 L185.3335,138.6122 L185.7815,138.9812 L186.2215,139.3572 L186.6565,139.7412 L187.0835,140.1332 L187.5035,140.5322 L187.9175,140.9392 L188.3245,141.3522 L188.7225,141.7732 L189.1145,142.2002 L189.4995,142.6352 L189.8755,143.0752 L190.2445,143.5232 L190.6055,143.9762 L190.9585,144.4362 L191.3025,144.9032 L191.6395,145.3742 L191.9675,145.8522 L192.2885,146.3362 L192.5995,146.8242 L192.9025,147.3192 L193.1965,147.8192 L193.4825,148.3232 L193.7585,148.8332 L194.0265,149.3472 L194.2855,149.8662 L194.5355,150.3892 L194.7755,150.9172 L195.0055,151.4492 L195.2285,151.9842 L195.4405,152.5232 L195.6435,153.0672 L195.8365,153.6132 L196.0215,154.1632 L196.1955,154.7162 L196.3605,155.2722 L196.5155,155.8302 L196.6605,156.3912 L196.7955,156.9552 L196.9205,157.5212 L197.0375,158.0902 L197.1425,158.6592 L197.2385,159.2312 L197.3245,159.8052 L197.3995,160.3802 L197.4645,160.9562 L197.5205,161.5332 L197.5665,162.1112 L197.6015,162.6892 L197.6265,163.2692 L197.6415,163.8482 L197.6475,164.4282 Z" id="Stroke-1" stroke="#DE3BED" stroke-dasharray="22.8,22.8,10.134,22.8,50.668,50.668"></path>
                    <path d="M218.0899,164.4282 L218.0819,165.3652 L218.0579,166.3012 L218.0169,167.2372 L217.9589,168.1712 L217.8859,169.1052 L217.7959,170.0372 L217.6909,170.9682 L217.5679,171.8962 L217.4299,172.8232 L217.2749,173.7462 L217.1049,174.6672 L216.9169,175.5852 L216.7149,176.4992 L216.4959,177.4102 L216.2619,178.3172 L216.0109,179.2192 L215.7449,180.1172 L215.4639,181.0112 L215.1659,181.8992 L214.8539,182.7822 L214.5259,183.6582 L214.1829,184.5302 L213.8239,185.3952 L213.4499,186.2542 L213.0629,187.1062 L212.6589,187.9522 L212.2409,188.7902 L211.8089,189.6202 L211.3609,190.4442 L210.9009,191.2592 L210.4249,192.0662 L209.9359,192.8652 L209.4329,193.6542 L208.9159,194.4352 L208.3849,195.2072 L207.8409,195.9692 L207.2839,196.7222 L206.7139,197.4662 L206.1309,198.1982 L205.5349,198.9212 L204.9269,199.6332 L204.3069,200.3352 L203.6739,201.0252 L203.0289,201.7042 L202.3729,202.3722 L201.7049,203.0292 L201.0259,203.6742 L200.3349,204.3062 L199.6339,204.9272 L198.9209,205.5352 L198.1979,206.1312 L197.4659,206.7142 L196.7229,207.2842 L195.9699,207.8412 L195.2069,208.3852 L194.4359,208.9162 L193.6539,209.4322 L192.8639,209.9362 L192.0669,210.4252 L191.2589,210.9012 L190.4439,211.3622 L189.6209,211.8082 L188.7899,212.2412 L187.9519,212.6592 L187.1069,213.0622 L186.2549,213.4502 L185.3959,213.8242 L184.5299,214.1822 L183.6589,214.5262 L182.7809,214.8542 L181.8989,215.1662 L181.0109,215.4642 L180.1169,215.7452 L179.2199,216.0112 L178.3169,216.2612 L177.4099,216.4962 L176.4989,216.7152 L175.5849,216.9172 L174.6669,217.1042 L173.7459,217.2752 L172.8219,217.4292 L171.8969,217.5682 L170.9679,217.6902 L170.0369,217.7962 L169.1059,217.8862 L168.1719,217.9592 L167.2359,218.0162 L166.3009,218.0572 L165.3639,218.0812 L164.4279,218.0902 L163.4909,218.0812 L162.5559,218.0572 L161.6199,218.0162 L160.6849,217.9592 L159.7509,217.8862 L158.8189,217.7962 L157.8889,217.6902 L156.9599,217.5672 L156.0329,217.4292 L155.1109,217.2742 L154.1899,217.1042 L153.2719,216.9172 L152.3569,216.7142 L151.4459,216.4952 L150.5389,216.2612 L149.6369,216.0112 L148.7389,215.7452 L147.8459,215.4632 L146.9579,215.1662 L146.0749,214.8532 L145.1969,214.5262 L144.3259,214.1822 L143.4609,213.8242 L142.6019,213.4502 L141.7499,213.0622 L140.9039,212.6592 L140.0669,212.2412 L139.2359,211.8082 L138.4119,211.3622 L137.5979,210.9002 L136.7899,210.4252 L135.9919,209.9362 L135.2019,209.4322 L134.4209,208.9162 L133.6499,208.3852 L132.8869,207.8412 L132.1339,207.2842 L131.3909,206.7142 L130.6579,206.1312 L129.9359,205.5352 L129.2229,204.9272 L128.5219,204.3062 L127.8309,203.6742 L127.1519,203.0292 L126.4839,202.3722 L125.8269,201.7042 L125.1829,201.0252 L124.5499,200.3352 L123.9299,199.6332 L123.3209,198.9212 L122.7259,198.1982 L122.1429,197.4662 L121.5719,196.7222 L121.0149,195.9692 L120.4709,195.2072 L119.9409,194.4352 L119.4239,193.6542 L118.9209,192.8652 L118.4319,192.0662 L117.9559,191.2592 L117.4949,190.4442 L117.0479,189.6202 L116.6149,188.7902 L116.1969,187.9512 L115.7939,187.1062 L115.4059,186.2542 L115.0319,185.3952 L114.6739,184.5302 L114.3309,183.6582 L114.0029,182.7822 L113.6909,181.8992 L113.3929,181.0112 L113.1109,180.1172 L112.8459,179.2192 L112.5949,178.3172 L112.3609,177.4102 L112.1419,176.4992 L111.9399,175.5852 L111.7529,174.6672 L111.5819,173.7462 L111.4279,172.8232 L111.2889,171.8962 L111.1669,170.9682 L111.0609,170.0372 L110.9709,169.1052 L110.8979,168.1712 L110.8399,167.2372 L110.7989,166.3012 L110.7749,165.3652 L110.7669,164.4282 L110.7749,163.4912 L110.7989,162.5552 L110.8399,161.6192 L110.8979,160.6852 L110.9709,159.7512 L111.0609,158.8192 L111.1659,157.8882 L111.2879,156.9602 L111.4269,156.0332 L111.5809,155.1102 L111.7519,154.1892 L111.9389,153.2712 L112.1419,152.3572 L112.3609,151.4462 L112.5949,150.5392 L112.8449,149.6372 L113.1109,148.7392 L113.3929,147.8452 L113.6899,146.9572 L114.0029,146.0742 L114.3299,145.1982 L114.6739,144.3262 L115.0319,143.4612 L115.4049,142.6022 L115.7939,141.7502 L116.1969,140.9042 L116.6149,140.0662 L117.0479,139.2362 L117.4939,138.4122 L117.9559,137.5972 L118.4319,136.7902 L118.9209,135.9912 L119.4239,135.2022 L119.9409,134.4212 L120.4719,133.6492 L121.0149,132.8862 L121.5719,132.1342 L122.1429,131.3912 L122.7259,130.6582 L123.3209,129.9352 L123.9299,129.2232 L124.5499,128.5212 L125.1829,127.8312 L125.8269,127.1522 L126.4839,126.4842 L127.1519,125.8272 L127.8309,125.1822 L128.5219,124.5502 L129.2229,123.9292 L129.9359,123.3212 L130.6579,122.7252 L131.3909,122.1422 L132.1339,121.5722 L132.8869,121.0152 L133.6499,120.4712 L134.4209,119.9412 L135.2019,119.4242 L135.9919,118.9202 L136.7899,118.4312 L137.5979,117.9562 L138.4119,117.4942 L139.2359,117.0482 L140.0669,116.6152 L140.9039,116.1972 L141.7499,115.7942 L142.6019,115.4062 L143.4609,115.0322 L144.3259,114.6742 L145.1969,114.3302 L146.0739,114.0022 L146.9579,113.6902 L147.8459,113.3922 L148.7389,113.1112 L149.6369,112.8452 L150.5389,112.5952 L151.4459,112.3602 L152.3569,112.1412 L153.2719,111.9392 L154.1899,111.7522 L155.1099,111.5812 L156.0329,111.4272 L156.9599,111.2882 L157.8889,111.1662 L158.8189,111.0602 L159.7509,110.9702 L160.6849,110.8972 L161.6199,110.8402 L162.5559,110.7992 L163.4909,110.7752 L164.4279,110.7662 L165.3639,110.7752 L166.3009,110.7992 L167.2359,110.8402 L168.1719,110.8972 L169.1059,110.9702 L170.0369,111.0602 L170.9679,111.1662 L171.8969,111.2892 L172.8219,111.4272 L173.7459,111.5822 L174.6669,111.7522 L175.5849,111.9392 L176.4989,112.1422 L177.4099,112.3612 L178.3169,112.5952 L179.2199,112.8452 L180.1169,113.1112 L181.0109,113.3932 L181.8989,113.6902 L182.7809,114.0032 L183.6589,114.3312 L184.5299,114.6742 L185.3959,115.0322 L186.2539,115.4062 L187.1069,115.7942 L187.9519,116.1972 L188.7899,116.6152 L189.6209,117.0482 L190.4439,117.4942 L191.2589,117.9552 L192.0669,118.4312 L192.8639,118.9202 L193.6539,119.4242 L194.4359,119.9402 L195.2069,120.4712 L195.9699,121.0152 L196.7229,121.5722 L197.4659,122.1422 L198.1979,122.7252 L198.9209,123.3212 L199.6339,123.9292 L200.3349,124.5502 L201.0259,125.1822 L201.7049,125.8272 L202.3729,126.4842 L203.0289,127.1522 L203.6739,127.8312 L204.3069,128.5212 L204.9269,129.2232 L205.5349,129.9352 L206.1309,130.6572 L206.7139,131.3902 L207.2839,132.1342 L207.8409,132.8862 L208.3849,133.6492 L208.9159,134.4212 L209.4329,135.2022 L209.9359,135.9912 L210.4249,136.7902 L210.9009,137.5972 L211.3609,138.4122 L211.8089,139.2362 L212.2409,140.0662 L212.6589,140.9052 L213.0629,141.7502 L213.4499,142.6022 L213.8239,143.4612 L214.1829,144.3262 L214.5259,145.1982 L214.8539,146.0742 L215.1659,146.9572 L215.4639,147.8452 L215.7449,148.7392 L216.0109,149.6372 L216.2619,150.5392 L216.4959,151.4462 L216.7149,152.3572 L216.9169,153.2712 L217.1049,154.1892 L217.2749,155.1102 L217.4299,156.0332 L217.5679,156.9602 L217.6909,157.8882 L217.7959,158.8192 L217.8859,159.7512 L217.9589,160.6852 L218.0169,161.6192 L218.0579,162.5552 L218.0819,163.4912 L218.0899,164.4282 Z" id="Stroke-2" stroke="#49F2BA" stroke-dasharray="36.667,31.667,15.2,15.2,25.334,25.334"></path>
                    <path d="M238.5459,164.4282 L238.5349,165.7212 L238.5009,167.0152 L238.4439,168.3072 L238.3649,169.5982 L238.2639,170.8882 L238.1389,172.1762 L237.9919,173.4612 L237.8229,174.7432 L237.6319,176.0222 L237.4179,177.2982 L237.1819,178.5702 L236.9239,179.8372 L236.6439,181.1002 L236.3409,182.3582 L236.0169,183.6102 L235.6709,184.8572 L235.3029,186.0962 L234.9139,187.3302 L234.5029,188.5572 L234.0709,189.7762 L233.6179,190.9882 L233.1439,192.1912 L232.6489,193.3862 L232.1319,194.5722 L231.5959,195.7492 L231.0389,196.9162 L230.4609,198.0732 L229.8639,199.2212 L229.2459,200.3582 L228.6089,201.4832 L227.9529,202.5972 L227.2769,203.7002 L226.5819,204.7912 L225.8679,205.8702 L225.1359,206.9362 L224.3849,207.9892 L223.6149,209.0292 L222.8279,210.0552 L222.0229,211.0672 L221.1999,212.0652 L220.3599,213.0492 L219.5039,214.0182 L218.6299,214.9722 L217.7389,215.9102 L216.8329,216.8332 L215.9109,217.7402 L214.9729,218.6302 L214.0199,219.5052 L213.0509,220.3622 L212.0669,221.2022 L211.0689,222.0252 L210.0569,222.8302 L209.0309,223.6182 L207.9909,224.3872 L206.9389,225.1392 L205.8729,225.8722 L204.7939,226.5862 L203.7029,227.2822 L202.6009,227.9572 L201.4859,228.6142 L200.3599,229.2512 L199.2239,229.8682 L198.0759,230.4662 L196.9189,231.0432 L195.7509,231.6002 L194.5739,232.1372 L193.3879,232.6532 L192.1919,233.1482 L190.9889,233.6222 L189.7769,234.0752 L188.5589,234.5072 L187.3319,234.9182 L186.0979,235.3062 L184.8579,235.6742 L183.6109,236.0192 L182.3579,236.3432 L181.1009,236.6452 L179.8379,236.9252 L178.5699,237.1822 L177.2979,237.4182 L176.0229,237.6312 L174.7429,237.8222 L173.4599,237.9902 L172.1749,238.1362 L170.8879,238.2602 L169.5979,238.3612 L168.3069,238.4392 L167.0149,238.4952 L165.7219,238.5282 L164.4279,238.5392 L163.1349,238.5272 L161.8419,238.4932 L160.5499,238.4362 L159.2589,238.3572 L157.9689,238.2552 L156.6819,238.1312 L155.3969,237.9842 L154.1139,237.8152 L152.8349,237.6242 L151.5599,237.4102 L150.2879,237.1752 L149.0209,236.9172 L147.7579,236.6372 L146.4999,236.3352 L145.2469,236.0112 L144.0009,235.6662 L142.7609,235.2992 L141.5269,234.9102 L140.3009,234.5002 L139.0809,234.0692 L137.8689,233.6152 L136.6659,233.1422 L135.4709,232.6472 L134.2839,232.1322 L133.1079,231.5952 L131.9409,231.0392 L130.7819,230.4622 L129.6349,229.8652 L128.4979,229.2472 L127.3719,228.6112 L126.2579,227.9542 L125.1549,227.2792 L124.0639,226.5832 L122.9849,225.8692 L121.9189,225.1372 L120.8659,224.3862 L119.8259,223.6162 L118.7999,222.8292 L117.7879,222.0242 L116.7899,221.2012 L115.8069,220.3612 L114.8379,219.5042 L113.8839,218.6302 L112.9459,217.7392 L112.0239,216.8322 L111.1169,215.9102 L110.2269,214.9712 L109.3539,214.0182 L108.4959,213.0492 L107.6559,212.0652 L106.8339,211.0672 L106.0289,210.0542 L105.2409,209.0282 L104.4729,207.9892 L103.7219,206.9352 L102.9889,205.8692 L102.2749,204.7902 L101.5799,203.6992 L100.9049,202.5962 L100.2489,201.4822 L99.6119,200.3562 L98.9949,199.2192 L98.3979,198.0722 L97.8199,196.9152 L97.2639,195.7472 L96.7279,194.5702 L96.2119,193.3842 L95.7169,192.1892 L95.2429,190.9862 L94.7899,189.7742 L94.3589,188.5552 L93.9479,187.3282 L93.5599,186.0942 L93.1919,184.8552 L92.8469,183.6082 L92.5229,182.3562 L92.2209,181.0982 L91.9409,179.8362 L91.6829,178.5682 L91.4459,177.2972 L91.2329,176.0212 L91.0409,174.7422 L90.8719,173.4602 L90.7259,172.1752 L90.6009,170.8872 L90.4989,169.5972 L90.4199,168.3062 L90.3619,167.0142 L90.3279,165.7212 L90.3169,164.4282 L90.3269,163.1352 L90.3599,161.8422 L90.4159,160.5492 L90.4939,159.2582 L90.5959,157.9692 L90.7189,156.6812 L90.8649,155.3962 L91.0329,154.1132 L91.2239,152.8342 L91.4379,151.5582 L91.6729,150.2862 L91.9309,149.0182 L92.2099,147.7552 L92.5119,146.4972 L92.8359,145.2452 L93.1819,143.9982 L93.5499,142.7582 L93.9389,141.5252 L94.3499,140.2982 L94.7809,139.0792 L95.2349,137.8672 L95.7099,136.6642 L96.2049,135.4692 L96.7219,134.2832 L97.2589,133.1062 L97.8169,131.9392 L98.3939,130.7822 L98.9909,129.6352 L99.6089,128.4982 L100.2469,127.3732 L100.9029,126.2592 L101.5799,125.1562 L102.2749,124.0662 L102.9889,122.9872 L103.7229,121.9222 L104.4739,120.8692 L105.2429,119.8292 L106.0309,118.8032 L106.8359,117.7912 L107.6589,116.7932 L108.4989,115.8102 L109.3569,114.8412 L110.2309,113.8872 L111.1199,112.9492 L112.0269,112.0272 L112.9489,111.1202 L113.8879,110.2302 L114.8409,109.3562 L115.8099,108.4992 L116.7929,107.6592 L117.7909,106.8362 L118.8039,106.0312 L119.8289,105.2432 L120.8689,104.4742 L121.9219,103.7222 L122.9869,102.9902 L124.0659,102.2752 L125.1559,101.5802 L126.2589,100.9042 L127.3729,100.2462 L128.4979,99.6092 L129.6349,98.9912 L130.7819,98.3932 L131.9399,97.8162 L133.1069,97.2592 L134.2829,96.7212 L135.4689,96.2052 L136.6639,95.7092 L137.8669,95.2352 L139.0789,94.7822 L140.2979,94.3492 L141.5249,93.9382 L142.7589,93.5492 L143.9989,93.1812 L145.2449,92.8362 L146.4969,92.5122 L147.7549,92.2102 L149.0189,91.9302 L150.2859,91.6732 L151.5579,91.4372 L152.8339,91.2242 L154.1129,91.0332 L155.3959,90.8652 L156.6809,90.7192 L157.9689,90.5952 L159.2579,90.4942 L160.5499,90.4162 L161.8419,90.3602 L163.1349,90.3272 L164.4279,90.3162 L165.7219,90.3282 L167.0149,90.3632 L168.3069,90.4192 L169.5979,90.4992 L170.8869,90.6012 L172.1749,90.7252 L173.4599,90.8722 L174.7419,91.0412 L176.0219,91.2332 L177.2969,91.4462 L178.5679,91.6822 L179.8359,91.9402 L181.0989,92.2202 L182.3569,92.5222 L183.6079,92.8452 L184.8559,93.1912 L186.0959,93.5582 L187.3289,93.9472 L188.5559,94.3572 L189.7749,94.7882 L190.9859,95.2402 L192.1909,95.7142 L193.3859,96.2092 L194.5719,96.7242 L195.7489,97.2602 L196.9169,97.8172 L198.0739,98.3932 L199.2219,98.9902 L200.3589,99.6072 L201.4849,100.2432 L202.5999,100.9002 L203.7029,101.5752 L204.7939,102.2702 L205.8719,102.9842 L206.9389,103.7172 L207.9919,104.4682 L209.0309,105.2382 L210.0579,106.0252 L211.0699,106.8302 L212.0679,107.6532 L213.0519,108.4932 L214.0199,109.3512 L214.9739,110.2252 L215.9109,111.1152 L216.8339,112.0222 L217.7399,112.9452 L218.6299,113.8842 L219.5039,114.8382 L220.3599,115.8062 L221.1999,116.7902 L222.0229,117.7892 L222.8279,118.8012 L223.6149,119.8272 L224.3839,120.8672 L225.1349,121.9212 L225.8669,122.9872 L226.5809,124.0652 L227.2759,125.1572 L227.9519,126.2592 L228.6079,127.3742 L229.2449,128.4992 L229.8619,129.6362 L230.4589,130.7832 L231.0359,131.9412 L231.5939,133.1082 L232.1299,134.2852 L232.6459,135.4712 L233.1419,136.6662 L233.6149,137.8692 L234.0689,139.0812 L234.5009,140.3002 L234.9119,141.5272 L235.3019,142.7602 L235.6689,144.0002 L236.0159,145.2462 L236.3399,146.4982 L236.6429,147.7562 L236.9229,149.0192 L237.1819,150.2862 L237.4179,151.5582 L237.6319,152.8342 L237.8229,154.1132 L237.9919,155.3952 L238.1399,156.6802 L238.2639,157.9682 L238.3649,159.2582 L238.4439,160.5492 L238.5009,161.8412 L238.5349,163.1352 L238.5459,164.4282 Z" id="Stroke-3" stroke="#18A3FF" stroke-dasharray="22.8,22.8,10.134,22.8,50.668,50.668"></path>
                    <path d="M259.1104,164.4282 L259.0954,166.0802 L259.0514,167.7322 L258.9774,169.3832 L258.8754,171.0322 L258.7434,172.6792 L258.5824,174.3242 L258.3924,175.9662 L258.1734,177.6032 L257.9264,179.2372 L257.6504,180.8652 L257.3454,182.4902 L257.0134,184.1082 L256.6524,185.7192 L256.2634,187.3252 L255.8464,188.9242 L255.4024,190.5142 L254.9304,192.0972 L254.4314,193.6722 L253.9044,195.2372 L253.3504,196.7932 L252.7694,198.3392 L252.1624,199.8752 L251.5284,201.4002 L250.8674,202.9132 L250.1804,204.4152 L249.4674,205.9052 L248.7294,207.3822 L247.9644,208.8452 L247.1754,210.2962 L246.3614,211.7322 L245.5224,213.1552 L244.6594,214.5622 L243.7714,215.9542 L242.8604,217.3312 L241.9244,218.6922 L240.9664,220.0372 L239.9854,221.3652 L238.9814,222.6752 L237.9544,223.9692 L236.9054,225.2432 L235.8344,226.5012 L234.7424,227.7392 L233.6284,228.9582 L232.4934,230.1572 L231.3374,231.3372 L230.1614,232.4962 L228.9644,233.6352 L227.7494,234.7532 L226.5134,235.8492 L225.2584,236.9242 L223.9864,237.9762 L222.6954,239.0072 L221.3864,240.0142 L220.0594,240.9992 L218.7164,241.9602 L217.3564,242.8982 L215.9804,243.8112 L214.5884,244.7012 L213.1804,245.5662 L211.7584,246.4072 L210.3214,247.2212 L208.8704,248.0112 L207.4054,248.7762 L205.9274,249.5152 L204.4374,250.2282 L202.9344,250.9142 L201.4194,251.5742 L199.8934,252.2072 L198.3564,252.8132 L196.8084,253.3922 L195.2514,253.9452 L193.6844,254.4692 L192.1084,254.9652 L190.5234,255.4332 L188.9304,255.8742 L187.3314,256.2862 L185.7234,256.6702 L184.1104,257.0252 L182.4904,257.3512 L180.8654,257.6492 L179.2354,257.9182 L177.6014,258.1582 L175.9634,258.3702 L174.3214,258.5522 L172.6764,258.7062 L171.0294,258.8312 L169.3814,258.9272 L167.7304,258.9942 L166.0794,259.0332 L164.4274,259.0432 L162.7774,259.0252 L161.1264,258.9772 L159.4764,258.9022 L157.8294,258.7982 L156.1834,258.6652 L154.5404,258.5052 L152.9004,258.3162 L151.2634,258.0992 L149.6314,257.8542 L148.0034,257.5812 L146.3804,257.2802 L144.7614,256.9512 L143.1494,256.5952 L141.5444,256.2112 L139.9454,255.7992 L138.3544,255.3592 L136.7704,254.8922 L135.1954,254.3982 L133.6294,253.8762 L132.0714,253.3272 L130.5244,252.7512 L128.9874,252.1482 L127.4614,251.5182 L125.9454,250.8612 L124.4424,250.1782 L122.9514,249.4692 L121.4724,248.7332 L120.0064,247.9722 L118.5544,247.1852 L117.1174,246.3732 L115.6944,245.5352 L114.2854,244.6732 L112.8924,243.7862 L111.5144,242.8752 L110.1534,241.9402 L108.8084,240.9812 L107.4814,239.9992 L106.1724,238.9932 L104.8794,237.9652 L103.6054,236.9132 L102.3504,235.8402 L101.1144,234.7452 L99.8974,233.6292 L98.7004,232.4912 L97.5234,231.3322 L96.3674,230.1532 L95.2324,228.9542 L94.1184,227.7362 L93.0254,226.4982 L91.9544,225.2412 L90.9054,223.9662 L89.8794,222.6722 L88.8764,221.3612 L87.8954,220.0322 L86.9384,218.6872 L86.0054,217.3252 L85.0944,215.9482 L84.2104,214.5542 L83.3484,213.1452 L82.5124,211.7222 L81.7014,210.2842 L80.9154,208.8332 L80.1534,207.3682 L79.4184,205.8902 L78.7094,204.4002 L78.0254,202.8972 L77.3684,201.3832 L76.7374,199.8582 L76.1324,198.3222 L75.5554,196.7752 L75.0054,195.2192 L74.4814,193.6542 L73.9854,192.0792 L73.5164,190.4962 L73.0754,188.9062 L72.6614,187.3082 L72.2744,185.7032 L71.9164,184.0922 L71.5864,182.4752 L71.2834,180.8522 L71.0074,179.2242 L70.7614,177.5922 L70.5434,175.9562 L70.3524,174.3162 L70.1894,172.6732 L70.0554,171.0272 L69.9504,169.3792 L69.8734,167.7302 L69.8244,166.0792 L69.8044,164.4282 L69.8134,162.7772 L69.8504,161.1252 L69.9174,159.4752 L70.0124,157.8262 L70.1364,156.1782 L70.2904,154.5332 L70.4724,152.8922 L70.6834,151.2532 L70.9234,149.6182 L71.1934,147.9882 L71.4924,146.3632 L71.8194,144.7432 L72.1754,143.1302 L72.5614,141.5232 L72.9754,139.9232 L73.4184,138.3312 L73.8884,136.7472 L74.3884,135.1722 L74.9164,133.6062 L75.4704,132.0502 L76.0534,130.5042 L76.6644,128.9692 L77.3004,127.4452 L77.9644,125.9322 L78.6554,124.4312 L79.3724,122.9442 L80.1144,121.4682 L80.8824,120.0062 L81.6754,118.5582 L82.4944,117.1232 L83.3374,115.7032 L84.2044,114.2992 L85.0944,112.9082 L86.0094,111.5342 L86.9484,110.1762 L87.9094,108.8342 L88.8934,107.5092 L89.9004,106.2012 L90.9294,104.9102 L91.9804,103.6372 L93.0534,102.3832 L94.1484,101.1482 L95.2634,99.9312 L96.4004,98.7342 L97.5564,97.5572 L98.7344,96.4002 L99.9304,95.2632 L101.1474,94.1482 L102.3824,93.0532 L103.6374,91.9812 L104.9104,90.9292 L106.2004,89.9002 L107.5084,88.8932 L108.8344,87.9092 L110.1754,86.9482 L111.5344,86.0102 L112.9084,85.0952 L114.2984,84.2042 L115.7034,83.3372 L117.1234,82.4942 L118.5574,81.6762 L120.0064,80.8832 L121.4674,80.1152 L122.9434,79.3722 L124.4314,78.6562 L125.9324,77.9652 L127.4454,77.3012 L128.9684,76.6642 L130.5044,76.0532 L132.0504,75.4712 L133.6064,74.9152 L135.1724,74.3882 L136.7474,73.8892 L138.3314,73.4182 L139.9234,72.9752 L141.5234,72.5612 L143.1304,72.1762 L144.7434,71.8202 L146.3634,71.4922 L147.9884,71.1942 L149.6184,70.9242 L151.2534,70.6842 L152.8914,70.4722 L154.5344,70.2902 L156.1784,70.1372 L157.8264,70.0122 L159.4744,69.9172 L161.1254,69.8512 L162.7764,69.8132 L164.4274,69.8042 L166.0794,69.8242 L167.7304,69.8732 L169.3804,69.9502 L171.0274,70.0562 L172.6724,70.1902 L174.3154,70.3522 L175.9564,70.5432 L177.5914,70.7612 L179.2244,71.0082 L180.8524,71.2822 L182.4744,71.5852 L184.0924,71.9142 L185.7044,72.2722 L187.3094,72.6572 L188.9084,73.0692 L190.4994,73.5082 L192.0834,73.9742 L193.6584,74.4682 L195.2244,74.9882 L196.7824,75.5352 L198.3304,76.1102 L199.8684,76.7102 L201.3954,77.3382 L202.9124,77.9912 L204.4174,78.6722 L205.9094,79.3792 L207.3894,80.1122 L208.8564,80.8702 L210.3094,81.6552 L211.7494,82.4662 L213.1734,83.3022 L214.5844,84.1622 L215.9774,85.0492 L217.3564,85.9592 L218.7174,86.8942 L220.0624,87.8532 L221.3904,88.8362 L222.7004,89.8432 L223.9924,90.8722 L225.2654,91.9252 L226.5204,92.9992 L227.7564,94.0952 L228.9714,95.2142 L230.1684,96.3532 L231.3434,97.5122 L232.4994,98.6932 L233.6324,99.8932 L234.7464,101.1132 L235.8384,102.3522 L236.9084,103.6112 L237.9554,104.8862 L238.9814,106.1812 L239.9834,107.4932 L240.9644,108.8222 L241.9214,110.1672 L242.8534,111.5292 L243.7634,112.9072 L244.6494,114.3012 L245.5104,115.7092 L246.3474,117.1322 L247.1604,118.5692 L247.9484,120.0202 L248.7104,121.4842 L249.4474,122.9612 L250.1594,124.4512 L250.8454,125.9522 L251.5064,127.4662 L252.1394,128.9902 L252.7484,130.5252 L253.3304,132.0712 L253.8844,133.6262 L254.4134,135.1902 L254.9144,136.7632 L255.3884,138.3452 L255.8354,139.9362 L256.2544,141.5332 L256.6444,143.1382 L257.0074,144.7502 L257.3414,146.3672 L257.6484,147.9912 L257.9244,149.6192 L258.1734,151.2532 L258.3924,152.8902 L258.5834,154.5322 L258.7444,156.1772 L258.8764,157.8242 L258.9794,159.4732 L259.0524,161.1242 L259.0954,162.7762 L259.1104,164.4282 Z" id="Stroke-4" stroke="#FF7575" stroke-dasharray="57.001,31.667,15.2,15.2,25.334,25.334"></path>
                    <path d="M280.2071,164.4282 L280.1861,166.4492 L280.1281,168.4692 L280.0321,170.4872 L279.8971,172.5022 L279.7271,174.5152 L279.5181,176.5242 L279.2721,178.5292 L278.9911,180.5292 L278.6741,182.5232 L278.3221,184.5112 L277.9351,186.4912 L277.5131,188.4652 L277.0581,190.4302 L276.5681,192.3872 L276.0451,194.3362 L275.4891,196.2742 L274.8991,198.2022 L274.2771,200.1202 L273.6231,202.0272 L272.9361,203.9212 L272.2161,205.8032 L271.4631,207.6732 L270.6791,209.5292 L269.8631,211.3712 L269.0171,213.1982 L268.1391,215.0112 L267.2291,216.8082 L266.2911,218.5902 L265.3221,220.3552 L264.3251,222.1032 L263.2981,223.8352 L262.2421,225.5492 L261.1591,227.2452 L260.0471,228.9242 L258.9081,230.5842 L257.7411,232.2242 L256.5481,233.8452 L255.3281,235.4472 L254.0811,237.0282 L252.8091,238.5882 L251.5091,240.1262 L250.1841,241.6432 L248.8331,243.1362 L247.4561,244.6072 L246.0541,246.0542 L244.6271,247.4772 L243.1761,248.8752 L241.7001,250.2472 L240.2001,251.5942 L238.6771,252.9152 L237.1311,254.2092 L235.5621,255.4752 L233.9721,256.7152 L232.3581,257.9272 L230.7251,259.1102 L229.0701,260.2642 L227.3951,261.3892 L225.7001,262.4852 L223.9861,263.5502 L222.2541,264.5852 L220.5031,265.5892 L218.7331,266.5622 L216.9481,267.5042 L215.1451,268.4132 L213.3261,269.2902 L211.4921,270.1352 L209.6431,270.9472 L207.7791,271.7252 L205.9011,272.4692 L204.0111,273.1792 L202.1061,273.8552 L200.1911,274.4952 L198.2641,275.1002 L196.3261,275.6702 L194.3781,276.2032 L192.4211,276.6992 L190.4541,277.1592 L188.4791,277.5812 L186.4981,277.9682 L184.5101,278.3162 L182.5161,278.6282 L180.5171,278.9042 L178.5141,279.1422 L176.5071,279.3452 L174.4971,279.5112 L172.4841,279.6432 L170.4721,279.7392 L168.4571,279.7992 L166.4421,279.8252 L164.4281,279.8172 L162.4151,279.7752 L160.4021,279.7002 L158.3931,279.5912 L156.3851,279.4492 L154.3801,279.2752 L152.3791,279.0682 L150.3821,278.8292 L148.3891,278.5572 L146.3991,278.2552 L144.4171,277.9202 L142.4381,277.5532 L140.4681,277.1542 L138.5031,276.7232 L136.5451,276.2612 L134.5961,275.7662 L132.6531,275.2392 L130.7221,274.6782 L128.7991,274.0852 L126.8861,273.4592 L124.9841,272.8002 L123.0941,272.1072 L121.2161,271.3812 L119.3521,270.6222 L117.5001,269.8292 L115.6631,269.0042 L113.8421,268.1462 L112.0351,267.2552 L110.2451,266.3322 L108.4711,265.3772 L106.7151,264.3912 L104.9761,263.3732 L103.2561,262.3242 L101.5551,261.2442 L99.8731,260.1352 L98.2121,258.9952 L96.5711,257.8252 L94.9521,256.6262 L93.3541,255.3982 L91.7791,254.1412 L90.2281,252.8572 L88.6991,251.5442 L87.1941,250.2042 L85.7151,248.8382 L84.2591,247.4462 L82.8281,246.0282 L81.4241,244.5842 L80.0451,243.1162 L78.6921,241.6252 L77.3661,240.1102 L76.0671,238.5712 L74.7961,237.0112 L73.5531,235.4282 L72.3371,233.8242 L71.1491,232.1992 L69.9901,230.5542 L68.8601,228.8892 L67.7601,227.2052 L66.6871,225.5032 L65.6461,223.7822 L64.6341,222.0442 L63.6521,220.2892 L62.7001,218.5172 L61.7791,216.7302 L60.8901,214.9272 L60.0301,213.1102 L59.2021,211.2782 L58.4061,209.4312 L57.6421,207.5732 L56.9091,205.7002 L56.2091,203.8172 L55.5401,201.9212 L54.9041,200.0142 L54.3011,198.0972 L53.7291,196.1702 L53.1901,194.2342 L52.6851,192.2892 L52.2101,190.3362 L51.7691,188.3752 L51.3591,186.4072 L50.9811,184.4322 L50.6371,182.4512 L50.3231,180.4652 L50.0421,178.4732 L49.7931,176.4772 L49.5761,174.4762 L49.3931,172.4722 L49.2411,170.4652 L49.1241,168.4542 L49.0401,166.4422 L48.9901,164.4282 L48.9761,162.4132 L48.9951,160.3972 L49.0511,158.3812 L49.1421,156.3662 L49.2701,154.3532 L49.4341,152.3422 L49.6351,150.3332 L49.8731,148.3282 L50.1491,146.3282 L50.4641,144.3332 L50.8161,142.3442 L51.2081,140.3632 L51.6381,138.3882 L52.1061,136.4232 L52.6141,134.4682 L53.1601,132.5222 L53.7431,130.5882 L54.3651,128.6662 L55.0231,126.7572 L55.7201,124.8612 L56.4511,122.9792 L57.2181,121.1122 L58.0191,119.2602 L58.8531,117.4232 L59.7221,115.6032 L60.6221,113.7982 L61.5541,112.0112 L62.5161,110.2402 L63.5071,108.4872 L64.5281,106.7512 L65.5771,105.0322 L66.6541,103.3322 L67.7591,101.6502 L68.8911,99.9872 L70.0481,98.3432 L71.2311,96.7172 L72.4411,95.1112 L73.6761,93.5252 L74.9361,91.9592 L76.2221,90.4142 L77.5321,88.8902 L78.8671,87.3882 L80.2271,85.9092 L81.6111,84.4532 L83.0201,83.0202 L84.4521,81.6112 L85.9091,80.2262 L87.3881,78.8662 L88.8901,77.5312 L90.4131,76.2202 L91.9581,74.9352 L93.5231,73.6752 L95.1101,72.4402 L96.7161,71.2302 L98.3421,70.0472 L99.9861,68.8892 L101.6491,67.7582 L103.3321,66.6542 L105.0321,65.5762 L106.7501,64.5272 L108.4861,63.5072 L110.2401,62.5152 L112.0111,61.5532 L113.7991,60.6212 L115.6031,59.7212 L117.4241,58.8542 L119.2601,58.0192 L121.1121,57.2182 L122.9791,56.4502 L124.8611,55.7192 L126.7571,55.0242 L128.6671,54.3652 L130.5891,53.7432 L132.5221,53.1592 L134.4681,52.6142 L136.4231,52.1072 L138.3891,51.6382 L140.3621,51.2082 L142.3451,50.8172 L144.3331,50.4642 L146.3281,50.1492 L148.3281,49.8732 L150.3331,49.6352 L152.3421,49.4332 L154.3531,49.2692 L156.3661,49.1412 L158.3821,49.0512 L160.3971,48.9952 L162.4131,48.9752 L164.4281,48.9902 L166.4421,49.0402 L168.4551,49.1242 L170.4651,49.2412 L172.4731,49.3922 L174.4771,49.5762 L176.4771,49.7932 L178.4731,50.0422 L180.4651,50.3232 L182.4511,50.6352 L184.4331,50.9792 L186.4071,51.3532 L188.3771,51.7582 L190.3401,52.1942 L192.2951,52.6592 L194.2431,53.1562 L196.1851,53.6822 L198.1161,54.2392 L200.0401,54.8262 L201.9541,55.4442 L203.8581,56.0942 L205.7531,56.7752 L207.6351,57.4872 L209.5061,58.2322 L211.3641,59.0092 L213.2091,59.8182 L215.0391,60.6612 L216.8541,61.5362 L218.6531,62.4452 L220.4361,63.3872 L222.2001,64.3632 L223.9471,65.3722 L225.6741,66.4142 L227.3811,67.4892 L229.0671,68.5962 L230.7321,69.7362 L232.3761,70.9072 L233.9961,72.1092 L235.5931,73.3412 L237.1671,74.6042 L238.7161,75.8952 L240.2411,77.2152 L241.7421,78.5622 L243.2181,79.9372 L244.6671,81.3382 L246.0921,82.7642 L247.4911,84.2162 L248.8631,85.6912 L250.2101,87.1902 L251.5291,88.7122 L252.8221,90.2572 L254.0881,91.8232 L255.3271,93.4102 L256.5391,95.0182 L257.7231,96.6452 L258.8801,98.2922 L260.0091,99.9582 L261.1101,101.6422 L262.1841,103.3442 L263.2281,105.0632 L264.2441,106.7992 L265.2321,108.5522 L266.1901,110.3202 L267.1211,112.1032 L268.0221,113.9022 L268.8941,115.7152 L269.7371,117.5412 L270.5511,119.3822 L271.3351,121.2352 L272.0901,123.1002 L272.8151,124.9782 L273.5101,126.8682 L274.1741,128.7692 L274.8071,130.6822 L275.4071,132.6052 L275.9771,134.5392 L276.5121,136.4832 L277.0131,138.4362 L277.4801,140.3982 L277.9121,142.3692 L278.3081,144.3482 L278.6681,146.3342 L278.9901,148.3272 L279.2751,150.3262 L279.5231,152.3312 L279.7331,154.3402 L279.9041,156.3532 L280.0381,158.3692 L280.1331,160.3872 L280.1891,162.4072 L280.2071,164.4282 Z" id="Stroke-5" stroke="#FFDE75" stroke-dasharray="22.8,22.8,10.134,22.8,50.668,50.668"></path>
                    <path d="M303.1953,164.4282 L303.1633,166.8492 L303.0753,169.2702 L302.9343,171.6872 L302.7413,174.1002 L302.4963,176.5082 L302.2013,178.9082 L301.8583,181.3022 L301.4683,183.6882 L301.0333,186.0642 L300.5533,188.4302 L300.0333,190.7872 L299.4703,193.1322 L298.8693,195.4662 L298.2283,197.7882 L297.5503,200.0982 L296.8363,202.3952 L296.0833,204.6792 L295.2943,206.9492 L294.4673,209.2042 L293.6043,211.4452 L292.7053,213.6692 L291.7683,215.8772 L290.7963,218.0682 L289.7883,220.2422 L288.7453,222.3982 L287.6693,224.5362 L286.5583,226.6572 L285.4163,228.7592 L284.2423,230.8422 L283.0383,232.9072 L281.8033,234.9542 L280.5403,236.9832 L279.2473,238.9922 L277.9253,240.9832 L276.5773,242.9552 L275.2003,244.9082 L273.7963,246.8432 L272.3633,248.7562 L270.9033,250.6502 L269.4143,252.5222 L267.8963,254.3722 L266.3493,256.1982 L264.7733,258.0012 L263.1673,259.7792 L261.5293,261.5292 L259.8633,263.2542 L258.1663,264.9502 L256.4393,266.6172 L254.6833,268.2552 L252.8983,269.8632 L251.0853,271.4412 L249.2433,272.9862 L247.3733,274.5002 L245.4753,275.9812 L243.5513,277.4282 L241.6003,278.8412 L239.6243,280.2192 L237.6213,281.5622 L235.5933,282.8682 L233.5423,284.1372 L231.4663,285.3682 L229.3673,286.5612 L227.2463,287.7152 L225.1023,288.8292 L222.9373,289.9032 L220.7533,290.9352 L218.5483,291.9252 L216.3233,292.8732 L214.0803,293.7762 L211.8193,294.6352 L209.5423,295.4482 L207.2483,296.2132 L204.9383,296.9302 L202.6143,297.5982 L200.2763,298.2172 L197.9263,298.7822 L195.5653,299.2972 L193.1933,299.7602 L190.8133,300.1712 L188.4263,300.5302 L186.0333,300.8392 L183.6353,301.0992 L181.2353,301.3102 L178.8323,301.4742 L176.4283,301.5922 L174.0243,301.6662 L171.6223,301.6972 L169.2213,301.6872 L166.8233,301.6372 L164.4273,301.5502 L162.0373,301.4272 L159.6493,301.2672 L157.2663,301.0752 L154.8883,300.8492 L152.5153,300.5922 L150.1473,300.3042 L147.7843,299.9862 L145.4253,299.6382 L143.0723,299.2612 L140.7243,298.8562 L138.3833,298.4212 L136.0463,297.9562 L133.7153,297.4612 L131.3903,296.9332 L129.0733,296.3732 L126.7633,295.7792 L124.4633,295.1492 L122.1713,294.4822 L119.8893,293.7772 L117.6203,293.0322 L115.3623,292.2482 L113.1193,291.4222 L110.8903,290.5552 L108.6773,289.6462 L106.4813,288.6942 L104.3033,287.7012 L102.1443,286.6662 L100.0053,285.5912 L97.8853,284.4742 L95.7873,283.3172 L93.7113,282.1202 L91.6583,280.8852 L89.6283,279.6102 L87.6233,278.2962 L85.6433,276.9442 L83.6913,275.5532 L81.7653,274.1242 L79.8693,272.6592 L78.0013,271.1572 L76.1633,269.6182 L74.3553,268.0452 L72.5783,266.4372 L70.8333,264.7962 L69.1203,263.1232 L67.4383,261.4182 L65.7893,259.6822 L64.1743,257.9162 L62.5913,256.1232 L61.0413,254.3012 L59.5253,252.4522 L58.0433,250.5772 L56.5943,248.6772 L55.1813,246.7512 L53.8013,244.8022 L52.4573,242.8312 L51.1463,240.8382 L49.8703,238.8232 L48.6293,236.7872 L47.4233,234.7322 L46.2513,232.6582 L45.1133,230.5652 L44.0103,228.4552 L42.9433,226.3272 L41.9113,224.1832 L40.9153,222.0232 L39.9533,219.8482 L39.0273,217.6572 L38.1373,215.4532 L37.2833,213.2342 L36.4663,211.0032 L35.6833,208.7592 L34.9363,206.5022 L34.2253,204.2352 L33.5493,201.9572 L32.9073,199.6692 L32.2993,197.3712 L31.7233,195.0652 L31.1803,192.7512 L30.6703,190.4282 L30.1903,188.0982 L29.7413,185.7612 L29.3223,183.4162 L28.9323,181.0652 L28.5733,178.7072 L28.2443,176.3432 L27.9473,173.9712 L27.6823,171.5952 L27.4523,169.2112 L27.2583,166.8232 L27.1013,164.4282 L26.9843,162.0292 L26.9083,159.6262 L26.8763,157.2192 L26.8873,154.8102 L26.9473,152.4002 L27.0543,149.9902 L27.2133,147.5802 L27.4233,145.1732 L27.6863,142.7702 L28.0063,140.3732 L28.3823,137.9832 L28.8153,135.6032 L29.3083,133.2332 L29.8613,130.8772 L30.4733,128.5352 L31.1443,126.2102 L31.8753,123.9022 L32.6613,121.6152 L33.5043,119.3472 L34.4013,117.1022 L35.3493,114.8792 L36.3473,112.6802 L37.3913,110.5042 L38.4813,108.3532 L39.6123,106.2252 L40.7823,104.1222 L41.9883,102.0422 L43.2293,99.9862 L44.5013,97.9512 L45.8033,95.9402 L47.1333,93.9502 L48.4883,91.9812 L49.8693,90.0322 L51.2733,88.1042 L52.7003,86.1962 L54.1503,84.3062 L55.6223,82.4372 L57.1173,80.5872 L58.6333,78.7582 L60.1743,76.9492 L61.7393,75.1622 L63.3283,73.3972 L64.9413,71.6562 L66.5813,69.9382 L68.2463,68.2462 L69.9373,66.5802 L71.6533,64.9392 L73.3943,63.3242 L75.1583,61.7352 L76.9453,60.1702 L78.7533,58.6282 L80.5833,57.1112 L82.4323,55.6162 L84.3013,54.1442 L86.1913,52.6952 L88.1003,51.2682 L90.0293,49.8652 L91.9783,48.4852 L93.9483,47.1302 L95.9383,45.8012 L97.9513,44.5002 L99.9853,43.2282 L102.0423,41.9882 L104.1223,40.7822 L106.2253,39.6122 L108.3523,38.4812 L110.5053,37.3922 L112.6793,36.3472 L114.8803,35.3492 L117.1023,34.4012 L119.3473,33.5042 L121.6143,32.6612 L123.9023,31.8742 L126.2103,31.1452 L128.5353,30.4732 L130.8773,29.8612 L133.2333,29.3092 L135.6023,28.8162 L137.9833,28.3812 L140.3733,28.0052 L142.7703,27.6862 L145.1733,27.4232 L147.5803,27.2132 L149.9893,27.0552 L152.4003,26.9472 L154.8103,26.8882 L157.2193,26.8762 L159.6263,26.9082 L162.0293,26.9842 L164.4273,27.1012 L166.8223,27.2582 L169.2123,27.4522 L171.5943,27.6822 L173.9713,27.9472 L176.3423,28.2442 L178.7073,28.5732 L181.0643,28.9322 L183.4163,29.3212 L185.7613,29.7362 L188.0993,30.1782 L190.4323,30.6462 L192.7593,31.1382 L195.0813,31.6542 L197.3973,32.1942 L199.7093,32.7592 L202.0143,33.3482 L204.3153,33.9642 L206.6093,34.6072 L208.8973,35.2792 L211.1783,35.9812 L213.4523,36.7162 L215.7163,37.4852 L217.9703,38.2912 L220.2123,39.1352 L222.4403,40.0202 L224.6543,40.9472 L226.8503,41.9182 L229.0273,42.9342 L231.1833,43.9972 L233.3173,45.1082 L235.4263,46.2672 L237.5093,47.4732 L239.5643,48.7292 L241.5903,50.0322 L243.5843,51.3822 L245.5473,52.7782 L247.4763,54.2202 L249.3733,55.7042 L251.2353,57.2312 L253.0623,58.7972 L254.8563,60.4022 L256.6163,62.0432 L258.3413,63.7192 L260.0323,65.4282 L261.6893,67.1672 L263.3123,68.9372 L264.9023,70.7352 L266.4583,72.5592 L267.9813,74.4102 L269.4723,76.2852 L270.9313,78.1832 L272.3593,80.1032 L273.7563,82.0442 L275.1223,84.0042 L276.4583,85.9842 L277.7643,87.9822 L279.0423,89.9972 L280.2903,92.0302 L281.5093,94.0782 L282.7003,96.1442 L283.8613,98.2252 L284.9933,100.3222 L286.1003,102.4332 L287.1783,104.5582 L288.2303,106.6982 L289.2553,108.8512 L290.2553,111.0182 L291.2273,113.1982 L292.1753,115.3902 L293.0963,117.5962 L293.9903,119.8162 L294.8553,122.0502 L295.6893,124.2972 L296.4923,126.5592 L297.2593,128.8362 L297.9903,131.1272 L298.6813,133.4332 L299.3313,135.7542 L299.9363,138.0882 L300.4953,140.4362 L301.0053,142.7962 L301.4643,145.1692 L301.8723,147.5522 L302.2253,149.9452 L302.5253,152.3462 L302.7703,154.7542 L302.9613,157.1682 L303.0943,159.5862 L303.1733,162.0062 L303.1953,164.4282 Z" id="Stroke-6" stroke="#49F2BA" stroke-dasharray="36.667,31.667,15.2,15.2,25.334,25.334"></path>
                    <path d="M331.5977,164.4282 L331.5337,167.3452 L331.3757,170.2582 L331.1287,173.1642 L330.7967,176.0622 L330.3817,178.9472 L329.8907,181.8192 L329.3267,184.6752 L328.6967,187.5142 L328.0027,190.3362 L327.2527,193.1382 L326.4517,195.9222 L325.6007,198.6862 L324.7067,201.4312 L323.7727,204.1572 L322.7987,206.8642 L321.7897,209.5512 L320.7437,212.2192 L319.6597,214.8652 L318.5377,217.4922 L317.3777,220.0972 L316.1817,222.6802 L314.9477,225.2412 L313.6757,227.7802 L312.3697,230.2962 L311.0307,232.7902 L309.6597,235.2622 L308.2577,237.7132 L306.8297,240.1442 L305.3757,242.5572 L303.8987,244.9512 L302.4007,247.3302 L300.8807,249.6932 L299.3427,252.0422 L297.7847,254.3792 L296.2097,256.7032 L294.6167,259.0152 L293.0027,261.3162 L291.3687,263.6052 L289.7127,265.8812 L288.0317,268.1442 L286.3247,270.3902 L284.5877,272.6202 L282.8187,274.8292 L281.0157,277.0152 L279.1737,279.1742 L277.3007,281.3112 L275.3877,283.4172 L273.4367,285.4942 L271.4477,287.5402 L269.4207,289.5532 L267.3567,291.5332 L265.2537,293.4792 L263.1137,295.3882 L260.9367,297.2602 L258.7217,299.0932 L256.4697,300.8852 L254.1807,302.6352 L251.8567,304.3422 L249.4947,306.0042 L247.0997,307.6192 L244.6687,309.1872 L242.2047,310.7052 L239.7077,312.1732 L237.1787,313.5882 L234.6177,314.9492 L232.0257,316.2542 L229.4037,317.5012 L226.7527,318.6872 L224.0737,319.8102 L221.3677,320.8672 L218.6347,321.8552 L215.8767,322.7712 L213.0957,323.6112 L210.2917,324.3732 L207.4677,325.0532 L204.6247,325.6482 L201.7667,326.1572 L198.8947,326.5802 L196.0127,326.9182 L193.1237,327.1732 L190.2327,327.3472 L187.3387,327.4452 L184.4477,327.4702 L181.5597,327.4272 L178.6797,327.3212 L175.8077,327.1562 L172.9457,326.9392 L170.0937,326.6752 L167.2547,326.3692 L164.4277,326.0282 L161.6147,325.6552 L158.8117,325.2552 L156.0217,324.8332 L153.2427,324.3922 L150.4727,323.9352 L147.7127,323.4672 L144.9597,322.9872 L142.2127,322.5002 L139.4707,322.0062 L136.7317,321.5042 L133.9947,320.9932 L131.2597,320.4722 L128.5257,319.9382 L125.7927,319.3862 L123.0607,318.8122 L120.3307,318.2122 L117.6057,317.5792 L114.8837,316.9102 L112.1687,316.1992 L109.4637,315.4422 L106.7687,314.6352 L104.0877,313.7762 L101.4217,312.8602 L98.7747,311.8882 L96.1467,310.8582 L93.5407,309.7692 L90.9567,308.6232 L88.3987,307.4202 L85.8657,306.1602 L83.3597,304.8442 L80.8807,303.4732 L78.4327,302.0502 L76.0157,300.5712 L73.6317,299.0382 L71.2847,297.4512 L68.9737,295.8102 L66.7017,294.1162 L64.4687,292.3692 L62.2797,290.5722 L60.1317,288.7242 L58.0277,286.8272 L55.9687,284.8852 L53.9537,282.8972 L51.9847,280.8672 L50.0597,278.7972 L48.1787,276.6882 L46.3467,274.5412 L44.5537,272.3632 L42.8067,270.1522 L41.1047,267.9082 L39.4477,265.6362 L37.8327,263.3352 L36.2617,261.0082 L34.7347,258.6572 L33.2477,256.2822 L31.8027,253.8852 L30.3987,251.4682 L29.0347,249.0322 L27.7077,246.5772 L26.4207,244.1062 L25.1717,241.6192 L23.9607,239.1162 L22.7857,236.5982 L21.6487,234.0672 L20.5467,231.5212 L19.4827,228.9622 L18.4547,226.3902 L17.4627,223.8062 L16.5077,221.2092 L15.5877,218.6012 L14.7027,215.9832 L13.8517,213.3532 L13.0327,210.7152 L12.2427,208.0672 L11.4797,205.4102 L10.7427,202.7462 L10.0287,200.0742 L9.3337,197.3942 L8.6577,194.7072 L7.9947,192.0112 L7.3467,189.3072 L6.7077,186.5942 L6.0797,183.8712 L5.4607,181.1362 L4.8547,178.3892 L4.2617,175.6282 L3.6887,172.8522 L3.1397,170.0602 L2.6197,167.2522 L2.1367,164.4282 L1.6937,161.5882 L1.2977,158.7312 L0.9567,155.8612 L0.6757,152.9772 L0.4617,150.0832 L0.3207,147.1792 L0.2567,144.2702 L0.2777,141.3582 L0.3897,138.4472 L0.5977,135.5402 L0.9087,132.6432 L1.3257,129.7602 L1.8517,126.8942 L2.4907,124.0532 L3.2407,121.2382 L4.1017,118.4552 L5.0717,115.7082 L6.1477,113.0002 L7.3257,110.3332 L8.5977,107.7102 L9.9577,105.1332 L11.4017,102.6012 L12.9167,100.1152 L14.4977,97.6752 L16.1367,95.2792 L17.8247,92.9252 L19.5527,90.6102 L21.3137,88.3332 L23.1007,86.0892 L24.9077,83.8752 L26.7277,81.6892 L28.5577,79.5272 L30.3937,77.3852 L32.2327,75.2612 L34.0727,73.1522 L35.9127,71.0562 L37.7547,68.9732 L39.5997,66.9022 L41.4497,64.8422 L43.3047,62.7932 L45.1707,60.7592 L47.0497,58.7402 L48.9457,56.7382 L50.8597,54.7562 L52.7947,52.7942 L54.7517,50.8552 L56.7317,48.9372 L58.7297,47.0382 L60.7457,45.1562 L62.7797,43.2872 L64.8267,41.4292 L66.8857,39.5792 L68.9577,37.7342 L71.0417,35.8922 L73.1387,34.0532 L75.2487,32.2142 L77.3747,30.3782 L79.5187,28.5442 L81.6827,26.7172 L83.8707,24.8992 L86.0857,23.0952 L88.3307,21.3102 L90.6097,19.5502 L92.9237,17.8232 L95.2787,16.1362 L97.6747,14.4982 L100.1157,12.9172 L102.6017,11.4012 L105.1327,9.9582 L107.7097,8.5972 L110.3327,7.3242 L112.9997,6.1482 L115.7077,5.0722 L118.4547,4.1012 L121.2387,3.2402 L124.0527,2.4902 L126.8947,1.8522 L129.7597,1.3252 L132.6437,0.9082 L135.5397,0.5982 L138.4477,0.3892 L141.3587,0.2782 L144.2707,0.2572 L147.1797,0.3202 L150.0827,0.4622 L152.9777,0.6762 L155.8617,0.9572 L158.7317,1.2982 L161.5877,1.6932 L164.4277,2.1362 L167.2527,2.6202 L170.0607,3.1402 L172.8527,3.6892 L175.6277,4.2622 L178.3887,4.8542 L181.1367,5.4612 L183.8707,6.0792 L186.5947,6.7042 L189.3097,7.3312 L192.0187,7.9562 L194.7227,8.5762 L197.4247,9.1892 L200.1277,9.7932 L202.8337,10.3892 L205.5447,10.9782 L208.2617,11.5632 L210.9857,12.1472 L213.7157,12.7352 L216.4537,13.3332 L219.1987,13.9482 L221.9477,14.5862 L224.6987,15.2542 L227.4497,15.9612 L230.1957,16.7132 L232.9337,17.5172 L235.6597,18.3822 L238.3687,19.3132 L241.0537,20.3152 L243.7127,21.3942 L246.3397,22.5532 L248.9287,23.7952 L251.4767,25.1212 L253.9787,26.5322 L256.4307,28.0292 L258.8297,29.6082 L261.1747,31.2682 L263.4617,33.0052 L265.6917,34.8162 L267.8637,36.6972 L269.9767,38.6402 L272.0327,40.6432 L274.0337,42.6992 L275.9797,44.8032 L277.8717,46.9532 L279.7147,49.1412 L281.5087,51.3652 L283.2547,53.6202 L284.9557,55.9052 L286.6137,58.2142 L288.2317,60.5452 L289.8107,62.8952 L291.3557,65.2622 L292.8677,67.6422 L294.3507,70.0342 L295.8067,72.4362 L297.2387,74.8462 L298.6487,77.2642 L300.0357,79.6912 L301.4057,82.1242 L302.7537,84.5652 L304.0837,87.0152 L305.3987,89.4732 L306.7057,91.9342 L307.9997,94.4032 L309.2857,96.8802 L310.5667,99.3632 L311.8427,101.8542 L313.1177,104.3542 L314.3897,106.8632 L315.6587,109.3852 L316.9207,111.9212 L318.1737,114.4732 L319.4107,117.0452 L320.6267,119.6392 L321.8137,122.2572 L322.9657,124.9002 L324.0737,127.5712 L325.1287,130.2702 L326.1237,132.9972 L327.0527,135.7532 L327.9077,138.5352 L328.6817,141.3442 L329.3717,144.1762 L329.9737,147.0292 L330.4827,149.9002 L330.8977,152.7872 L331.2177,155.6872 L331.4407,158.5962 L331.5677,161.5112 L331.5977,164.4282 Z" id="Stroke-7" stroke="#DE3BED" stroke-dasharray="22.8,22.8,10.134,22.8,50.668,50.668"></path>
                </g>
            </g>
        </g>
    </g>
</svg>