<?xml version="1.0" encoding="UTF-8"?>
<svg width="1185px" height="65px" viewBox="0 0 1185 65" version="1.1" xmlns="http://www.w3.org/2000/svg" xmlns:xlink="http://www.w3.org/1999/xlink">
    <title>Group 32</title>
    <defs>
        <polygon id="path-1" points="0.8772 0.002 104.1222 0.002 104.1222 64.9997002 0.8772 64.9997002"></polygon>
    </defs>
    <g id="Page-1" stroke="none" stroke-width="1" fill="none" fill-rule="evenodd">
        <g id="DevSecOps-UI" transform="translate(-308.000000, -8372.000000)">
            <g id="Group-32" transform="translate(308.000000, 8372.000000)">
                <path d="M32.5,30.7024 L2.5,30.7024 C1.119,30.7024 0,31.8214 0,33.2024 C0,34.5834 1.119,35.7024 2.5,35.7024 L32.5,35.7024 C33.881,35.7024 35,34.5834 35,33.2024 C35,31.8214 33.881,30.7024 32.5,30.7024" id="Fill-1" fill="#2E0864"></path>
                <path d="M111.0957,30.7024 L71.7977,30.7024 C70.4167,30.7024 69.2977,31.8214 69.2977,33.2024 C69.2977,34.5834 70.4167,35.7024 71.7977,35.7024 L111.0957,35.7024 C112.4767,35.7024 113.5957,34.5834 113.5957,33.2024 C113.5957,31.8214 112.4767,30.7024 111.0957,30.7024" id="Fill-3" fill="#2E0864"></path>
                <path d="M170.0439,30.7024 L150.3949,30.7024 C149.0139,30.7024 147.8949,31.8214 147.8949,33.2024 C147.8949,34.5834 149.0139,35.7024 150.3949,35.7024 L170.0439,35.7024 C171.4249,35.7024 172.5439,34.5834 172.5439,33.2024 C172.5439,31.8214 171.4249,30.7024 170.0439,30.7024" id="Fill-5" fill="#2E0864"></path>
                <path d="M268.2891,30.7024 L209.3421,30.7024 C207.9611,30.7024 206.8421,31.8214 206.8421,33.2024 C206.8421,34.5834 207.9611,35.7024 209.3421,35.7024 L268.2891,35.7024 C269.6701,35.7024 270.7891,34.5834 270.7891,33.2024 C270.7891,31.8214 269.6701,30.7024 268.2891,30.7024" id="Fill-7" fill="#2E0864"></path>
                <path d="M405.833,30.7024 L386.184,30.7024 C384.803,30.7024 383.684,31.8214 383.684,33.2024 C383.684,34.5834 384.803,35.7024 386.184,35.7024 L405.833,35.7024 C407.214,35.7024 408.333,34.5834 408.333,33.2024 C408.333,31.8214 407.214,30.7024 405.833,30.7024" id="Fill-9" fill="#2E0864"></path>
                <path d="M504.0791,30.7024 L445.1311,30.7024 C443.7501,30.7024 442.6311,31.8214 442.6311,33.2024 C442.6311,34.5834 443.7501,35.7024 445.1311,35.7024 L504.0791,35.7024 C505.4601,35.7024 506.5791,34.5834 506.5791,33.2024 C506.5791,31.8214 505.4601,30.7024 504.0791,30.7024" id="Fill-11" fill="#2E0864"></path>
                <path d="M346.8857,30.7024 L307.5877,30.7024 C306.2067,30.7024 305.0877,31.8214 305.0877,33.2024 C305.0877,34.5834 306.2067,35.7024 307.5877,35.7024 L346.8857,35.7024 C348.2667,35.7024 349.3857,34.5834 349.3857,33.2024 C349.3857,31.8214 348.2667,30.7024 346.8857,30.7024" id="Fill-13" fill="#2E0864"></path>
                <path d="M877.4121,30.7024 L857.7631,30.7024 C856.3821,30.7024 855.2631,31.8214 855.2631,33.2024 C855.2631,34.5834 856.3821,35.7024 857.7631,35.7024 L877.4121,35.7024 C878.7931,35.7024 879.9121,34.5834 879.9121,33.2024 C879.9121,31.8214 878.7931,30.7024 877.4121,30.7024" id="Fill-15" fill="#2E0864"></path>
                <path d="M975.6572,30.7024 L916.7102,30.7024 C915.3292,30.7024 914.2102,31.8214 914.2102,33.2024 C914.2102,34.5834 915.3292,35.7024 916.7102,35.7024 L975.6572,35.7024 C977.0382,35.7024 978.1572,34.5834 978.1572,33.2024 C978.1572,31.8214 977.0382,30.7024 975.6572,30.7024" id="Fill-17" fill="#2E0864"></path>
                <path d="M1113.2012,30.7024 L1093.5532,30.7024 C1092.1722,30.7024 1091.0532,31.8214 1091.0532,33.2024 C1091.0532,34.5834 1092.1722,35.7024 1093.5532,35.7024 L1113.2012,35.7024 C1114.5822,35.7024 1115.7012,34.5834 1115.7012,33.2024 C1115.7012,31.8214 1114.5822,30.7024 1113.2012,30.7024" id="Fill-19" fill="#2E0864"></path>
                <path d="M818.4648,30.7024 L779.1658,30.7024 C777.7848,30.7024 776.6658,31.8214 776.6658,33.2024 C776.6658,34.5834 777.7848,35.7024 779.1658,35.7024 L818.4648,35.7024 C819.8458,35.7024 820.9648,34.5834 820.9648,33.2024 C820.9648,31.8214 819.8458,30.7024 818.4648,30.7024" id="Fill-21" fill="#2E0864"></path>
                <path d="M1054.2539,30.7024 L1014.9559,30.7024 C1013.5749,30.7024 1012.4559,31.8214 1012.4559,33.2024 C1012.4559,34.5834 1013.5749,35.7024 1014.9559,35.7024 L1054.2539,35.7024 C1055.6349,35.7024 1056.7539,34.5834 1056.7539,33.2024 C1056.7539,31.8214 1055.6349,30.7024 1054.2539,30.7024" id="Fill-23" fill="#2E0864"></path>
                <path d="M739.8682,30.7024 L680.9212,30.7024 C679.5402,30.7024 678.4212,31.8214 678.4212,33.2024 C678.4212,34.5834 679.5402,35.7024 680.9212,35.7024 L739.8682,35.7024 C741.2492,35.7024 742.3682,34.5834 742.3682,33.2024 C742.3682,31.8214 741.2492,30.7024 739.8682,30.7024" id="Fill-25" fill="#2E0864"></path>
                <g id="Group-29" transform="translate(540.000000, -0.001700)">
                    <mask id="mask-2" fill="white">
                        <use xlink:href="#path-1"></use>
                    </mask>
                    <g id="Clip-28"></g>
                    <path d="M56.2402,33.0957 L77.0062,19.9917 C78.8342,23.5687 79.8612,27.5347 79.9862,31.6697 L79.9862,31.7017 C80.0152,32.6827 79.9882,33.6567 79.9162,34.6207 C79.4452,40.8687 76.8792,46.7227 72.5232,51.3497 C72.3182,51.5677 72.1052,51.7757 71.8942,51.9867 L56.2402,33.0957 Z M71.3482,12.4767 C72.4392,13.5027 73.4292,14.6067 74.3252,15.7707 L54.8662,28.0497 L54.1722,5.0557 C60.5872,5.4357 66.6122,8.0177 71.3482,12.4767 L71.3482,12.4767 Z M33.6502,52.5237 C28.8832,48.0367 25.9342,42.1327 25.1912,35.7037 C25.1002,34.9197 25.0372,34.1287 25.0122,33.3307 C24.9862,32.4467 25.0062,31.5707 25.0612,30.7037 C25.9122,17.5587 36.0862,6.7927 49.1742,5.2077 L50.0012,32.5747 C50.0022,32.5977 50.0112,32.6187 50.0112,32.6417 C50.0232,32.8387 50.0502,33.0347 50.1072,33.2267 C50.1092,33.2307 50.1112,33.2337 50.1122,33.2377 C50.1692,33.4207 50.2522,33.5927 50.3482,33.7577 C50.3802,33.8107 50.4172,33.8617 50.4532,33.9117 C50.4942,33.9727 50.5272,34.0367 50.5752,34.0947 L68.0512,55.1837 C63.7452,58.1477 58.6782,59.8257 53.3302,59.9877 C45.9692,60.2227 39.0002,57.5587 33.6502,52.5237 L33.6502,52.5237 Z M101.6222,30.7037 L84.9392,30.7037 C84.4822,22.3387 80.8982,14.5987 74.7752,8.8357 C68.4552,2.8857 60.1782,-0.2343 51.5182,0.0157 C42.8422,0.2777 34.7862,3.9037 28.8362,10.2247 C23.5242,15.8667 20.4672,23.0547 20.0542,30.7037 L3.3772,30.7037 C1.9962,30.7037 0.8772,31.8237 0.8772,33.2037 C0.8772,34.5847 1.9962,35.7037 3.3772,35.7037 L20.1662,35.7037 C20.9292,43.5267 24.4462,50.7257 30.2232,56.1637 C36.3002,61.8847 44.1672,65.0007 52.4742,64.9997002 C52.8092,64.9997002 53.1442,64.9947 53.4802,64.9857 C62.1582,64.7237 70.2142,61.0977 76.1642,54.7767 C81.1482,49.4827 84.1462,42.8247 84.8372,35.7037 L101.6222,35.7037 C103.0032,35.7037 104.1222,34.5847 104.1222,33.2037 C104.1222,31.8237 103.0032,30.7037 101.6222,30.7037 L101.6222,30.7037 Z" id="Fill-27" fill="#2E0864" mask="url(#mask-2)"></path>
                </g>
                <path d="M1182.5,30.7024 L1152.5,30.7024 C1151.119,30.7024 1150,31.8214 1150,33.2024 C1150,34.5834 1151.119,35.7024 1152.5,35.7024 L1182.5,35.7024 C1183.881,35.7024 1185,34.5834 1185,33.2024 C1185,31.8214 1183.881,30.7024 1182.5,30.7024" id="Fill-30" fill="#2E0864"></path>
            </g>
        </g>
    </g>
</svg>