<?xml version="1.0" encoding="utf-8"?>
<!-- Generator: Adobe Illustrator 24.0.3, SVG Export Plug-In . SVG Version: 6.00 Build 0)  -->
<svg version="1.1" id="Layer_1" xmlns="http://www.w3.org/2000/svg" xmlns:xlink="http://www.w3.org/1999/xlink" x="0px" y="0px"
	 viewBox="0 0 765.43 392.03" style="enable-background:new 0 0 765.43 392.03;" xml:space="preserve">
<style type="text/css">
	.st0{fill:#FFD733;}
	.st1{fill:#F7DEB0;}
	.st2{fill:#67C0B3;}
	.st3{fill:#527BBD;}
	.st4{fill:#ED6E2F;}
	.st5{fill:#E34329;}
	.st6{fill:#F6A22D;}
	.st7{fill:#23397B;}
	.st8{fill:#7486A5;}
	.st9{fill:#FABA6B;}
	.st10{fill:#F194A9;}
	.st11{fill:#E0BF87;}
	.st12{fill:#FFFFFF;}
</style>
<g>
	<g>
		<g>
			<circle class="st0" cx="486.27" cy="248.1" r="12.81"/>
		</g>
		<g>
			<circle class="st0" cx="278.6" cy="248.1" r="12.81"/>
		</g>
		<g>
			<path class="st1" d="M97.35,271.14c-16.14-8.8-31.85-18.7-47.02-29.72c-7.26,10,7.12,52.36,7.12,52.36s-45.51,0.48-53.8,11.89
				c36.61,26.6,75.73,47.55,116.57,63.22"/>
		</g>
		<g>
			<path class="st1" d="M666.76,271.14c16.14-8.8,31.85-18.7,47.02-29.72c7.26,10-7.12,52.36-7.12,52.36s45.51,0.48,53.8,11.89
				c-36.61,26.6-75.73,47.55-116.57,63.22"/>
		</g>
		<g>
			<path class="st1" d="M680.92,290.64c-178.17,129.45-419.42,129.45-597.59,0c15.56-21.42,31.12-42.83,46.68-64.25
				c150.33,109.22,353.9,109.22,504.23,0C649.8,247.8,665.36,269.22,680.92,290.64z"/>
		</g>
		<g>
			
				<ellipse transform="matrix(0.6222 -0.7829 0.7829 0.6222 50.4971 507.4036)" class="st2" cx="550.94" cy="201.38" rx="10.32" ry="19.19"/>
		</g>
		<g>
			
				<ellipse transform="matrix(0.9935 -0.1136 0.1136 0.9935 -17.8367 71.592)" class="st2" cx="619.1" cy="192.26" rx="28.4" ry="15.28"/>
		</g>
		<g>
			
				<ellipse transform="matrix(0.7829 -0.6222 0.6222 0.7829 -77.9976 179.2652)" class="st2" cx="217.85" cy="201.38" rx="19.19" ry="10.32"/>
		</g>
		<g>
			
				<ellipse transform="matrix(0.1136 -0.9935 0.9935 0.1136 -58.338 319.134)" class="st2" cx="149.69" cy="192.26" rx="15.28" ry="28.4"/>
		</g>
		<g>
			<circle class="st6" cx="158.21" cy="82.53" r="54.37"/>
		</g>
		<g>
			<path class="st6" d="M664.24,94.11c0.89-5.72,0.94-11.69,0-17.74l-13.45-4.89c-0.77-2.42-1.76-4.74-2.91-6.97l6.06-12.98
				c-3.51-4.8-7.74-9.04-12.55-12.55l-12.98,6.06c-2.23-1.15-4.55-2.14-6.97-2.91l-4.89-13.45c-5.81-0.9-11.78-0.93-17.74,0
				l-4.89,13.45c-2.42,0.77-4.74,1.76-6.97,2.91l-12.98-6.06c-4.8,3.51-9.04,7.74-12.55,12.55l6.06,12.98
				c-1.15,2.22-2.14,4.55-2.91,6.97l-13.45,4.89c-0.91,5.87-0.92,11.84,0,17.74L564.58,99c0.77,2.42,1.76,4.74,2.91,6.97
				l-6.06,12.98c3.51,4.8,7.74,9.04,12.55,12.55l12.98-6.06c2.23,1.15,4.55,2.14,6.97,2.91l4.89,13.45c5.81,0.9,11.78,0.93,17.74,0
				l4.89-13.45c2.42-0.77,4.74-1.76,6.97-2.91l12.98,6.06c4.8-3.51,9.04-7.74,12.55-12.55l-6.06-12.98
				c1.15-2.23,2.14-4.55,2.91-6.97L664.24,94.11z M607.69,106.5c-11.74,0-21.25-9.52-21.25-21.25c0-11.74,9.52-21.25,21.25-21.25
				s21.25,9.52,21.25,21.25C628.94,96.98,619.42,106.5,607.69,106.5z"/>
		</g>
		<g>
			<polygon class="st3" points="382.09,4.18 360.43,37.99 330.55,22.97 351.16,84.29 413.02,84.29 433.63,22.97 403.74,37.99 			"/>
		</g>
		<g>
			<g id="g48_64_" transform="translate(155.197863, 1.160267)">
				<g id="path50_64_">
					<path class="st5" d="M226.92,275.8L226.92,275.8l52.78-162.42H174.14L226.92,275.8L226.92,275.8z"/>
				</g>
			</g>
			<g id="g56_64_" transform="translate(28.531199, 1.160800)">
				<g id="path58_64_">
					<path class="st4" d="M353.55,275.8l-52.78-162.42h-73.91L353.55,275.8L353.55,275.8z"/>
				</g>
			</g>
			<g id="g64_64_" transform="translate(0.088533, 0.255867)">
				<g id="path66_64_">
					<path class="st6" d="M255.28,114.34L255.28,114.34l-16.06,49.35c-1.45,4.48,0.12,9.43,3.96,12.22l138.79,100.85L255.28,114.34
						L255.28,114.34z"/>
				</g>
			</g>
			<g id="g72_64_" transform="translate(29.421866, 280.255593)">
				<g id="path74_64_">
					<path class="st5" d="M225.96-165.66h73.96l-31.83-97.82c-1.63-5-8.73-5-10.42,0L225.96-165.66L225.96-165.66z"/>
				</g>
			</g>
			<g id="g76_64_" transform="translate(247.197860, 1.160800)">
				<g id="path78_64_">
					<path class="st4" d="M134.92,275.8l52.78-162.42h73.96L134.92,275.8L134.92,275.8z"/>
				</g>
			</g>
			<g id="g80_64_" transform="translate(246.307061, 0.255867)">
				<g id="path82_64_">
					<path class="st6" d="M262.5,114.34L262.5,114.34l16.06,49.35c1.45,4.48-0.12,9.43-3.96,12.22L135.81,276.7L262.5,114.34
						L262.5,114.34z"/>
				</g>
			</g>
			<g id="g84_64_" transform="translate(336.973725, 280.255593)">
				<g id="path86_64_">
					<path class="st5" d="M171.87-165.66H97.91l31.77-97.82c1.63-5,8.73-5,10.42,0L171.87-165.66L171.87-165.66z"/>
				</g>
			</g>
		</g>
	</g>
	<g>
		<g>
			<g id="g48_60_" transform="translate(155.197863, 1.160267)">
				<g id="path50_60_">
					<path class="st7" d="M227.59,280.91c-1.87,0-3.52-1.2-4.1-2.98l-53.33-164.1c-0.43-1.31-0.2-2.75,0.61-3.86
						c0.81-1.11,2.11-1.77,3.48-1.77h106.66c1.38,0,2.67,0.66,3.48,1.77c0.81,1.12,1.04,2.55,0.61,3.86l-53.33,164.1
						C231.1,279.71,229.45,280.91,227.59,280.91z M180.18,116.81l47.4,145.86l47.4-145.86H180.18z"/>
				</g>
			</g>
			<g id="g56_60_" transform="translate(28.531199, 1.160800)">
				<g id="path58_60_">
					<path class="st7" d="M354.22,280.91c-1.29,0-2.56-0.58-3.4-1.66l-128-164.1c-1.01-1.3-1.2-3.06-0.48-4.54
						c0.72-1.48,2.22-2.42,3.87-2.42h74.67c1.87,0,3.52,1.2,4.1,2.98l53.33,164.1c0.65,1.99-0.23,4.15-2.08,5.13
						C355.59,280.75,354.9,280.91,354.22,280.91z M235.03,116.81l107.52,137.84l-44.79-137.84H235.03z"/>
				</g>
			</g>
			<g id="g64_60_" transform="translate(0.088533, 0.255867)">
				<g id="path66_60_">
					<path class="st7" d="M382.63,281.87c-0.88,0-1.77-0.27-2.53-0.82L239.87,179.16c-5.39-3.92-7.62-10.82-5.56-17.16l16.23-49.86
						c0.49-1.51,1.78-2.63,3.35-2.91c1.58-0.28,3.16,0.34,4.14,1.59l128,164.1c1.32,1.69,1.19,4.1-0.3,5.64
						C384.89,281.42,383.76,281.87,382.63,281.87z M256.22,122.5l-13.72,42.15c-0.9,2.79,0.07,5.81,2.44,7.53l115.51,83.93
						L256.22,122.5z"/>
				</g>
			</g>
			<g id="g72_60_" transform="translate(29.421866, 280.255593)">
				<g id="path74_60_">
					<path class="st7" d="M300.05-162.23h-74.73c-1.38,0-2.67-0.66-3.48-1.77c-0.81-1.11-1.04-2.55-0.61-3.86l32.04-98.84
						c1.4-4.16,5.02-6.92,9.44-6.77c4.31,0.02,7.95,2.68,9.28,6.77l32.16,98.84c0.43,1.31,0.2,2.75-0.61,3.86
						S301.43-162.23,300.05-162.23z M231.24-170.84h62.88l-30.33-93.2c-0.18-0.54-0.56-0.82-1.14-0.82
						c-0.48,0.05-0.97,0.14-1.21,0.86L231.24-170.84z"/>
				</g>
			</g>
			<g id="g76_60_" transform="translate(247.197860, 1.160800)">
				<g id="path78_60_">
					<path class="st7" d="M135.58,280.91c-0.69,0-1.38-0.16-2.02-0.5c-1.85-0.98-2.72-3.15-2.08-5.13l53.33-164.1
						c0.58-1.77,2.23-2.98,4.1-2.98h74.73c1.65,0,3.15,0.94,3.87,2.42c0.72,1.48,0.54,3.24-0.48,4.54l-128.06,164.1
						C138.14,280.33,136.88,280.91,135.58,280.91z M192.04,116.81l-44.8,137.86l107.58-137.86H192.04z"/>
				</g>
			</g>
			<g id="g80_60_" transform="translate(246.307061, 0.255867)">
				<g id="path82_60_">
					<path class="st7" d="M136.48,281.81c-1.13,0-2.26-0.45-3.1-1.31c-1.49-1.54-1.62-3.95-0.3-5.64l128-164.04
						c0.98-1.25,2.56-1.87,4.14-1.59c1.57,0.28,2.86,1.39,3.35,2.91l16.23,49.86c2.06,6.35-0.17,13.24-5.56,17.16L139.01,280.99
						C138.25,281.54,137.36,281.81,136.48,281.81z M262.89,122.5L158.67,256.07l115.51-83.88c2.36-1.72,3.34-4.74,2.43-7.53
						L262.89,122.5z"/>
				</g>
			</g>
			<g id="g84_60_" transform="translate(336.973725, 280.255593)">
				<g id="path86_60_">
					<path class="st7" d="M173.85-162.23H99.12c-1.38,0-2.67-0.66-3.48-1.77c-0.81-1.12-1.04-2.55-0.61-3.86l32.1-98.84
						c1.33-4.09,4.98-6.75,9.29-6.77c4.4,0.01,8.03,2.62,9.42,6.72l32.12,98.88c0.43,1.31,0.2,2.75-0.61,3.86
						C176.53-162.89,175.23-162.23,173.85-162.23z M105.05-170.84h62.88l-30.27-93.2c-0.22-0.67-0.77-0.82-1.19-0.82
						c0,0-0.01,0-0.01,0c-0.58,0-0.96,0.28-1.14,0.82L105.05-170.84z"/>
				</g>
			</g>
		</g>
		<g>
			<g>
				<path class="st7" d="M382.78,392.03c-108.97,0-213.17-33.85-301.33-97.91c-1.92-1.4-2.35-4.09-0.95-6.02l46.68-64.25
					c0.67-0.92,1.68-1.54,2.81-1.72c1.13-0.17,2.28,0.1,3.21,0.77c149.28,108.46,349.88,108.46,499.17,0
					c0.92-0.67,2.08-0.94,3.21-0.77c1.13,0.18,2.14,0.8,2.81,1.72l46.68,64.25c0.67,0.92,0.95,2.08,0.77,3.21
					c-0.18,1.13-0.8,2.14-1.72,2.81C595.95,358.17,491.76,392.03,382.78,392.03z M90.02,289.67
					c85.93,61.34,187.07,93.75,292.77,93.75c105.7,0,206.84-32.4,292.77-93.75l-41.62-57.28c-150.77,107.31-351.53,107.31-502.3,0
					L90.02,289.67z"/>
			</g>
			<g>
				<path class="st7" d="M644.55,373.2c-1.73,0-3.36-1.05-4.02-2.77c-0.85-2.22,0.26-4.71,2.48-5.56
					c39.46-15.14,76.79-35.12,111.05-59.43c-9.27-4.81-31.47-7.2-46.78-7.36c-1.38-0.02-2.67-0.69-3.47-1.82
					c-0.8-1.13-1.01-2.57-0.56-3.87c5.39-15.89,9.61-34.93,8.91-44.04c-13.7,9.67-28.02,18.59-42.67,26.57
					c-2.09,1.14-4.7,0.37-5.84-1.72s-0.37-4.7,1.72-5.84c16.05-8.75,31.71-18.65,46.55-29.43c1.93-1.4,4.62-0.97,6.02,0.95
					c6.87,9.45-0.34,36.73-4.72,50.73c13.9,0.54,43.72,2.94,51.4,13.52c1.4,1.92,0.97,4.62-0.95,6.02
					c-36.1,26.23-75.66,47.68-117.56,63.76C645.58,373.1,645.06,373.2,644.55,373.2z"/>
			</g>
			<g>
				<path class="st7" d="M618.15,329.76l26.39,39.13l37.04-78.25C681.58,290.64,646.5,326.41,618.15,329.76z"/>
				<path class="st7" d="M644.55,373.19c-1.42,0-2.76-0.71-3.57-1.9l-26.39-39.13c-0.84-1.24-0.97-2.84-0.34-4.2
					c0.63-1.37,1.92-2.31,3.41-2.48c26.5-3.13,60.52-37.52,60.86-37.86c1.47-1.5,3.81-1.72,5.54-0.52c1.72,1.2,2.33,3.47,1.43,5.37
					l-37.04,78.25c-0.66,1.4-2.02,2.34-3.57,2.45C644.76,373.19,644.65,373.19,644.55,373.19z M625.36,332.75l18.53,27.47
					l24.65-52.09C657,317.5,640.84,328.69,625.36,332.75z"/>
			</g>
			<g>
				<path class="st7" d="M120.88,373.2c-0.51,0-1.03-0.09-1.54-0.29c-41.9-16.07-81.46-37.52-117.56-63.76
					c-0.92-0.67-1.54-1.68-1.72-2.81c-0.18-1.13,0.1-2.28,0.77-3.21c7.69-10.58,37.5-12.98,51.4-13.52
					c-4.38-14-11.59-41.28-4.72-50.73c1.4-1.92,4.09-2.35,6.02-0.95c14.84,10.78,30.5,20.68,46.55,29.43
					c2.09,1.14,2.86,3.75,1.72,5.84c-1.14,2.09-3.75,2.86-5.84,1.72c-14.65-7.98-28.98-16.9-42.67-26.57
					c-0.7,9.1,3.52,28.14,8.91,44.04c0.44,1.31,0.23,2.75-0.56,3.87c-0.8,1.13-2.09,1.8-3.47,1.82
					c-15.31,0.16-37.51,2.55-46.78,7.36c34.26,24.31,71.6,44.29,111.05,59.43c2.22,0.85,3.33,3.34,2.48,5.56
					C124.24,372.14,122.61,373.2,120.88,373.2z"/>
			</g>
			<g>
				<path class="st7" d="M83.84,290.64l37.04,78.25l26.39-39.13C147.27,329.76,118.66,327.52,83.84,290.64z"/>
				<path class="st7" d="M120.88,373.19c-0.11,0-0.22,0-0.33-0.01c-1.54-0.12-2.9-1.05-3.57-2.45l-37.04-78.25
					c-0.91-1.91-0.28-4.2,1.46-5.4c1.75-1.2,4.1-0.94,5.56,0.6c33.29,35.27,60.36,37.77,60.63,37.79c1.53,0.12,2.88,1.04,3.54,2.42
					c0.67,1.38,0.55,3.01-0.31,4.28l-26.39,39.13C123.65,372.49,122.3,373.19,120.88,373.19z M97.45,309.31l24.09,50.9l18.53-27.48
					C131.61,330.52,116.07,324.65,97.45,309.31z"/>
			</g>
		</g>
		<g>
			<path class="st7" d="M535.07,252.28c-1.41,0-2.79-0.69-3.62-1.96c-1.29-1.99-0.72-4.66,1.27-5.96
				c22.84-14.81,62.29-47.81,69.87-102.46c0.33-2.36,2.51-4,4.86-3.67c2.35,0.33,4,2.5,3.67,4.86
				c-8.05,58.05-49.64,92.9-73.71,108.51C536.69,252.06,535.88,252.28,535.07,252.28z"/>
		</g>
		<g>
			<path class="st7" d="M558.81,218.77c-6.09,0-12.07-2.04-16.97-5.93c-7.19-5.72-11.01-14.6-10.21-23.77
				c0.15-1.72,1.31-3.19,2.96-3.72c8.76-2.84,18.27-1.13,25.46,4.59c7.19,5.71,11.01,14.6,10.21,23.77
				c-0.15,1.72-1.31,3.19-2.96,3.72C564.51,218.33,561.65,218.77,558.81,218.77z M540.18,192.84c0.38,5.17,2.88,9.98,7.01,13.26
				c4.13,3.28,9.38,4.63,14.5,3.84c-0.38-5.17-2.88-9.98-7.01-13.26C550.56,193.39,545.31,192.03,540.18,192.84z"/>
		</g>
		<g>
			<path class="st7" d="M616.94,211.97c-11.26,0-21.99-4.95-29.35-13.71c-1.11-1.32-1.32-3.18-0.54-4.72
				c5.86-11.51,17.01-19.26,29.83-20.73c12.82-1.46,25.43,3.57,33.74,13.46c1.11,1.32,1.32,3.18,0.54,4.72
				c-5.86,11.51-17.01,19.26-29.83,20.73l0,0C619.86,211.89,618.39,211.97,616.94,211.97z M620.83,207.44h0.03H620.83z
				 M596.19,194.88c6.38,6.24,15.21,9.31,24.16,8.28c8.95-1.02,16.86-6.01,21.66-13.52c-6.38-6.23-15.21-9.31-24.16-8.28
				C608.9,182.39,600.99,187.37,596.19,194.88z"/>
		</g>
		<g>
			<path class="st7" d="M590.88,195.49l56.43-6.45C647.31,189.04,628.53,221.05,590.88,195.49z"/>
		</g>
		<g>
			<path class="st7" d="M564.96,212.39l-30.05-23.88C534.91,188.51,537.58,221.24,564.96,212.39z"/>
		</g>
		<g>
			<path class="st7" d="M233.71,252.28c-0.8,0-1.61-0.22-2.34-0.69c-30.92-20.04-69.3-55.88-76.59-112.78
				c-0.3-2.36,1.37-4.52,3.72-4.82c2.35-0.3,4.52,1.36,4.82,3.72c6.87,53.63,43.34,87.59,72.73,106.65c2,1.29,2.57,3.96,1.27,5.96
				C236.51,251.59,235.12,252.28,233.71,252.28z"/>
		</g>
		<g>
			<path class="st7" d="M209.98,218.77c-2.84,0-5.7-0.44-8.49-1.35c-1.64-0.53-2.81-2-2.96-3.72c-0.79-9.17,3.02-18.05,10.21-23.77
				c7.19-5.72,16.71-7.42,25.46-4.59c1.64,0.54,2.81,2,2.96,3.72c0.8,9.17-3.02,18.05-10.21,23.77
				C222.05,216.73,216.06,218.77,209.98,218.77z M207.09,209.93c5.12,0.8,10.37-0.56,14.5-3.84c4.13-3.28,6.63-8.09,7.01-13.26
				c-5.12-0.8-10.37,0.56-14.5,3.84C209.97,199.95,207.47,204.76,207.09,209.93z"/>
		</g>
		<g>
			<path class="st7" d="M151.85,211.97c-1.46,0-2.92-0.08-4.39-0.25l0,0c-12.81-1.47-23.96-9.22-29.83-20.73
				c-0.78-1.54-0.57-3.4,0.54-4.72c8.31-9.89,20.94-14.92,33.74-13.46c12.82,1.47,23.97,9.21,29.83,20.73
				c0.78,1.54,0.57,3.4-0.54,4.72C173.84,207.02,163.11,211.97,151.85,211.97z M148.44,203.16c8.95,1.02,17.78-2.04,24.16-8.28
				c-4.8-7.51-12.71-12.49-21.66-13.52c-8.96-1.03-17.78,2.05-24.16,8.28C131.58,197.15,139.49,202.14,148.44,203.16L148.44,203.16z
				"/>
		</g>
		<g>
			<path class="st7" d="M177.9,195.49l-56.43-6.45C121.47,189.04,140.25,221.05,177.9,195.49z"/>
		</g>
		<g>
			<path class="st7" d="M203.83,212.39l30.05-23.88C233.88,188.51,231.2,221.24,203.83,212.39z"/>
		</g>
		<g>
			<path class="st7" d="M696.01,212.52c20.21,0.54,36.19-15.42,35.65-35.65C711.45,176.34,695.47,192.29,696.01,212.52z"/>
			<path class="st7" d="M697.01,216.84c-0.37,0-0.74-0.01-1.12-0.02c-2.29-0.06-4.13-1.9-4.19-4.19
				c-0.29-10.97,3.72-21.19,11.3-28.77c7.58-7.58,17.78-11.59,28.77-11.3c2.29,0.06,4.13,1.9,4.19,4.19
				c0.29,10.97-3.72,21.19-11.3,28.77C717.34,212.85,707.56,216.84,697.01,216.84z M727.17,181.36c-6.9,0.75-13.21,3.73-18.08,8.61
				c-4.88,4.88-7.85,11.18-8.6,18.08c6.9-0.75,13.21-3.73,18.09-8.61C723.45,194.56,726.42,188.26,727.17,181.36z"/>
		</g>
		<g>
			<path class="st7" d="M674.38,176.66c9.21-8.73,9.22-22.91,0-31.65C665.17,153.75,665.16,167.92,674.38,176.66z"/>
			<path class="st7" d="M674.38,180.97c-1.07,0-2.13-0.39-2.96-1.18c-5.32-5.05-8.26-11.78-8.26-18.95c0-7.17,2.93-13.9,8.26-18.95
				c1.66-1.57,4.27-1.57,5.92,0c5.32,5.05,8.26,11.77,8.26,18.95c0,7.17-2.93,13.9-8.25,18.95
				C676.51,180.58,675.44,180.97,674.38,180.97z M674.38,151.76c-1.7,2.73-2.6,5.84-2.6,9.08c0,3.24,0.91,6.35,2.6,9.08
				c1.7-2.73,2.6-5.84,2.6-9.08C676.98,157.6,676.07,154.49,674.38,151.76z"/>
		</g>
		<g>
			<path class="st7" d="M246.31,35.02c0.37-13.86-10.58-24.83-24.46-24.46C221.48,24.43,232.43,35.39,246.31,35.02z"/>
			<path class="st7" d="M245.62,39.34c-7.6,0-14.65-2.88-19.93-8.16c-5.47-5.47-8.36-12.83-8.15-20.73c0.06-2.29,1.9-4.13,4.19-4.19
				c7.92-0.21,15.27,2.68,20.73,8.15c5.47,5.47,8.36,12.83,8.15,20.73c-0.06,2.29-1.9,4.13-4.19,4.19
				C246.16,39.34,245.89,39.34,245.62,39.34z M246.31,35.02h0.03H246.31z M226.54,15.25c0.74,3.74,2.54,7.13,5.25,9.84
				c2.71,2.71,6.1,4.5,9.84,5.24c-0.74-3.74-2.54-7.13-5.25-9.84C233.67,17.79,230.28,16,226.54,15.25z"/>
		</g>
		<g>
			<path class="st7" d="M517.79,35.02c-0.37-13.86,10.58-24.83,24.46-24.46C542.62,24.43,531.68,35.39,517.79,35.02z"/>
			<path class="st7" d="M518.48,39.34c-0.27,0-0.54,0-0.8-0.01c-2.29-0.06-4.13-1.9-4.19-4.19c-0.21-7.9,2.68-15.27,8.15-20.73
				c5.46-5.46,12.83-8.36,20.73-8.15c2.29,0.06,4.13,1.9,4.19,4.19c0.21,7.9-2.68,15.27-8.15,20.73
				C533.13,36.46,526.08,39.34,518.48,39.34z M537.56,15.25c-3.74,0.75-7.13,2.54-9.84,5.24c-2.71,2.71-4.5,6.1-5.25,9.84
				c3.74-0.74,7.13-2.54,9.84-5.24C535.03,22.38,536.82,18.99,537.56,15.25z"/>
		</g>
		<g>
			<path class="st7" d="M77.24,215.39c-20.21,0.54-36.19-15.42-35.65-35.65C61.8,179.21,77.78,195.16,77.24,215.39z"/>
			<path class="st7" d="M76.23,219.71c-10.55,0-20.33-4-27.65-11.32c-7.58-7.58-11.59-17.79-11.3-28.77
				c0.06-2.29,1.9-4.13,4.19-4.19c10.99-0.32,21.19,3.72,28.77,11.3c7.58,7.58,11.59,17.8,11.3,28.77c-0.06,2.29-1.9,4.13-4.19,4.19
				C76.98,219.71,76.6,219.71,76.23,219.71z M77.24,215.39h0.03H77.24z M46.07,184.23c0.75,6.9,3.72,13.2,8.6,18.08
				c4.88,4.88,11.19,7.86,18.09,8.61c-0.75-6.9-3.73-13.2-8.6-18.08C59.28,187.95,52.97,184.98,46.07,184.23z"/>
		</g>
		<g>
			<path class="st7" d="M98.87,179.53c-9.21-8.73-9.22-22.91,0-31.65C108.08,156.62,108.09,170.79,98.87,179.53z"/>
			<path class="st7" d="M98.87,183.84c-1.07,0-2.13-0.39-2.96-1.18c-5.32-5.05-8.25-11.78-8.25-18.95c0-7.17,2.93-13.9,8.26-18.95
				c1.66-1.58,4.26-1.57,5.92,0c5.32,5.05,8.26,11.78,8.26,18.95c0,7.17-2.93,13.9-8.26,18.95C101,183.45,99.93,183.84,98.87,183.84
				z M98.87,154.63c-1.7,2.73-2.6,5.84-2.6,9.08c0,3.24,0.91,6.35,2.6,9.08c1.7-2.73,2.61-5.84,2.6-9.08
				C101.47,160.47,100.57,157.36,98.87,154.63z"/>
		</g>
		<g>
			<path class="st7" d="M445.97,274.78c-0.29,0-0.57-0.03-0.83-0.09c-0.29-0.06-0.55-0.14-0.8-0.23c-0.26-0.11-0.52-0.26-0.75-0.4
				c-0.26-0.17-0.46-0.34-0.66-0.55c-0.2-0.2-0.37-0.4-0.55-0.66c-0.14-0.23-0.29-0.46-0.4-0.72c-0.09-0.29-0.17-0.55-0.23-0.83
				c-0.06-0.26-0.09-0.55-0.09-0.83c0-1.12,0.46-2.24,1.26-3.04c0.2-0.2,0.4-0.37,0.66-0.55c0.23-0.14,0.49-0.29,0.75-0.37
				c0.26-0.11,0.52-0.2,0.8-0.26c0.55-0.11,1.12-0.11,1.67,0c0.29,0.06,0.55,0.14,0.8,0.26c0.26,0.09,0.52,0.23,0.75,0.37
				c0.26,0.17,0.46,0.34,0.66,0.55c0.8,0.8,1.26,1.92,1.26,3.04c0,0.29-0.03,0.57-0.09,0.83c-0.06,0.29-0.14,0.55-0.23,0.83
				c-0.11,0.26-0.26,0.49-0.4,0.72c-0.17,0.26-0.34,0.46-0.55,0.66C448.21,274.32,447.09,274.78,445.97,274.78z"/>
		</g>
		<g>
			<path class="st7" d="M486.27,265.21c-9.44,0-17.12-7.68-17.12-17.12s7.68-17.12,17.12-17.12c9.44,0,17.12,7.68,17.12,17.12
				S495.71,265.21,486.27,265.21z M486.27,239.59c-4.69,0-8.5,3.81-8.5,8.5c0,4.69,3.81,8.5,8.5,8.5c4.69,0,8.5-3.82,8.5-8.5
				C494.78,243.41,490.96,239.59,486.27,239.59z"/>
		</g>
		<g>
			<path class="st7" d="M207.65,157.3c-1.15,0-2.24-0.46-3.04-1.26c-0.8-0.8-1.26-1.92-1.26-3.04c0-0.29,0.03-0.57,0.09-0.83
				c0.03-0.29,0.11-0.55,0.23-0.8s0.26-0.52,0.4-0.75c0.14-0.23,0.34-0.46,0.55-0.66c1.58-1.61,4.48-1.61,6.09,0
				c0.2,0.2,0.37,0.43,0.52,0.66c0.17,0.23,0.29,0.49,0.4,0.75c0.11,0.26,0.2,0.52,0.26,0.8c0.06,0.26,0.09,0.55,0.09,0.83
				c0,1.12-0.46,2.24-1.26,3.04C209.89,156.84,208.77,157.3,207.65,157.3z"/>
		</g>
		<g>
			<path class="st7" d="M318.9,274.78c-0.29,0-0.57-0.03-0.83-0.09c-0.29-0.06-0.55-0.14-0.8-0.23c-0.26-0.11-0.52-0.26-0.75-0.4
				c-0.23-0.17-0.46-0.34-0.66-0.55c-0.2-0.2-0.37-0.4-0.55-0.66c-0.14-0.23-0.29-0.46-0.37-0.72c-0.11-0.29-0.2-0.55-0.26-0.83
				c-0.06-0.26-0.09-0.55-0.09-0.83c0-1.12,0.46-2.24,1.26-3.04c0.2-0.2,0.43-0.37,0.66-0.55c0.23-0.14,0.49-0.29,0.75-0.37
				c0.26-0.11,0.52-0.2,0.8-0.26c1.38-0.29,2.87,0.17,3.88,1.18c0.8,0.8,1.26,1.92,1.26,3.04c0,0.29-0.03,0.57-0.09,0.83
				c-0.06,0.29-0.14,0.55-0.23,0.83c-0.11,0.26-0.26,0.49-0.4,0.72c-0.17,0.26-0.34,0.46-0.55,0.66
				C321.14,274.32,320.05,274.78,318.9,274.78z"/>
		</g>
		<g>
			<path class="st7" d="M101.75,225.83c-0.29,0-0.57-0.03-0.86-0.09c-0.26-0.06-0.55-0.11-0.8-0.23c-0.26-0.11-0.49-0.26-0.75-0.4
				c-0.23-0.17-0.43-0.34-0.63-0.55s-0.4-0.4-0.55-0.66c-0.14-0.23-0.29-0.46-0.4-0.72c-0.09-0.26-0.17-0.55-0.23-0.8
				c-0.06-0.29-0.09-0.57-0.09-0.86c0-1.12,0.46-2.24,1.26-3.04c0.2-0.2,0.4-0.37,0.63-0.52c0.26-0.17,0.49-0.29,0.75-0.4
				c0.26-0.11,0.55-0.2,0.8-0.26c0.57-0.11,1.15-0.11,1.69,0c0.29,0.06,0.55,0.14,0.8,0.26c0.26,0.11,0.52,0.23,0.75,0.4
				c0.23,0.14,0.46,0.32,0.66,0.52c0.2,0.2,0.37,0.43,0.52,0.66c0.17,0.23,0.29,0.49,0.4,0.75s0.2,0.52,0.26,0.8
				c0.06,0.29,0.09,0.57,0.09,0.83c0,0.29-0.03,0.57-0.09,0.86c-0.06,0.26-0.14,0.55-0.26,0.8c-0.11,0.26-0.23,0.49-0.4,0.72
				c-0.14,0.26-0.32,0.46-0.52,0.66c-0.2,0.2-0.43,0.37-0.66,0.55c-0.23,0.14-0.49,0.29-0.75,0.4c-0.26,0.11-0.52,0.17-0.8,0.23
				C102.29,225.8,102.03,225.83,101.75,225.83z"/>
		</g>
		<g>
			<path class="st7" d="M671.5,225.83c-0.29,0-0.57-0.03-0.83-0.09c-0.29-0.06-0.55-0.11-0.8-0.23c-0.26-0.11-0.52-0.26-0.75-0.4
				c-0.23-0.17-0.46-0.34-0.66-0.55c-0.2-0.2-0.37-0.4-0.55-0.66c-0.14-0.23-0.29-0.46-0.37-0.72c-0.11-0.26-0.2-0.55-0.26-0.8
				c-0.06-0.29-0.09-0.57-0.09-0.86c0-1.12,0.46-2.24,1.26-3.04c0.2-0.2,0.43-0.37,0.66-0.52c0.23-0.17,0.49-0.29,0.75-0.4
				c0.26-0.11,0.52-0.2,0.8-0.26c1.41-0.29,2.9,0.17,3.88,1.18c0.8,0.8,1.26,1.92,1.26,3.04c0,0.29-0.03,0.57-0.09,0.86
				c-0.06,0.26-0.14,0.55-0.23,0.8c-0.11,0.26-0.26,0.49-0.4,0.72c-0.17,0.26-0.34,0.46-0.55,0.66
				C673.74,225.37,672.65,225.83,671.5,225.83z"/>
		</g>
		<g>
			<path class="st7" d="M278.6,265.21c-9.44,0-17.12-7.68-17.12-17.12s7.68-17.12,17.12-17.12c9.44,0,17.12,7.68,17.12,17.12
				S288.04,265.21,278.6,265.21z M278.6,239.59c-4.69,0-8.5,3.81-8.5,8.5c0,4.69,3.81,8.5,8.5,8.5c4.69,0,8.5-3.82,8.5-8.5
				C287.1,243.41,283.29,239.59,278.6,239.59z"/>
		</g>
		<g>
			<path class="st7" d="M557.93,157.3c-0.29,0-0.57-0.03-0.83-0.09c-0.29-0.06-0.55-0.14-0.8-0.26c-0.26-0.09-0.52-0.23-0.75-0.37
				c-0.23-0.17-0.46-0.34-0.66-0.55c-0.8-0.8-1.26-1.92-1.26-3.04c0-0.29,0.03-0.57,0.09-0.83c0.06-0.29,0.14-0.55,0.26-0.8
				c0.09-0.26,0.23-0.52,0.37-0.75c0.17-0.23,0.34-0.46,0.55-0.66c0.2-0.2,0.43-0.37,0.66-0.55c0.23-0.14,0.49-0.29,0.75-0.4
				c0.26-0.09,0.52-0.17,0.8-0.23c1.41-0.29,2.87,0.17,3.88,1.18c0.2,0.2,0.37,0.43,0.55,0.66c0.14,0.23,0.29,0.49,0.4,0.75
				c0.09,0.26,0.17,0.52,0.23,0.8c0.06,0.26,0.09,0.55,0.09,0.83c0,1.12-0.46,2.24-1.26,3.04
				C560.17,156.84,559.08,157.3,557.93,157.3z"/>
		</g>
		<g>
			<path class="st7" d="M126.18,296.47c-0.77-0.43-0.97-0.96-0.61-1.6l0.1-0.19c0.22-0.4,0.88-0.84,1.98-1.33
				c1.09-0.49,1.87-1.16,2.33-1.98l12.01-21.59c0.46-0.83,0.61-1.84,0.45-3.03c-0.16-1.19-0.13-1.98,0.09-2.38l0.1-0.19
				c0.36-0.64,0.92-0.75,1.68-0.33l12.22,6.79c4.5,2.5,7.57,5.39,9.22,8.67c1.64,3.28,1.44,6.77-0.62,10.48
				c-1.91,3.43-4.65,5.53-8.23,6.31c-3.58,0.78-7.33,0.08-11.25-2.1l-3.54-1.97l-2.58,4.64c-0.46,0.83-0.57,1.86-0.34,3.09
				c0.24,1.23,0.24,2.05,0.02,2.45l-0.1,0.18c-0.36,0.64-0.92,0.75-1.68,0.33L126.18,296.47z M146.33,289.75l1.29,0.71
				c1.1,0.61,2.23,0.51,3.39-0.31c1.16-0.82,2.18-2.03,3.06-3.62c1.53-2.76,2.3-5.34,2.29-7.75c-0.01-2.41-0.6-3.94-1.8-4.61
				l-0.14-0.08c-1.19-0.66-2.23-0.2-3.12,1.39l-5.9,10.61C144.53,287.7,144.83,288.92,146.33,289.75z"/>
			<path class="st7" d="M203.34,327.56c-0.24,0.66-0.2,1.54,0.13,2.65c0.33,1.11,0.39,1.91,0.19,2.39l-0.08,0.19
				c-0.29,0.68-0.83,0.84-1.64,0.5l-11.32-4.8c-0.81-0.34-1.07-0.85-0.78-1.53l0.08-0.19c0.2-0.49,0.7-0.97,1.5-1.45
				c0.79-0.48,1.32-1.03,1.58-1.64c1.71-4.03,1.63-7.24-0.25-9.64l-4.47-1.84l-3.04,7.16c-0.37,0.87-0.37,1.91-0.01,3.11
				c0.36,1.2,0.46,2.01,0.28,2.43l-0.08,0.19c-0.29,0.68-0.84,0.84-1.64,0.5l-11.85-5.03c-0.81-0.34-1.07-0.85-0.78-1.53l0.08-0.19
				c0.18-0.42,0.79-0.93,1.82-1.54c1.04-0.61,1.74-1.34,2.11-2.21l9.65-22.74c0.37-0.87,0.41-1.89,0.13-3.06
				c-0.29-1.17-0.34-1.96-0.16-2.38l0.08-0.19c0.29-0.68,0.83-0.85,1.64-0.5l13.84,5.87c4.58,1.94,7.77,4.41,9.56,7.4
				c1.79,2.99,1.93,6.27,0.41,9.85c-0.59,1.39-1.63,2.63-3.12,3.73c-1.49,1.1-3.2,1.85-5.12,2.25
				C204.59,319.01,205,323.09,203.34,327.56z M193.17,309.94l0.87,0.37c0.87,0.37,1.81,0.2,2.81-0.49c1-0.7,1.9-2,2.71-3.9
				c0.99-2.32,1.27-4.5,0.86-6.54c-0.41-2.04-1.23-3.32-2.45-3.84l-0.24-0.1c-0.58-0.25-1.17-0.19-1.76,0.17
				c-0.59,0.36-1.05,0.93-1.38,1.7l-2.96,6.97c-0.64,1.52-0.83,2.72-0.56,3.62C191.34,308.77,192.04,309.46,193.17,309.94z"/>
			<path class="st7" d="M221,340.22c-0.84-0.25-1.15-0.73-0.94-1.43l0.06-0.2c0.15-0.5,0.77-1.05,1.86-1.64
				c1.09-0.59,1.97-1.33,2.64-2.23l15.92-20.52c0.54-0.71,0.58-1.8,0.1-3.26c-0.48-1.46-0.67-2.32-0.59-2.59l0.06-0.2
				c0.21-0.7,0.74-0.93,1.58-0.68l13.04,3.91c0.84,0.25,1.15,0.73,0.94,1.44l-0.06,0.2c-0.09,0.3-0.46,0.64-1.1,1.01
				c-0.64,0.37-1.22,0.84-1.74,1.4c-0.52,0.56-0.73,1.24-0.64,2.03l3,26.42c0.12,1.06,0.46,2.14,1.03,3.24
				c0.56,1.1,0.77,1.92,0.61,2.46l-0.06,0.2c-0.21,0.7-0.74,0.93-1.58,0.68l-14.65-4.39c-0.84-0.25-1.15-0.73-0.94-1.43l0.06-0.2
				c0.1-0.34,0.36-0.64,0.79-0.91c0.43-0.27,0.86-0.5,1.3-0.68c0.44-0.18,0.83-0.48,1.18-0.91c0.35-0.43,0.51-0.95,0.48-1.58
				l-0.11-2.56l-11.78-3.53l-1.5,2.07c-0.37,0.51-0.53,1.04-0.48,1.59c0.05,0.55,0.22,1.01,0.48,1.41c0.27,0.39,0.5,0.82,0.71,1.28
				c0.21,0.47,0.26,0.87,0.16,1.2l-0.06,0.2c-0.21,0.7-0.74,0.93-1.58,0.68L221,340.22z M234.24,330.47l8.86,2.66l-0.51-14.03
				L234.24,330.47z"/>
			<path class="st7" d="M309.7,341.88c0.86,0.16,1.22,0.6,1.09,1.33l-0.04,0.21c-0.08,0.45-0.61,1.07-1.58,1.87
				c-0.97,0.8-1.54,1.66-1.71,2.59l-2.22,11.83c-0.08,0.41-0.28,0.75-0.62,1.01c-0.33,0.26-0.71,0.35-1.12,0.27
				c-0.65-0.12-1.17-0.43-1.54-0.93l-1.86-2.65c-1.3,0.65-2.83,1.07-4.6,1.28c-1.77,0.2-3.37,0.17-4.82-0.1
				c-5.68-1.07-9.83-3.74-12.45-8.03c-2.62-4.29-3.44-9.05-2.46-14.28c0.71-3.79,2.22-6.98,4.52-9.58c2.3-2.6,4.9-4.38,7.79-5.33
				c2.89-0.96,5.78-1.16,8.67-0.62c4.44,0.83,7.96,2.41,10.56,4.73c2.59,2.32,3.63,4.9,3.1,7.72c-0.26,1.41-0.9,2.47-1.9,3.17
				c-1.01,0.7-2.21,0.92-3.63,0.66c-1.65-0.31-3.05-1.12-4.19-2.44c-1.14-1.32-1.97-2.68-2.47-4.07c-0.5-1.39-1.17-2.72-1.98-3.98
				c-0.82-1.26-1.76-1.99-2.83-2.19c-1.45-0.27-2.72,0.23-3.81,1.51c-1.09,1.27-1.85,3.05-2.28,5.32
				c-0.94,5.03-0.67,9.53,0.81,13.49c1.48,3.97,3.76,6.24,6.83,6.81c0.62,0.12,1.15,0.16,1.58,0.14l1.06-5.63
				c0.17-0.93-0.11-1.95-0.84-3.07c-0.73-1.12-1.06-1.9-0.98-2.35l0.04-0.21c0.06-0.31,0.24-0.54,0.56-0.7
				c0.31-0.15,0.68-0.19,1.09-0.11L309.7,341.88z"/>
			<path class="st7" d="M362.28,360.16c-0.07,0.98-0.01,1.73,0.18,2.25c0.19,0.52,0.42,0.82,0.7,0.89c0.28,0.07,0.52,0.23,0.73,0.48
				c0.21,0.24,0.3,0.61,0.26,1.1c-0.09,1.26-2.13,1.74-6.11,1.45c-1.89-0.14-3.21-0.58-3.96-1.32c-0.75-0.74-1.13-2.06-1.13-3.96
				c-2.07,3.26-5.81,4.69-11.22,4.29c-3.98-0.29-7.07-1.75-9.24-4.37c-2.18-2.62-3.11-6.18-2.78-10.69l1.18-16.2
				c0.07-0.94-0.22-1.9-0.87-2.88c-0.65-0.98-0.96-1.66-0.93-2.04l0.02-0.21c0.02-0.31,0.17-0.59,0.43-0.84
				c0.26-0.24,0.59-0.37,0.98-0.38l9.31-0.48c1.87-0.08,2.76,0.4,2.69,1.41l-1.97,24.05c-0.24,2.76,0.06,4.92,0.9,6.49
				c0.83,1.57,2.05,2.42,3.66,2.53c2.27,0.17,3.99-0.57,5.17-2.21c1.17-1.63,1.86-3.76,2.05-6.38l1.27-17.4
				c0.07-0.94-0.31-1.91-1.13-2.9c-0.82-0.99-1.22-1.68-1.19-2.06l0.01-0.21c0.02-0.28,0.24-0.54,0.66-0.77
				c0.42-0.23,0.84-0.37,1.27-0.41l8.79-0.52c1.73-0.08,2.55,0.38,2.48,1.39L362.28,360.16z"/>
			<path class="st7" d="M385.99,366.59c-0.88,0.03-1.33-0.32-1.35-1.06l-0.01-0.21c-0.02-0.46,0.32-1.18,1-2.16
				c0.68-0.99,1.01-1.95,0.98-2.9l-0.85-24.69c-0.03-0.95-0.42-1.89-1.17-2.83c-0.75-0.94-1.13-1.63-1.15-2.09l-0.01-0.21
				c-0.03-0.73,0.4-1.12,1.28-1.15l24.48-0.84c0.63-0.02,1.09,0.09,1.38,0.35c0.29,0.25,0.5,0.69,0.62,1.32l1.5,7
				c0.09,0.49,0,0.89-0.27,1.19c-0.27,0.31-0.65,0.47-1.14,0.49l-0.32,0.01c-0.74,0.03-1.48-0.28-2.24-0.92
				c-0.76-0.64-1.42-1.35-1.99-2.11c-0.57-0.77-1.29-1.47-2.15-2.11c-0.86-0.64-1.73-0.94-2.61-0.91l-2.94,0.1
				c-1.75,0.06-2.59,1-2.53,2.82l0.33,9.56l4.46-0.15c0.7-0.03,1.31-0.28,1.82-0.77c0.51-0.49,0.88-1.02,1.13-1.59
				c0.24-0.57,0.53-1.1,0.87-1.58c0.33-0.49,0.68-0.73,1.03-0.74l0.53-0.02c0.73-0.03,1.12,0.4,1.15,1.28l0.35,10.24
				c0.03,0.87-0.32,1.32-1.06,1.35l-0.53,0.02c-0.35,0.01-0.71-0.2-1.07-0.62c-0.37-0.42-0.69-0.9-0.97-1.44
				c-0.28-0.53-0.69-1.01-1.23-1.43c-0.54-0.42-1.16-0.62-1.86-0.59l-4.46,0.15l0.29,8.61c0.04,1.12,0.34,2.09,0.92,2.92
				c0.57,0.82,1.47,1.21,2.7,1.17l3.78-0.13c0.87-0.03,1.68-0.41,2.43-1.14c0.75-0.73,1.34-1.53,1.78-2.4c0.44-0.87,1-1.67,1.68-2.4
				c0.68-0.72,1.4-1.1,2.17-1.13l0.53-0.02c0.45-0.02,0.8,0.16,1.04,0.52c0.24,0.36,0.33,0.75,0.28,1.17l-0.91,7.29
				c-0.08,0.67-0.26,1.15-0.53,1.44c-0.27,0.29-0.72,0.45-1.35,0.47L385.99,366.59z"/>
			<path class="st7" d="M486.76,343.9c0.38-0.07,0.7-0.01,0.95,0.2c0.25,0.2,0.38,0.5,0.38,0.89l-0.07,9
				c-0.01,0.89-0.36,1.4-1.05,1.54l-25.72,4.83c-0.38,0.07-0.74,0.01-1.08-0.2c-0.34-0.2-0.54-0.48-0.61-0.82l-0.15-0.78
				c-0.39-2.07-0.18-4.21,0.64-6.43c0.81-2.22,1.91-4.29,3.3-6.21c1.39-1.92,2.77-3.8,4.15-5.65c1.38-1.85,2.51-3.71,3.39-5.61
				c0.87-1.89,1.17-3.61,0.87-5.16c-0.3-1.62-0.85-2.85-1.63-3.7c-0.78-0.85-1.62-1.19-2.52-1.03c-0.69,0.13-1.17,0.77-1.46,1.93
				c-0.28,1.16-0.47,2.4-0.56,3.71c-0.09,1.32-0.53,2.6-1.31,3.85c-0.78,1.25-1.96,2.03-3.55,2.32c-1.45,0.27-2.73,0.07-3.86-0.61
				c-1.13-0.68-1.83-1.78-2.12-3.29c-0.5-2.69,0.46-5.17,2.91-7.44c2.44-2.28,5.61-3.78,9.5-4.51c4.48-0.84,8.15-0.68,11.03,0.5
				c2.88,1.17,4.65,3.55,5.32,7.13c0.36,1.93,0.15,3.79-0.63,5.6c-0.78,1.81-1.9,3.44-3.36,4.91c-1.45,1.47-2.95,2.86-4.48,4.18
				c-1.53,1.32-2.94,2.71-4.22,4.16c-1.28,1.45-2.08,2.83-2.4,4.14l12.24-2.3c0.96-0.18,1.76-0.54,2.39-1.07
				c0.63-0.53,1.05-1.07,1.25-1.63c0.2-0.55,0.44-1.06,0.73-1.53c0.29-0.47,0.6-0.73,0.95-0.79L486.76,343.9z"/>
			<path class="st7" d="M526.36,345.81c-4.7,1.41-9.16,0.94-13.4-1.41c-4.23-2.35-7.17-6.25-8.8-11.68
				c-1.67-5.57-1.49-10.52,0.54-14.86c2.03-4.34,5.57-7.27,10.64-8.79c4.76-1.43,9.29-0.9,13.56,1.58
				c4.28,2.49,7.24,6.48,8.89,11.99c1.62,5.4,1.28,10.27-1.03,14.6C534.46,341.56,530.99,344.42,526.36,345.81z M526.75,341.63
				c2.58-0.78,2.91-4.4,0.96-10.88c-0.88-2.92-1.99-5.74-3.33-8.47c-1.35-2.72-2.88-4.99-4.59-6.8c-1.71-1.81-3.27-2.5-4.68-2.08
				c-2.62,0.79-2.84,4.8-0.66,12.05c1.39,4.63,3.28,8.64,5.66,12.02S524.7,342.25,526.75,341.63z"/>
			<path class="st7" d="M584.8,311.34c0.35-0.15,0.68-0.15,0.97-0.01c0.29,0.14,0.48,0.41,0.56,0.79l1.82,8.81
				c0.18,0.88-0.06,1.45-0.7,1.72l-24.14,10.12c-0.36,0.15-0.72,0.16-1.1,0.03c-0.38-0.13-0.63-0.35-0.77-0.68l-0.31-0.73
				c-0.81-1.94-1.06-4.08-0.73-6.42c0.33-2.34,0.97-4.6,1.92-6.76c0.95-2.16,1.91-4.3,2.88-6.39c0.96-2.09,1.68-4.16,2.13-6.19
				c0.46-2.04,0.38-3.78-0.23-5.23c-0.64-1.52-1.43-2.61-2.37-3.28c-0.95-0.67-1.84-0.83-2.68-0.47c-0.65,0.27-0.99,1-1.02,2.19
				c-0.03,1.19,0.04,2.44,0.23,3.75c0.19,1.31,0.03,2.66-0.47,4.04c-0.5,1.39-1.49,2.39-2.98,3.02c-1.36,0.57-2.66,0.64-3.9,0.21
				c-1.24-0.43-2.16-1.35-2.76-2.78c-1.06-2.52-0.63-5.15,1.28-7.89c1.91-2.74,4.69-4.87,8.34-6.41c4.2-1.76,7.83-2.37,10.89-1.83
				c3.06,0.54,5.29,2.49,6.7,5.85c0.76,1.81,0.94,3.68,0.56,5.61c-0.39,1.93-1.14,3.77-2.25,5.5c-1.11,1.74-2.28,3.42-3.5,5.03
				s-2.31,3.27-3.25,4.95c-0.94,1.69-1.44,3.21-1.48,4.55l11.49-4.82c0.9-0.38,1.61-0.89,2.12-1.54c0.51-0.65,0.8-1.26,0.88-1.85
				c0.08-0.58,0.21-1.13,0.39-1.65c0.18-0.51,0.44-0.84,0.76-0.97L584.8,311.34z"/>
			<path class="st7" d="M623.91,304.89c-4.3,2.37-8.76,2.85-13.4,1.44c-4.64-1.41-8.32-4.6-11.06-9.57c-2.8-5.1-3.67-9.98-2.6-14.65
				c1.07-4.67,3.92-8.28,8.56-10.83c4.36-2.4,8.89-2.83,13.59-1.3c4.7,1.53,8.44,4.81,11.21,9.85c2.72,4.94,3.41,9.77,2.07,14.49
				C630.93,299.04,628.14,302.56,623.91,304.89z M623.41,300.73c2.36-1.3,1.91-4.91-1.35-10.84c-1.47-2.67-3.15-5.2-5.04-7.58
				c-1.89-2.38-3.86-4.27-5.92-5.68c-2.06-1.41-3.73-1.76-5.02-1.05c-2.39,1.32-1.77,5.29,1.88,11.92
				c2.33,4.24,5.02,7.76,8.06,10.56C619.08,300.87,621.54,301.76,623.41,300.73z"/>
		</g>
		<g>
			<path class="st7" d="M413.02,88.6h-61.86c-1.85,0-3.49-1.18-4.08-2.93l-20.61-61.33c-0.56-1.66-0.06-3.48,1.26-4.63
				c1.32-1.14,3.2-1.37,4.76-0.59L358.9,32.4l19.56-30.55c1.58-2.47,5.67-2.47,7.25,0l19.56,30.55l26.42-13.28
				c1.56-0.78,3.44-0.55,4.76,0.59c1.32,1.14,1.82,2.97,1.26,4.63L417.1,85.67C416.51,87.42,414.87,88.6,413.02,88.6z M354.25,79.99
				h55.67l16.29-48.47l-20.53,10.33c-1.97,0.99-4.37,0.33-5.56-1.53l-18.03-28.16l-18.03,28.16c-1.19,1.86-3.59,2.51-5.56,1.53
				l-20.53-10.33L354.25,79.99z"/>
		</g>
		<g>
			<path class="st7" d="M415.89,72.46h-67.6c-2.38,0-4.31-1.93-4.31-4.31c0-2.38,1.93-4.31,4.31-4.31h67.6
				c2.38,0,4.31,1.93,4.31,4.31C420.19,70.53,418.27,72.46,415.89,72.46z"/>
		</g>
		<g>
			<path class="st7" d="M607.69,146.79c-3.22,0-6.43-0.25-9.63-0.74c-1.55-0.24-2.85-1.31-3.39-2.78l-4.24-11.68
				c-1.25-0.46-2.5-0.99-3.75-1.57l-11.26,5.26c-1.42,0.66-3.09,0.5-4.36-0.42c-5.23-3.82-9.82-8.41-13.63-13.63
				c-0.92-1.27-1.09-2.94-0.42-4.36l5.26-11.26c-0.58-1.25-1.1-2.5-1.57-3.75l-11.67-4.24c-1.48-0.54-2.54-1.83-2.79-3.39
				c-0.99-6.39-0.99-12.87,0-19.26c0.24-1.55,1.31-2.85,2.78-3.39l11.67-4.24c0.46-1.25,0.99-2.5,1.57-3.75L557,52.33
				c-0.66-1.42-0.5-3.09,0.42-4.36c3.81-5.22,8.4-9.81,13.63-13.63c1.27-0.93,2.94-1.09,4.36-0.42l11.26,5.26
				c1.24-0.58,2.5-1.1,3.75-1.57l4.24-11.68c0.54-1.47,1.83-2.54,3.39-2.78c6.39-0.99,12.87-0.99,19.26,0
				c1.55,0.24,2.85,1.31,3.39,2.78l4.24,11.68c1.25,0.46,2.5,0.99,3.75,1.57l11.26-5.26c1.42-0.66,3.09-0.5,4.36,0.42
				c5.23,3.82,9.82,8.41,13.63,13.63c0.92,1.27,1.09,2.94,0.42,4.36l-5.26,11.26c0.58,1.24,1.1,2.5,1.57,3.75l11.68,4.24
				c1.48,0.54,2.54,1.83,2.78,3.39c0.99,6.39,0.99,12.87,0,19.26c-0.24,1.55-1.31,2.85-2.79,3.39l-11.68,4.24
				c-0.46,1.25-0.99,2.5-1.57,3.75l5.26,11.26c0.66,1.42,0.5,3.09-0.42,4.36c-3.81,5.22-8.4,9.81-13.63,13.63
				c-1.27,0.93-2.94,1.08-4.36,0.42l-11.26-5.26c-1.24,0.58-2.5,1.1-3.75,1.57l-4.24,11.68c-0.54,1.48-1.83,2.54-3.39,2.79
				C614.12,146.54,610.9,146.79,607.69,146.79z M601.87,137.87c3.87,0.42,7.76,0.42,11.63,0l4.05-11.15
				c0.46-1.25,1.47-2.23,2.74-2.63c2.11-0.67,4.25-1.57,6.38-2.66c1.19-0.61,2.59-0.64,3.8-0.08l10.76,5.03
				c3.04-2.44,5.79-5.2,8.23-8.23l-5.03-10.76c-0.56-1.21-0.54-2.61,0.08-3.8c1.1-2.12,1.99-4.26,2.67-6.38
				c0.41-1.27,1.38-2.28,2.63-2.74l11.15-4.05c0.42-3.87,0.42-7.76,0-11.63l-11.15-4.05c-1.25-0.46-2.23-1.47-2.63-2.74
				c-0.67-2.11-1.57-4.26-2.67-6.38c-0.61-1.19-0.64-2.59-0.08-3.8l5.03-10.76c-2.44-3.03-5.19-5.79-8.23-8.23l-10.76,5.03
				c-1.21,0.56-2.61,0.54-3.8-0.08c-2.12-1.1-4.27-1.99-6.38-2.66c-1.27-0.41-2.28-1.38-2.74-2.63l-4.05-11.15
				c-3.87-0.42-7.76-0.42-11.63,0l-4.05,11.15c-0.46,1.25-1.47,2.22-2.74,2.63c-2.11,0.67-4.26,1.57-6.38,2.66
				c-1.19,0.62-2.59,0.64-3.8,0.08l-10.76-5.03c-3.04,2.44-5.79,5.2-8.23,8.23l5.03,10.76c0.56,1.21,0.54,2.61-0.08,3.8
				c-1.1,2.13-2,4.27-2.66,6.38c-0.41,1.27-1.38,2.28-2.63,2.74l-11.15,4.05c-0.42,3.87-0.42,7.76,0,11.63l11.15,4.05
				c1.26,0.46,2.23,1.47,2.63,2.74c0.67,2.1,1.57,4.25,2.66,6.38c0.61,1.19,0.64,2.59,0.08,3.8l-5.03,10.76
				c2.44,3.03,5.19,5.79,8.23,8.23l10.76-5.03c1.21-0.56,2.61-0.54,3.8,0.08c2.12,1.1,4.27,1.99,6.38,2.66
				c1.27,0.41,2.28,1.38,2.74,2.63L601.87,137.87z M607.69,110.4c-14.23,0-25.8-11.57-25.8-25.8c0-14.23,11.57-25.8,25.8-25.8
				s25.8,11.57,25.8,25.8C633.48,98.82,621.91,110.4,607.69,110.4z M607.69,67.41c-9.48,0-17.19,7.71-17.19,17.19
				c0,9.48,7.71,17.19,17.19,17.19s17.19-7.71,17.19-17.19C624.87,75.12,617.16,67.41,607.69,67.41z"/>
		</g>
		<g>
			<g>
				<path class="st7" d="M158.21,141.21c-32.35,0-58.68-26.32-58.68-58.67c0-32.35,26.32-58.68,58.68-58.68
					c32.35,0,58.67,26.32,58.67,58.68C216.89,114.89,190.57,141.21,158.21,141.21z M158.21,32.47c-27.6,0-50.06,22.46-50.06,50.06
					s22.46,50.06,50.06,50.06s50.06-22.46,50.06-50.06S185.82,32.47,158.21,32.47z"/>
			</g>
			<g>
				<path class="st7" d="M158.22,141.21c-1.61,0-3.16-0.91-3.89-2.46c-1.02-2.15-0.11-4.72,2.04-5.74
					c17.68-8.4,29.1-28.22,29.1-50.48c0-22.26-11.42-42.07-29.09-50.47c-2.15-1.02-3.06-3.59-2.04-5.74s3.59-3.06,5.74-2.04
					c20.66,9.82,34.01,32.69,34.01,58.25c0,25.57-13.35,48.44-34.02,58.26C159.47,141.07,158.84,141.21,158.22,141.21z"/>
			</g>
			<g>
				<path class="st7" d="M158.21,141.21c-0.63,0-1.26-0.14-1.85-0.42c-20.67-9.82-34.02-32.69-34.02-58.26
					c0-25.56,13.35-48.43,34.01-58.25c1.33-0.64,2.9-0.54,4.15,0.25c1.25,0.79,2.01,2.16,2.01,3.64l0.01,108.73
					c0,1.48-0.76,2.85-2.01,3.64C159.81,140.98,159.02,141.21,158.21,141.21z M153.9,35.61c-14.12,9.7-22.94,27.37-22.94,46.92
					c0,19.56,8.82,37.23,22.95,46.93L153.9,35.61z"/>
			</g>
			<g>
				<path class="st7" d="M207.99,68.9H107.47c-2.38,0-4.31-1.93-4.31-4.31c0-2.38,1.93-4.31,4.31-4.31h100.52
					c2.38,0,4.31,1.93,4.31,4.31C212.3,66.97,210.37,68.9,207.99,68.9z"/>
			</g>
			<g>
				<path class="st7" d="M207.99,105.32H107.47c-2.38,0-4.31-1.93-4.31-4.31s1.93-4.31,4.31-4.31h100.52c2.38,0,4.31,1.93,4.31,4.31
					S210.37,105.32,207.99,105.32z"/>
			</g>
		</g>
	</g>
</g>
</svg>
