%!Adobe-FontList 1.22
%Locale:0x409

%BeginFont
Handler:DirectoryHandler
FontType:Invalid
OutlineFileName:/Users/lukebabb/GitLab Repos/corporate-marketing/design/publications/white-paper/scaled-ci-cd/_artwork/_translations/french/scaled-ci-cd-white-paper-french Folder/Document fonts/AdobeFnt22.lst
FileLength:3551
FileModTime:628725381
%EndFont

%BeginFont
Handler:DirectoryHandler
FontType:TrueType
FontName:SourceSansPro-Bold
FamilyName:Source Sans Pro
StyleName:Bold
MenuName:Source Sans Pro
StyleBits:2
WeightClass:700
WidthClass:5
AngleClass:0
FullName:Source Sans Pro Bold
WritingScript:Roman
OutlineFileName:/Users/lukebabb/GitLab Repos/corporate-marketing/design/publications/white-paper/scaled-ci-cd/_artwork/_translations/french/scaled-ci-cd-white-paper-french Folder/Document fonts/SourceSansPro-Bold.ttf
DataFormat:sfntData
hasSVG:no
VariableFontType:NonVariableFont
FileLength:290916
FileModTime:365410800
DesignSize:100
NameArray:0,Mac,4,Source Sans Pro Bold
NameArray:0,Win,1,Source Sans Pro
%EndFont

%BeginFont
Handler:DirectoryHandler
FontType:TrueType
FontName:SourceSansPro-Italic
FamilyName:Source Sans Pro
StyleName:Italic
MenuName:Source Sans Pro
StyleBits:1
WeightClass:400
WidthClass:5
AngleClass:1
FullName:Source Sans Pro Italic
WritingScript:Roman
OutlineFileName:/Users/lukebabb/GitLab Repos/corporate-marketing/design/publications/white-paper/scaled-ci-cd/_artwork/_translations/french/scaled-ci-cd-white-paper-french Folder/Document fonts/SourceSansPro-Italic.ttf
DataFormat:sfntData
hasSVG:no
VariableFontType:NonVariableFont
FileLength:103828
FileModTime:365410800
DesignSize:100
NameArray:0,Mac,4,Source Sans Pro Italic
NameArray:0,Win,1,Source Sans Pro
%EndFont

%BeginFont
Handler:DirectoryHandler
FontType:TrueType
FontName:SourceSansPro-Regular
FamilyName:Source Sans Pro
StyleName:Regular
MenuName:Source Sans Pro
StyleBits:0
WeightClass:400
WidthClass:5
AngleClass:0
FullName:Source Sans Pro Regular
WritingScript:Roman
OutlineFileName:/Users/lukebabb/GitLab Repos/corporate-marketing/design/publications/white-paper/scaled-ci-cd/_artwork/_translations/french/scaled-ci-cd-white-paper-french Folder/Document fonts/SourceSansPro-Regular.ttf
DataFormat:sfntData
hasSVG:no
VariableFontType:NonVariableFont
FileLength:293516
FileModTime:365410800
DesignSize:100
NameArray:0,Mac,4,Source Sans Pro Regular
NameArray:0,Win,1,Source Sans Pro
%EndFont

%BeginFont
Handler:DirectoryHandler
FontType:TrueType
FontName:SourceSansPro-SemiBold
FamilyName:Source Sans Pro
StyleName:SemiBold
MenuName:Source Sans Pro SemiBold
StyleBits:0
WeightClass:600
WidthClass:5
AngleClass:0
FullName:Source Sans Pro SemiBold
WritingScript:Roman
OutlineFileName:/Users/lukebabb/GitLab Repos/corporate-marketing/design/publications/white-paper/scaled-ci-cd/_artwork/_translations/french/scaled-ci-cd-white-paper-french Folder/Document fonts/SourceSansPro-SemiBold.ttf
DataFormat:sfntData
hasSVG:no
VariableFontType:NonVariableFont
FileLength:291864
FileModTime:365410800
DesignSize:100
NameArray:0,Mac,4,Source Sans Pro SemiBold
NameArray:0,Win,1,Source Sans Pro SemiBold
NameArray:0,Win,16,Source Sans Pro
%EndFont

%BeginFont
Handler:DirectoryHandler
FontType:Type1
FontName:SourceSansVariable-Roman
FamilyName:Source Sans Variable
StyleName:Roman
MenuName:Source Sans Variable
StyleBits:0
WeightClass:200
WidthClass:5
AngleClass:0
FullName:Source Sans Variable
WritingScript:Roman
OutlineFileName:/Users/lukebabb/GitLab Repos/corporate-marketing/design/publications/white-paper/scaled-ci-cd/_artwork/_translations/french/scaled-ci-cd-white-paper-french Folder/Document fonts/SourceSansVariable-Roman.otf
DataFormat:sfntData
UsesStandardEncoding:yes
isCFF:yes
hasSVG:no
VariableFontType:CFF2VariableFont
FileLength:414588
FileModTime:628619322
DesignSize:100
NameArray:0,Mac,4,Source Sans Variable
NameArray:0,Win,1,Source Sans Variable
%EndFont

