<?xml version="1.0" encoding="utf-8"?>
<!-- Generator: Adobe Illustrator 23.0.1, SVG Export Plug-In . SVG Version: 6.00 Build 0)  -->
<svg version="1.1" id="Layer_1" xmlns="http://www.w3.org/2000/svg" xmlns:xlink="http://www.w3.org/1999/xlink" x="0px" y="0px"
	 viewBox="0 0 373.277 90" style="enable-background:new 0 0 373.277 90;" xml:space="preserve">
<style type="text/css">
	.st0{fill:#292B68;}
	.st1{fill:#F6BC35;}
	.st2{fill:#FFFFFF;}
</style>
<g>
	<g>
		<g>
			<path class="st0" d="M116.401,62.902l-10.693-32.254h7.071l6.503,21.691l7.331-21.691h4.103l7.464,21.691l6.415-21.691h7.071
				l-10.649,32.254h-5.456l-6.853-21.125l-6.853,21.125H116.401z"/>
			<path class="st0" d="M154.448,62.902v-33.17h5.98v12.482c1.266-2.138,4.146-3.752,7.506-3.752c2.576,0,4.758,0.872,6.547,2.575
				c1.79,1.702,2.707,4.146,2.707,7.333v14.533h-6.155V50.027c0-3.798-1.964-5.892-4.976-5.892c-3.272,0-5.454,2.488-5.454,6.023
				v12.745H154.448z"/>
			<path class="st0" d="M180.737,35.361c-1.441-1.439-1.441-3.971,0-5.368c1.441-1.441,3.973-1.441,5.412,0
				c1.441,1.397,1.441,3.929,0,5.368C184.709,36.802,182.178,36.802,180.737,35.361z"/>
			<rect x="180.376" y="39.115" class="st0" width="6.154" height="23.787"/>
			<path class="st0" d="M209.046,61.506c-1.964,1.31-4.277,1.964-7.027,1.964c-5.456,0-8.292-3.229-8.292-9.383v-9.821h-3.884v-5.15
				h3.927v-8.423h6.111v8.423h7.856v5.15h-7.856v9.427c0,2.793,1.135,4.19,3.36,4.19c1.179,0,2.532-0.392,3.973-1.222
				L209.046,61.506z"/>
			<path class="st0" d="M234.563,53.17h-17.851c0.872,3.36,3.185,5.062,6.939,5.062c2.576,0,5.631-1.003,7.682-2.4l2.444,4.321
				c-3.012,2.182-6.459,3.274-10.388,3.274c-4.19,0-7.377-1.223-9.602-3.623c-2.226-2.401-3.318-5.368-3.318-8.816
				c0-3.623,1.135-6.591,3.448-8.948c2.313-2.356,5.281-3.535,8.947-3.535c3.448,0,6.328,1.091,8.555,3.229
				c2.226,2.14,3.36,5.02,3.36,8.729C234.78,51.293,234.693,52.209,234.563,53.17z M216.712,48.586h12.09
				c-0.567-3.099-2.793-4.976-5.936-4.976C219.766,43.61,217.453,45.487,216.712,48.586z"/>
			<path class="st0" d="M237.564,56.705l2.138-1.441c1.615,3.535,4.582,5.631,8.38,5.631c2.182,0,3.971-0.611,5.325-1.79
				c1.353-1.178,2.05-2.661,2.05-4.451c0-2.488-1.439-4.102-4.233-5.499c-0.611-0.305-1.702-0.83-3.318-1.529
				c-1.571-0.698-2.619-1.178-3.185-1.483c-3.667-1.833-5.5-4.409-5.5-7.681c0-2.401,0.83-4.409,2.532-5.98
				c1.702-1.615,3.971-2.4,6.72-2.4c3.842,0,6.897,1.614,9.123,4.801l-2.008,1.614c-1.834-2.619-4.19-3.929-7.071-3.929
				c-3.796,0-6.503,2.314-6.503,5.761c0,2.226,1.31,4.015,3.884,5.369c0.567,0.305,1.746,0.872,3.535,1.658
				c1.79,0.786,3.012,1.353,3.667,1.702c3.447,1.877,5.193,4.365,5.193,7.508c0,2.619-0.96,4.757-2.924,6.415
				c-1.921,1.615-4.321,2.445-7.202,2.445C243.631,63.426,239.528,61.113,237.564,56.705z"/>
			<path class="st0" d="M264.009,42.519c2.313-2.356,5.194-3.535,8.685-3.535c3.492,0,6.372,1.179,8.685,3.535
				c2.314,2.357,3.448,5.239,3.448,8.685c0,3.448-1.134,6.372-3.448,8.729c-2.313,2.357-5.193,3.535-8.685,3.535
				c-3.491,0-6.372-1.178-8.685-3.535c-2.313-2.357-3.447-5.281-3.447-8.729C260.562,47.758,261.696,44.876,264.009,42.519z
				 M279.504,58.232c1.789-1.921,2.705-4.277,2.705-7.027c0-2.749-0.916-5.106-2.705-6.983c-1.79-1.877-4.059-2.836-6.81-2.836
				c-2.705,0-4.976,0.959-6.809,2.88c-1.789,1.877-2.705,4.19-2.705,6.939c0,2.751,0.916,5.106,2.705,7.027
				c1.833,1.877,4.103,2.837,6.809,2.837C275.445,61.069,277.714,60.109,279.504,58.232z"/>
			<path class="st0" d="M289.853,60.851c-1.702-1.789-2.576-4.146-2.576-7.07V39.551h2.62v14.185c0,4.495,2.661,7.289,6.895,7.289
				c4.365,0,6.939-2.793,6.939-7.333V39.551h2.62v14.229c0,5.936-3.623,9.688-9.559,9.688
				C293.912,63.469,291.599,62.597,289.853,60.851z"/>
			<path class="st0" d="M310.339,62.902V39.551h2.488v3.754c1.266-2.924,3.492-4.365,6.766-4.365c0.916,0,1.877,0.132,2.88,0.394
				l-0.305,2.488c-0.828-0.261-1.658-0.394-2.488-0.394c-4.233,0-6.72,3.318-6.72,8.163v13.312H310.339z"/>
			<path class="st0" d="M326.66,60.022c-2.226-2.314-3.362-5.239-3.362-8.773c0-3.579,1.135-6.503,3.404-8.816
				c2.313-2.313,5.239-3.448,8.773-3.448c4.582,0,8.641,2.313,10.432,6.023l-2.14,1.222c-1.57-2.967-4.757-4.844-8.292-4.844
				c-2.749,0-5.064,0.916-6.853,2.793c-1.789,1.833-2.707,4.19-2.707,7.07c0,2.837,0.874,5.194,2.62,7.027
				c1.745,1.833,3.971,2.749,6.678,2.749c3.535,0,6.895-2.008,8.423-4.845l2.138,1.31c-0.916,1.789-2.356,3.229-4.277,4.321
				c-1.921,1.091-4.015,1.615-6.284,1.615C331.767,63.426,328.885,62.291,326.66,60.022z"/>
			<path class="st0" d="M370.737,52.253h-19.64c0.392,5.193,3.754,8.728,9.471,8.728c3.011,0,6.459-1.091,8.555-2.793l1.222,2.008
				c-2.27,1.79-5.98,3.231-9.821,3.231c-8.597,0-12.134-6.155-12.134-12.264c0-3.536,1.049-6.416,3.187-8.729
				c2.138-2.313,4.932-3.448,8.424-3.448c3.141,0,5.717,1.005,7.768,3.055c2.052,2.009,3.099,4.714,3.099,8.163
				C370.868,50.507,370.825,51.205,370.737,52.253z M351.097,49.852h17.065c-0.044-5.193-3.404-8.467-8.161-8.467
				C355.112,41.385,351.621,44.746,351.097,49.852z"/>
		</g>
	</g>
	<g>
		<g>
			
				<ellipse transform="matrix(0.9969 -0.0783 0.0783 0.9969 -3.3887 3.6773)" class="st0" cx="45.189" cy="45.043" rx="43.634" ry="43.634"/>
		</g>
		<path class="st1" d="M64.844,40.784c-0.13,0.591,1.567-15.07-10.526-20.895l0,17.763h-2.672l0-21.435h-6.442h-0.03l-6.416,0
			l0,21.435h-2.697l0-17.763C22.74,26.306,25.535,40.784,25.535,40.784h-2.922l0,4.13l22.562,0h0.03l22.562,0l0-4.13H64.844z"/>
		<g>
			<path class="st2" d="M67.766,57.186l0-8.407l-12.939,0l0,0.303v1.919c0,5.301-4.337,9.638-9.638,9.638
				c-5.301,0-9.638-4.337-9.638-9.638l0-1.919v-0.303l-12.939,0l0,8.407h5.255l1.692,3.775l-3.547,3.128l6.492,6.903l3.71-3.739
				l4.019,1.726l0,4.89h9.911l0-4.89l4.019-1.726l3.71,3.739l6.492-6.903l-3.547-3.128l1.692-3.775L67.766,57.186z"/>
			<path class="st2" d="M54.827,49.082l0-0.303h-0.013C54.816,48.88,54.827,48.979,54.827,49.082z"/>
			<path class="st2" d="M35.565,48.778h-0.013v0.303C35.551,48.979,35.562,48.88,35.565,48.778z"/>
		</g>
	</g>
</g>
</svg>
