%!Adobe-FontList 1.22
%Locale:0x409

%BeginFont
Handler:DirectoryHandler
FontType:Invalid
OutlineFileName:/Users/monicagalletto/Documents/corporate-marketing/design/publications/e-books/gitops-kubernetes-gitlab/_artwork/Document fonts/AdobeFnt21.lst
FileLength:37
FileModTime:611504006
%EndFont

%BeginFont
Handler:DirectoryHandler
FontType:Invalid
OutlineFileName:/Users/monicagalletto/Documents/corporate-marketing/design/publications/e-books/gitops-kubernetes-gitlab/_artwork/Document fonts/AdobeFnt22.lst
FileLength:5105
FileModTime:624464281
%EndFont

%BeginFont
Handler:DirectoryHandler
FontType:TrueType
FontName:AppleColorEmoji
FamilyName:Apple Color Emoji
StyleName:Regular
MenuName:Apple Color Emoji
StyleBits:0
WeightClass:400
WidthClass:5
AngleClass:0
FullName:Apple Color Emoji
WritingScript:Emoji
OutlineFileName:/Users/monicagalletto/Documents/corporate-marketing/design/publications/e-books/gitops-kubernetes-gitlab/_artwork/Document fonts/Apple Color Emoji.ttc
TTCOffset:32
DataFormat:sfntData
hasSVG:no
VariableFontType:NonVariableFont
FileLength:159972324
FileModTime:576381465
NameArray:0,Mac,4,Apple Color Emoji
%EndFont

%BeginFont
Handler:DirectoryHandler
FontType:Type1
FontName:MinionPro-Regular
FamilyName:Minion Pro
StyleName:Regular
MenuName:Minion Pro
StyleBits:0
WeightClass:400
WidthClass:5
AngleClass:0
FullName:Minion Pro
WritingScript:Roman
OutlineFileName:/Users/monicagalletto/Documents/corporate-marketing/design/publications/e-books/gitops-kubernetes-gitlab/_artwork/Document fonts/MinionPro-Regular.otf
DataFormat:sfntData
UsesStandardEncoding:yes
isCFF:yes
hasSVG:no
VariableFontType:NonVariableFont
FileLength:218640
FileModTime:605042773
DesignSize:110
NameArray:0,Mac,4,Minion Pro
NameArray:0,Win,1,Minion Pro
%EndFont

%BeginFont
Handler:DirectoryHandler
FontType:Type1
FontName:SourceSansPro-Bold
FamilyName:Source Sans Pro
StyleName:Bold
MenuName:Source Sans Pro
StyleBits:2
WeightClass:700
WidthClass:5
AngleClass:0
FullName:Source Sans Pro Bold
WritingScript:Roman
OutlineFileName:/Users/monicagalletto/Documents/corporate-marketing/design/publications/e-books/gitops-kubernetes-gitlab/_artwork/Document fonts/SourceSansPro-Bold.otf
DataFormat:sfntData
UsesStandardEncoding:yes
isCFF:yes
hasSVG:no
VariableFontType:NonVariableFont
FileLength:235128
FileModTime:588273524
DesignSize:100
NameArray:0,Mac,4,Source Sans Pro Bold
NameArray:0,Win,1,Source Sans Pro
%EndFont

%BeginFont
Handler:DirectoryHandler
FontType:Type1
FontName:SourceSansPro-Regular
FamilyName:Source Sans Pro
StyleName:Regular
MenuName:Source Sans Pro
StyleBits:0
WeightClass:400
WidthClass:5
AngleClass:0
FullName:Source Sans Pro
WritingScript:Roman
OutlineFileName:/Users/monicagalletto/Documents/corporate-marketing/design/publications/e-books/gitops-kubernetes-gitlab/_artwork/Document fonts/SourceSansPro-Regular.otf
DataFormat:sfntData
UsesStandardEncoding:yes
isCFF:yes
hasSVG:no
VariableFontType:NonVariableFont
FileLength:229588
FileModTime:588273524
DesignSize:100
NameArray:0,Mac,4,Source Sans Pro
NameArray:0,Win,1,Source Sans Pro
%EndFont

%BeginFont
Handler:DirectoryHandler
FontType:TrueType
FontName:SourceSansPro-SemiBold
FamilyName:Source Sans Pro
StyleName:SemiBold
MenuName:Source Sans Pro SemiBold
StyleBits:0
WeightClass:600
WidthClass:5
AngleClass:0
FullName:Source Sans Pro SemiBold
WritingScript:Roman
OutlineFileName:/Users/monicagalletto/Documents/corporate-marketing/design/publications/e-books/gitops-kubernetes-gitlab/_artwork/Document fonts/SourceSansPro-SemiBold.ttf
DataFormat:sfntData
hasSVG:no
VariableFontType:NonVariableFont
FileLength:268280
FileModTime:365400000
DesignSize:100
NameArray:0,Win,1,Source Sans Pro SemiBold
NameArray:0,Win,16,Source Sans Pro
%EndFont

%BeginFont
Handler:DirectoryHandler
FontType:Type1
FontName:SourceSansVariable-Italic
FamilyName:Source Sans Variable
StyleName:Italic
MenuName:Source Sans Variable
StyleBits:1
WeightClass:200
WidthClass:5
AngleClass:1
FullName:Source Sans Variable Italic
WritingScript:Roman
OutlineFileName:/Users/monicagalletto/Documents/corporate-marketing/design/publications/e-books/gitops-kubernetes-gitlab/_artwork/Document fonts/SourceSansVariable-Italic.otf
DataFormat:sfntData
UsesStandardEncoding:yes
isCFF:yes
hasSVG:no
VariableFontType:CFF2VariableFont
FileLength:114488
FileModTime:605042773
DesignSize:100
NameArray:0,Mac,4,Source Sans Variable Italic
NameArray:0,Win,1,Source Sans Variable
%EndFont

%BeginFont
Handler:DirectoryHandler
FontType:Type1
FontName:SourceSansVariable-Roman
FamilyName:Source Sans Variable
StyleName:Roman
MenuName:Source Sans Variable
StyleBits:0
WeightClass:200
WidthClass:5
AngleClass:0
FullName:Source Sans Variable
WritingScript:Roman
OutlineFileName:/Users/monicagalletto/Documents/corporate-marketing/design/publications/e-books/gitops-kubernetes-gitlab/_artwork/Document fonts/SourceSansVariable-Roman.otf
DataFormat:sfntData
UsesStandardEncoding:yes
isCFF:yes
hasSVG:no
VariableFontType:CFF2VariableFont
FileLength:414588
FileModTime:605042773
DesignSize:100
NameArray:0,Mac,4,Source Sans Variable
NameArray:0,Win,1,Source Sans Variable
%EndFont

