<?xml version="1.0" encoding="utf-8"?>
<!-- Generator: Adobe Illustrator 24.2.1, SVG Export Plug-In . SVG Version: 6.00 Build 0)  -->
<svg version="1.1" id="Layer_1" xmlns="http://www.w3.org/2000/svg" xmlns:xlink="http://www.w3.org/1999/xlink" x="0px" y="0px"
	 viewBox="0 0 390 195" style="enable-background:new 0 0 390 195;" xml:space="preserve">
<style type="text/css">
	.st0{display:none;fill:#3D3687;}
	.st1{fill:url(#SVGID_1_);}
	.st2{fill:#FFFFFF;}
	.st3{fill:url(#SVGID_2_);}
	.st4{opacity:0.32;}
	.st5{fill:url(#SVGID_3_);}
	.st6{fill:url(#SVGID_4_);}
	.st7{opacity:0.2;}
	.st8{fill:url(#SVGID_5_);}
	.st9{fill:url(#SVGID_6_);}
	.st10{fill:#FA6D26;}
	.st11{fill:#E04329;}
	.st12{fill:#FAA126;}
	.st13{clip-path:url(#SVGID_8_);}
	.st14{clip-path:url(#SVGID_10_);}
	.st15{filter:url(#Adobe_OpacityMaskFilter);}
	.st16{clip-path:url(#SVGID_12_);}
	.st17{clip-path:url(#SVGID_17_);}
	.st18{clip-path:url(#SVGID_19_);}
	.st19{filter:url(#Adobe_OpacityMaskFilter_1_);}
	.st20{clip-path:url(#SVGID_21_);}
	.st21{fill:#6262CC;}
	.st22{fill:#280658;}
	.st23{fill:#FCD96B;}
	.st24{fill:#DE2DEA;}
	.st25{fill:#40F4B2;}
	.st26{fill:#2E99FE;}
	.st27{fill:#F95960;}
	.st28{fill:url(#SVGID_25_);}
	.st29{fill:url(#SVGID_26_);}
	.st30{fill:url(#SVGID_27_);}
	.st31{fill:#FCA326;}
	.st32{fill:#FC6D26;}
	.st33{fill:#E24329;}
</style>
<rect x="-212.843" y="-166.412" class="st0" width="1662.439" height="995.646"/>
<g>
	<g>
		<g>
			<linearGradient id="SVGID_1_" gradientUnits="userSpaceOnUse" x1="149.7082" y1="70.1281" x2="239.0844" y2="70.1281">
				<stop  offset="0" style="stop-color:#FFFFFF;stop-opacity:0.1"/>
				<stop  offset="1" style="stop-color:#FFFFFF"/>
			</linearGradient>
			<path class="st1" d="M151.815,89.758c-0.14,0-0.282-0.014-0.424-0.043c-1.138-0.233-1.872-1.345-1.639-2.483
				c4.355-21.284,23.308-36.733,45.067-36.733c20.347,0,38.516,13.633,44.182,33.154c0.324,1.116-0.318,2.284-1.433,2.607
				c-1.116,0.325-2.283-0.317-2.607-1.433c-5.148-17.734-21.655-30.119-40.142-30.119c-19.769,0-36.988,14.033-40.944,33.368
				C153.67,89.071,152.793,89.758,151.815,89.758z"/>
		</g>
	</g>
	<g>
		<path class="st2" d="M237.805,87.68c-0.291,0-0.586-0.06-0.868-0.188l-12.964-5.884c-1.058-0.48-1.526-1.727-1.046-2.785
			c0.481-1.058,1.728-1.526,2.785-1.046l11.048,5.015l5.015-11.048c0.48-1.06,1.728-1.526,2.785-1.046
			c1.058,0.48,1.526,1.727,1.046,2.785l-5.885,12.964C239.37,87.221,238.605,87.68,237.805,87.68z"/>
	</g>
	<g>
		<g>
			<linearGradient id="SVGID_2_" gradientUnits="userSpaceOnUse" x1="150.9158" y1="124.8712" x2="240.292" y2="124.8712">
				<stop  offset="0" style="stop-color:#FFFFFF"/>
				<stop  offset="1" style="stop-color:#FFFFFF;stop-opacity:0.1"/>
			</linearGradient>
			<path class="st3" d="M195.182,144.501c-20.348,0-38.516-13.633-44.182-33.153c-0.324-1.116,0.318-2.284,1.433-2.607
				c1.116-0.324,2.283,0.317,2.607,1.433c5.148,17.734,21.655,30.119,40.142,30.119c19.769,0,36.988-14.033,40.944-33.368
				c0.233-1.138,1.343-1.872,2.483-1.639c1.138,0.233,1.872,1.345,1.639,2.483C235.894,129.052,216.94,144.501,195.182,144.501z"/>
		</g>
	</g>
	<g>
		<path class="st2" d="M146.125,124.958c-0.329,0-0.662-0.077-0.974-0.24c-1.029-0.539-1.427-1.81-0.889-2.84l6.599-12.615
			c0.538-1.029,1.81-1.427,2.84-0.889l12.615,6.598c1.029,0.539,1.427,1.81,0.889,2.84c-0.539,1.029-1.811,1.427-2.84,0.889
			l-10.751-5.623l-5.624,10.751C147.615,124.548,146.883,124.958,146.125,124.958z"/>
	</g>
	<g class="st4">
		<linearGradient id="SVGID_3_" gradientUnits="userSpaceOnUse" x1="124.1154" y1="77.6388" x2="226.1626" y2="77.6388">
			<stop  offset="0" style="stop-color:#FFFFFF"/>
			<stop  offset="1" style="stop-color:#FFFFFF;stop-opacity:0.1"/>
		</linearGradient>
		<path class="st5" d="M131.966,128.663c-0.392,0-0.769-0.221-0.95-0.599c-12.924-27.056-7.357-59.484,13.853-80.694
			c21.21-21.21,53.639-26.777,80.694-13.854c0.524,0.25,0.747,0.879,0.496,1.403c-0.25,0.524-0.878,0.746-1.402,0.496
			c-26.254-12.541-57.719-7.137-78.3,13.443c-20.581,20.581-25.983,52.047-13.443,78.3c0.251,0.524,0.028,1.152-0.496,1.402
			C132.273,128.629,132.118,128.663,131.966,128.663z"/>
	</g>
	<g class="st4">
		<linearGradient id="SVGID_4_" gradientUnits="userSpaceOnUse" x1="163.8376" y1="117.3611" x2="265.8849" y2="117.3611">
			<stop  offset="0" style="stop-color:#FFFFFF;stop-opacity:0.1"/>
			<stop  offset="1" style="stop-color:#FFFFFF"/>
		</linearGradient>
		<path class="st6" d="M194.92,168.385c-10.343,0-20.759-2.256-30.484-6.901c-0.524-0.25-0.747-0.878-0.496-1.402
			c0.25-0.525,0.878-0.748,1.402-0.496c26.254,12.539,57.719,7.137,78.3-13.443c20.581-20.581,25.983-52.047,13.443-78.3
			c-0.251-0.524-0.029-1.152,0.496-1.402c0.522-0.251,1.152-0.029,1.402,0.496c12.924,27.056,7.357,59.484-13.853,80.694
			C231.544,161.216,213.352,168.385,194.92,168.385z"/>
	</g>
	<g class="st7">
		<linearGradient id="SVGID_5_" gradientUnits="userSpaceOnUse" x1="97.5" y1="124.9305" x2="237.6382" y2="124.9305">
			<stop  offset="0" style="stop-color:#FFFFFF"/>
			<stop  offset="1" style="stop-color:#FFFFFF;stop-opacity:0.1"/>
		</linearGradient>
		<path class="st8" d="M195.109,195c-25.355,0.001-50.372-9.858-69.062-28.547c-29.174-29.174-36.831-73.778-19.054-110.992
			c0.25-0.525,0.877-0.748,1.402-0.496c0.524,0.25,0.747,0.878,0.496,1.402c-17.392,36.411-9.9,80.053,18.644,108.598
			c28.544,28.544,72.185,36.036,108.598,18.644c0.521-0.253,1.152-0.03,1.402,0.496c0.251,0.524,0.029,1.152-0.496,1.402
			C223.666,191.896,209.333,194.999,195.109,195z"/>
	</g>
	<g class="st7">
		<linearGradient id="SVGID_6_" gradientUnits="userSpaceOnUse" x1="152.362" y1="70.0691" x2="292.5" y2="70.0691">
			<stop  offset="0" style="stop-color:#FFFFFF;stop-opacity:0.1"/>
			<stop  offset="1" style="stop-color:#FFFFFF"/>
		</linearGradient>
		<path class="st9" d="M282.058,140.138c-0.152,0-0.306-0.033-0.453-0.103c-0.524-0.25-0.747-0.878-0.496-1.402
			c17.392-36.412,9.899-80.054-18.645-108.598C233.921,1.491,190.28-6.002,153.867,11.39c-0.523,0.249-1.152,0.028-1.402-0.496
			c-0.251-0.524-0.029-1.152,0.496-1.403C190.175-8.283,234.78-0.626,263.953,28.547s36.831,73.777,19.055,110.992
			C282.827,139.917,282.451,140.138,282.058,140.138z"/>
	</g>
	<g>
		<g>
			<g id="g44_116_" transform="translate(0.532000, 0.774933)">
				<g id="path46_116_">
					<path class="st10" d="M216.925,98.446l-2.525-7.758l-4.995-15.388c-0.256-0.787-1.372-0.787-1.638,0l-4.995,15.379h-16.595
						l-4.995-15.379c-0.256-0.787-1.372-0.787-1.638,0l-4.986,15.379l-2.525,7.767c-0.229,0.704,0.018,1.482,0.622,1.921
						l21.819,15.854l21.819-15.854C216.898,99.928,217.154,99.151,216.925,98.446"/>
				</g>
			</g>
			<g id="g48_144_" transform="translate(155.197863, 1.160267)">
				<g id="path50_144_">
					<path class="st11" d="M39.815,115.826L39.815,115.826l8.298-25.533H31.517L39.815,115.826L39.815,115.826z"/>
				</g>
			</g>
			<g id="g56_144_" transform="translate(28.531199, 1.160800)">
				<g id="path58_144_">
					<path class="st10" d="M166.475,115.826l-8.298-25.533h-11.619L166.475,115.826L166.475,115.826z"/>
				</g>
			</g>
			<g id="g64_144_" transform="translate(0.088533, 0.255867)">
				<g id="path66_144_">
					<path class="st12" d="M174.998,91.206L174.998,91.206l-2.525,7.758c-0.229,0.704,0.018,1.482,0.622,1.921l21.819,15.854
						L174.998,91.206L174.998,91.206z"/>
				</g>
			</g>
			<g id="g72_144_" transform="translate(29.421866, 280.255593)">
				<g id="path74_144_">
					<path class="st11" d="M145.668-188.794h11.628l-5.004-15.379c-0.256-0.787-1.372-0.787-1.638,0L145.668-188.794
						L145.668-188.794z"/>
				</g>
			</g>
			<g id="g76_144_" transform="translate(247.197860, 1.160800)">
				<g id="path78_144_">
					<path class="st10" d="M-52.185,115.826l8.298-25.533h11.628L-52.185,115.826L-52.185,115.826z"/>
				</g>
			</g>
			<g id="g80_144_" transform="translate(246.307061, 0.255867)">
				<g id="path82_144_">
					<path class="st12" d="M-31.377,91.206L-31.377,91.206l2.525,7.758c0.229,0.704-0.018,1.482-0.622,1.921l-21.819,15.845
						L-31.377,91.206L-31.377,91.206z"/>
				</g>
			</g>
			<g id="g84_144_" transform="translate(336.973725, 280.255593)">
				<g id="path86_144_">
					<path class="st11" d="M-122.038-188.794h-11.628l4.995-15.379c0.256-0.787,1.372-0.787,1.638,0L-122.038-188.794
						L-122.038-188.794z"/>
				</g>
			</g>
		</g>
	</g>
</g>
</svg>
